1950      8.6150       6.705       9.031      2.3260   Weta=-0.801  Kp= 0.00
1951      8.6380       6.701       9.028      2.3270   Weta=-0.800  Kp= 0.00
1952      8.6290       6.366       9.025      2.6590   Weta=-0.776  Kp= 0.00
1953      8.6180       6.441       9.021      2.5800   Weta=-0.782  Kp= 0.00
1954      8.6210       6.690       9.018      2.3280   Weta=-0.799  Kp= 0.00
1955      8.6280       6.382       9.015      2.6330   Weta=-0.777  Kp= 0.00
1956      8.6320       6.530       9.010      2.4800   Weta=-0.787  Kp= 0.00
1957      8.6320       6.392       9.005      2.6130   Weta=-0.777  Kp= 0.00
1958      8.6210       6.494       9.002      2.5080   Weta=-0.784  Kp= 0.00
1959      8.6160       6.560       8.998      2.4380   Weta=-0.789  Kp= 0.00
1960      8.6200       6.539       8.996      2.4570   Weta=-0.787  Kp= 0.00
1961      8.6160       6.522       8.996      2.4740   Weta=-0.786  Kp= 0.00
1962      8.6250       6.788       8.996      2.2080   Weta=-0.804  Kp= 0.00
1963      8.6180       6.670       8.996      2.3260   Weta=-0.797  Kp= 0.00
1964      8.6250       6.720       8.996      2.2760   Weta=-0.800  Kp= 0.00
1965      8.6230       6.469       8.994      2.5250   Weta=-0.782  Kp= 0.00
1966      8.6150       6.414       8.995      2.5810   Weta=-0.778  Kp= 0.00
1967      8.6120       6.554       8.994      2.4400   Weta=-0.788  Kp= 0.00
1968      8.6240       6.719       8.994      2.2750   Weta=-0.800  Kp= 0.00
1969      8.5960       5.807       8.993      3.1860   Weta=-0.731  Kp= 0.00
1970      8.5900       6.543       8.990      2.4470   Weta=-0.787  Kp= 0.00
1971      8.5970       6.407       8.992      2.5850   Weta=-0.778  Kp= 0.00
1972      8.6080       6.532       8.992      2.4600   Weta=-0.787  Kp= 0.00
1973      8.6030       6.686       8.990      2.3040   Weta=-0.797  Kp= 0.00
1974      8.5980       6.289       8.991      2.7020   Weta=-0.769  Kp= 0.00
1975      8.5870       6.407       8.986      2.5790   Weta=-0.777  Kp= 0.00
1976      8.5760       5.908       8.975      3.0670   Weta=-0.738  Kp= 0.00
1977      8.5640       6.659       8.967      2.3080   Weta=-0.794  Kp= 0.00
1978      8.5700       6.517       8.956      2.4390   Weta=-0.784  Kp= 0.00
1979      8.5460       6.678       8.948      2.2700   Weta=-0.795  Kp= 0.00
1980      8.5330       6.445       8.936      2.4910   Weta=-0.778  Kp= 0.00
1981      8.5300       6.625       8.921      2.2960   Weta=-0.790  Kp= 0.00
1982      8.5240       6.463       8.906      2.4430   Weta=-0.778  Kp= 0.00
1983      8.4910       6.448       8.891      2.4430   Weta=-0.776  Kp= 0.00
1984      8.4790       6.210       8.876      2.6660   Weta=-0.757  Kp= 0.00
1985      8.4630       6.458       8.863      2.4050   Weta=-0.775  Kp= 0.00
1986      8.4400       6.306       8.850      2.5440   Weta=-0.763  Kp= 0.00
1987      8.4400       5.752       8.839      3.0870   Weta=-0.718  Kp= 0.00
1988      8.4400       6.424       8.829      2.4050   Weta=-0.771  Kp= 0.00
1989      8.4080       6.555       8.818      2.2630   Weta=-0.780  Kp= 0.00
1990      8.4100       6.402       8.807      2.4050   Weta=-0.768  Kp= 0.00
1991      8.3910       6.261       8.798      2.5370   Weta=-0.758  Kp= 0.00
1992      8.3860       6.390       8.788      2.3980   Weta=-0.767  Kp= 0.00
1993      8.3640       6.340       8.777      2.4370   Weta=-0.762  Kp= 0.00
1994      8.3700       6.148       8.769      2.6210   Weta=-0.747  Kp= 0.00
1995      8.3420       6.176       8.758      2.5820   Weta=-0.749  Kp= 0.00
1996      8.3320       6.329       8.746      2.4170   Weta=-0.760  Kp= 0.00
1997      8.3280       6.161       8.734      2.5730   Weta=-0.747  Kp= 0.00
1998      8.3070       6.467       8.722      2.2550   Weta=-0.769  Kp= 0.00
1999      8.3060       6.475       8.710      2.2350   Weta=-0.769  Kp= 0.00
2000      8.2870       6.240       8.699      2.4590   Weta=-0.751  Kp= 0.00
2001      8.2940       6.443       8.689      2.2460   Weta=-0.766  Kp= 0.00
2002      8.2840       6.347       8.680      2.3330   Weta=-0.758  Kp= 0.00
2003      8.2710       5.808       8.670      2.8620   Weta=-0.714  Kp= 0.00
2004      8.2730       6.125       8.659      2.5340   Weta=-0.740  Kp= 0.00
2005      8.2950       6.302       8.652      2.3500   Weta=-0.753  Kp= 0.00
2006      8.2660       6.306       8.646      2.3400   Weta=-0.753  Kp= 0.00
2007      8.2680       6.334       8.641      2.3070   Weta=-0.755  Kp= 0.00
2008      8.2660       6.317       8.635      2.3180   Weta=-0.754  Kp= 0.00
2009      8.2580       6.269       8.629      2.3600   Weta=-0.750  Kp= 0.00
2010      8.2530       6.112       8.623      2.5110   Weta=-0.737  Kp= 0.00
2011      8.2410       6.444       8.616      2.1720   Weta=-0.762  Kp= 0.00
2012      8.2560       5.786       8.610      2.8240   Weta=-0.709  Kp= 0.00
2013      8.2280       5.824       8.603      2.7790   Weta=-0.712  Kp= 0.00
2014      8.2190       6.313       8.597      2.2840   Weta=-0.751  Kp= 0.00
2015      8.2290       6.304       8.592      2.2880   Weta=-0.750  Kp= 0.00
2016      8.2350       6.176       8.588      2.4120   Weta=-0.740  Kp= 0.00
2017      8.2020       6.185       8.585      2.4000   Weta=-0.741  Kp= 0.00
2018      8.2200       6.285       8.580      2.2950   Weta=-0.748  Kp= 0.00
2019      8.2090       6.092       8.578      2.4860   Weta=-0.733  Kp= 0.00
2020      8.2070       5.682       8.575      2.8930   Weta=-0.698  Kp= 0.00
