1950      2.9760       2.459       3.225      0.7660   Weta= 0.600  Kp= 0.00
1951      2.9790       2.540       3.226      0.6860   Weta= 0.566  Kp= 0.00
1952      2.9740       2.539       3.233      0.6940   Weta= 0.564  Kp= 0.00
1953      2.9580       2.541       3.228      0.6870   Weta= 0.565  Kp= 0.00
1954      2.9610       2.471       3.228      0.7570   Weta= 0.594  Kp= 0.00
1955      2.9870       2.548       3.231      0.6830   Weta= 0.561  Kp= 0.00
1956      2.9900       2.562       3.238      0.6760   Weta= 0.553  Kp= 0.00
1957      2.9640       2.566       3.240      0.6740   Weta= 0.551  Kp= 0.00
1958      2.9870       2.430       3.234      0.8040   Weta= 0.610  Kp= 0.00
1959      2.9750       2.575       3.235      0.6600   Weta= 0.549  Kp= 0.00
1960      2.9850       2.448       3.237      0.7890   Weta= 0.601  Kp= 0.00
1961      2.9990       2.470       3.239      0.7690   Weta= 0.591  Kp= 0.00
1962      3.0100       2.644       3.241      0.5970   Weta= 0.520  Kp= 0.00
1963      2.9850       2.555       3.243      0.6880   Weta= 0.555  Kp= 0.00
1964      2.9980       2.595       3.252      0.6570   Weta= 0.536  Kp= 0.00
1965      2.9940       2.457       3.254      0.7970   Weta= 0.592  Kp= 0.00
1966      3.0090       2.572       3.249      0.6770   Weta= 0.546  Kp= 0.00
1967      3.0280       2.582       3.258      0.6760   Weta= 0.539  Kp= 0.00
1968      3.0050       2.614       3.259      0.6450   Weta= 0.526  Kp= 0.00
1969      3.0110       2.596       3.262      0.6660   Weta= 0.532  Kp= 0.00
1970      3.0050       2.578       3.259      0.6810   Weta= 0.540  Kp= 0.00
1971      3.0140       2.587       3.259      0.6720   Weta= 0.537  Kp= 0.00
1972      3.0110       2.600       3.268      0.6680   Weta= 0.529  Kp= 0.00
1973      3.0210       2.465       3.263      0.7980   Weta= 0.586  Kp= 0.00
1974      3.0170       2.596       3.269      0.6730   Weta= 0.530  Kp= 0.00
1975      3.0090       2.598       3.266      0.6680   Weta= 0.530  Kp= 0.00
1976      3.0110       2.617       3.266      0.6490   Weta= 0.523  Kp= 0.00
1977      3.0300       2.342       3.266      0.9240   Weta= 0.640  Kp= 0.00
1978      3.0190       2.509       3.273      0.7640   Weta= 0.565  Kp= 0.00
1979      3.0150       2.606       3.273      0.6670   Weta= 0.525  Kp= 0.00
1980      3.0300       2.470       3.272      0.8020   Weta= 0.581  Kp= 0.00
1981      3.0110       2.606       3.262      0.6560   Weta= 0.528  Kp= 0.00
1982      3.0140       2.475       3.267      0.7920   Weta= 0.581  Kp= 0.00
1983      2.9990       2.354       3.265      0.9110   Weta= 0.635  Kp= 0.00
1984      3.0040       2.650       3.262      0.6120   Weta= 0.511  Kp= 0.00
1985      2.9820       2.443       3.254      0.8110   Weta= 0.598  Kp= 0.00
1986      3.0120       2.484       3.251      0.7670   Weta= 0.582  Kp= 0.00
1987      3.0020       2.452       3.255      0.8030   Weta= 0.594  Kp= 0.00
1988      3.0080       2.593       3.246      0.6530   Weta= 0.538  Kp= 0.00
1989      3.0080       2.582       3.251      0.6690   Weta= 0.541  Kp= 0.00
1990      3.0120       2.436       3.249      0.8130   Weta= 0.603  Kp= 0.00
1991      2.9880       2.596       3.248      0.6520   Weta= 0.537  Kp= 0.00
1992      2.9940       2.597       3.247      0.6500   Weta= 0.536  Kp= 0.00
1993      2.9890       2.454       3.245      0.7910   Weta= 0.596  Kp= 0.00
1994      2.9910       2.564       3.244      0.6800   Weta= 0.551  Kp= 0.00
1995      2.9890       2.403       3.239      0.8360   Weta= 0.621  Kp= 0.00
1996      2.9920       2.296       3.235      0.9390   Weta= 0.672  Kp= 0.00
1997      2.9890       2.617       3.235      0.6180   Weta= 0.532  Kp= 0.00
1998      2.9860       2.600       3.233      0.6330   Weta= 0.539  Kp= 0.00
1999      2.9760       2.552       3.231      0.6790   Weta= 0.559  Kp= 0.00
2000      2.9760       2.537       3.226      0.6890   Weta= 0.567  Kp= 0.00
2001      2.9750       2.273       3.224      0.9510   Weta= 0.686  Kp= 0.00
2002      2.9820       2.414       3.230      0.8160   Weta= 0.618  Kp= 0.00
2003      2.9750       2.414       3.229      0.8150   Weta= 0.619  Kp= 0.00
2004      2.9750       2.584       3.227      0.6430   Weta= 0.548  Kp= 0.00
2005      2.9760       2.368       3.227      0.8590   Weta= 0.640  Kp= 0.00
2006      2.9660       2.408       3.227      0.8190   Weta= 0.622  Kp= 0.00
2007      2.9550       2.310       3.228      0.9180   Weta= 0.667  Kp= 0.00
2008      2.9730       2.542       3.229      0.6870   Weta= 0.564  Kp= 0.00
2009      2.9670       2.425       3.230      0.8050   Weta= 0.614  Kp= 0.00
2010      2.9770       2.339       3.227      0.8880   Weta= 0.654  Kp= 0.00
2011      2.9660       2.297       3.230      0.9330   Weta= 0.673  Kp= 0.00
2012      2.9620       2.534       3.225      0.6910   Weta= 0.569  Kp= 0.00
2013      2.9780       2.558       3.227      0.6690   Weta= 0.558  Kp= 0.00
2014      2.9770       2.533       3.228      0.6950   Weta= 0.568  Kp= 0.00
2015      2.9800       2.359       3.232      0.8730   Weta= 0.643  Kp= 0.00
2016      2.9910       2.542       3.233      0.6910   Weta= 0.563  Kp= 0.00
2017      2.9970       2.449       3.233      0.7840   Weta= 0.602  Kp= 0.00
2018      2.9700       2.461       3.228      0.7670   Weta= 0.598  Kp= 0.00
2019      2.9880       2.441       3.236      0.7950   Weta= 0.605  Kp= 0.00
2020      2.9670       2.565       3.237      0.6720   Weta= 0.552  Kp= 0.00
