1950     13.5275      13.527      13.528      0.0010   Weta=-1.515  Kp= 0.00
1951     13.5105      13.510      13.511      0.0010   Weta=-1.514  Kp= 0.00
1952     13.4945      13.494      13.495      0.0010   Weta=-1.512  Kp= 0.00
1953     13.4775      13.477      13.478      0.0010   Weta=-1.512  Kp= 0.00
1954     13.4615      13.461      13.462      0.0010   Weta=-1.512  Kp= 0.00
1955     13.4410      13.441      13.442      0.0010   Weta=-1.510  Kp= 0.00
1956     13.4190      13.419      13.420      0.0010   Weta=-1.511  Kp= 0.00
1957     13.3960      13.396      13.397      0.0010   Weta=-1.509  Kp= 0.00
1958     13.3740      13.374      13.375      0.0010   Weta=-1.509  Kp= 0.00
1959     13.3525      13.352      13.353      0.0010   Weta=-1.508  Kp= 0.00
1960     13.3315      13.331      13.332      0.0010   Weta=-1.507  Kp= 0.00
1961     13.3130      13.313      13.314      0.0010   Weta=-1.506  Kp= 0.00
1962     13.2940      13.294      13.295      0.0010   Weta=-1.505  Kp= 0.00
1963     13.2750      13.275      13.276      0.0010   Weta=-1.506  Kp= 0.00
1964     13.2560      13.256      13.257      0.0010   Weta=-1.503  Kp= 0.00
1965     13.2360      13.236      13.237      0.0010   Weta=-1.503  Kp= 0.00
1966     13.2135      13.213      13.214      0.0010   Weta=-1.501  Kp= 0.00
1967     13.1900      13.190      13.191      0.0010   Weta=-1.500  Kp= 0.00
1968     13.1685      13.168      13.169      0.0010   Weta=-1.500  Kp= 0.00
1969     13.1455      13.145      13.146      0.0010   Weta=-1.499  Kp= 0.00
1970     13.1235      13.123      13.124      0.0010   Weta=-1.497  Kp= 0.00
1971     13.1010      13.101      13.102      0.0010   Weta=-1.498  Kp= 0.00
1972     13.0795      13.079      13.080      0.0010   Weta=-1.496  Kp= 0.00
1973     13.0580      13.058      13.059      0.0010   Weta=-1.496  Kp= 0.00
1974     13.0365      13.036      13.037      0.0010   Weta=-1.495  Kp= 0.00
1975     13.0160      13.016      13.017      0.0010   Weta=-1.495  Kp= 0.00
1976     12.9985      12.998      12.999      0.0010   Weta=-1.493  Kp= 0.00
1977     12.9800      12.980      12.981      0.0010   Weta=-1.493  Kp= 0.00
1978     12.9620      12.962      12.963      0.0010   Weta=-1.492  Kp= 0.00
1979     12.9445      12.944      12.945      0.0010   Weta=-1.493  Kp= 0.00
1980     12.9255      12.925      12.926      0.0010   Weta=-1.489  Kp= 0.00
1981     12.9050      12.905      12.906      0.0010   Weta=-1.489  Kp= 0.00
1982     12.8840      12.884      12.885      0.0010   Weta=-1.490  Kp= 0.00
1983     12.8645      12.864      12.865      0.0010   Weta=-1.488  Kp= 0.00
1984     12.8440      12.844      12.845      0.0010   Weta=-1.487  Kp= 0.00
1985     12.8245      12.824      12.825      0.0010   Weta=-1.487  Kp= 0.00
1986     12.8060      12.806      12.807      0.0010   Weta=-1.487  Kp= 0.00
1987     12.7870      12.787      12.788      0.0010   Weta=-1.485  Kp= 0.00
1988     12.7680      12.768      12.769      0.0010   Weta=-1.484  Kp= 0.00
1989     12.7490      12.749      12.750      0.0010   Weta=-1.483  Kp= 0.00
1990     12.7300      12.730      12.731      0.0010   Weta=-1.482  Kp= 0.00
1991     12.7120      12.712      12.713      0.0010   Weta=-1.482  Kp= 0.00
1992     12.6930      12.693      12.694      0.0010   Weta=-1.481  Kp= 0.00
1993     12.6755      12.675      12.676      0.0010   Weta=-1.480  Kp= 0.00
1994     12.6565      12.656      12.657      0.0010   Weta=-1.480  Kp= 0.00
1995     12.6375      12.637      12.638      0.0010   Weta=-1.478  Kp= 0.00
1996     12.6170      12.617      12.618      0.0010   Weta=-1.478  Kp= 0.00
1997     12.5975      12.597      12.598      0.0010   Weta=-1.478  Kp= 0.00
1998     12.5780      12.578      12.579      0.0010   Weta=-1.476  Kp= 0.00
1999     12.5580      12.558      12.559      0.0010   Weta=-1.475  Kp= 0.00
2000     12.5385      12.538      12.539      0.0010   Weta=-1.475  Kp= 0.00
2001     12.5180      12.518      12.519      0.0010   Weta=-1.474  Kp= 0.00
2002     12.4985      12.498      12.499      0.0010   Weta=-1.473  Kp= 0.00
2003     12.4795      12.479      12.480      0.0010   Weta=-1.471  Kp= 0.00
2004     12.4590      12.459      12.460      0.0010   Weta=-1.472  Kp= 0.00
2005     12.4395      12.439      12.440      0.0010   Weta=-1.470  Kp= 0.00
2006     12.4190      12.419      12.420      0.0010   Weta=-1.469  Kp= 0.00
2007     12.3995      12.399      12.400      0.0010   Weta=-1.468  Kp= 0.00
2008     12.3805      12.380      12.381      0.0010   Weta=-1.467  Kp= 0.00
2009     12.3600      12.360      12.361      0.0010   Weta=-1.467  Kp= 0.00
2010     12.3390      12.339      12.340      0.0010   Weta=-1.466  Kp= 0.00
2011     12.3180      12.318      12.319      0.0010   Weta=-1.465  Kp= 0.00
2012     12.2960      12.296      12.297      0.0010   Weta=-1.464  Kp= 0.00
2013     12.2750      12.275      12.276      0.0010   Weta=-1.464  Kp= 0.00
2014     12.2535      12.253      12.254      0.0010   Weta=-1.463  Kp= 0.00
2015     12.2325      12.232      12.233      0.0010   Weta=-1.461  Kp= 0.00
2016     12.2135      12.213      12.214      0.0010   Weta=-1.460  Kp= 0.00
2017     12.1930      12.193      12.194      0.0010   Weta=-1.459  Kp= 0.00
2018     12.1735      12.173      12.174      0.0010   Weta=-1.459  Kp= 0.00
2019     12.1510      12.117      12.153      0.0360   Weta=-1.457  Kp= 0.00
2020     12.1310      12.096      12.134      0.0380   Weta=-1.456  Kp= 0.00
