1950      2.2510       1.945       2.467      0.5220   Weta= 1.172  Kp= 0.00
1951      2.2630       1.876       2.469      0.5930   Weta= 1.218  Kp= 0.00
1952      2.2400       1.960       2.465      0.5050   Weta= 1.163  Kp= 0.00
1953      2.2310       1.884       2.464      0.5800   Weta= 1.215  Kp= 0.00
1954      2.2370       1.847       2.463      0.6160   Weta= 1.242  Kp= 0.00
1955      2.2350       1.977       2.466      0.4890   Weta= 1.151  Kp= 0.00
1956      2.2360       1.952       2.461      0.5090   Weta= 1.170  Kp= 0.00
1957      2.2190       1.872       2.466      0.5940   Weta= 1.223  Kp= 0.00
1958      2.2380       1.853       2.458      0.6050   Weta= 1.241  Kp= 0.00
1959      2.2280       1.879       2.458      0.5790   Weta= 1.222  Kp= 0.00
1960      2.2200       1.856       2.456      0.6000   Weta= 1.239  Kp= 0.00
1961      2.2320       1.945       2.456      0.5110   Weta= 1.177  Kp= 0.00
1962      2.2120       1.855       2.462      0.6070   Weta= 1.237  Kp= 0.00
1963      2.2360       1.974       2.455      0.4810   Weta= 1.158  Kp= 0.00
1964      2.2340       1.806       2.455      0.6490   Weta= 1.277  Kp= 0.00
1965      2.2070       1.785       2.461      0.6760   Weta= 1.290  Kp= 0.00
1966      2.2260       1.888       2.456      0.5680   Weta= 1.216  Kp= 0.00
1967      2.2270       1.928       2.453      0.5250   Weta= 1.190  Kp= 0.00
1968      2.2390       1.866       2.454      0.5880   Weta= 1.233  Kp= 0.00
1969      2.2290       1.968       2.452      0.4840   Weta= 1.164  Kp= 0.00
1970      2.2260       1.786       2.451      0.6650   Weta= 1.294  Kp= 0.00
1971      2.2270       1.867       2.452      0.5850   Weta= 1.233  Kp= 0.00
1972      2.2340       1.822       2.448      0.6260   Weta= 1.269  Kp= 0.00
1973      2.2230       1.943       2.448      0.5050   Weta= 1.182  Kp= 0.00
1974      2.2240       1.837       2.445      0.6080   Weta= 1.259  Kp= 0.00
1975      2.2060       1.838       2.441      0.6030   Weta= 1.260  Kp= 0.00
1976      2.2070       1.854       2.439      0.5850   Weta= 1.250  Kp= 0.00
1977      2.2050       1.856       2.437      0.5810   Weta= 1.249  Kp= 0.00
1978      2.1940       1.925       2.426      0.5010   Weta= 1.206  Kp= 0.00
1979      2.1820       1.925       2.421      0.4960   Weta= 1.208  Kp= 0.00
1980      2.1760       1.847       2.420      0.5730   Weta= 1.264  Kp= 0.00
1981      2.1510       1.792       2.408      0.6160   Weta= 1.312  Kp= 0.00
1982      2.1610       1.776       2.401      0.6250   Weta= 1.328  Kp= 0.00
1983      2.1530       1.796       2.393      0.5970   Weta= 1.317  Kp= 0.00
1984      2.1430       1.775       2.388      0.6130   Weta= 1.336  Kp= 0.00
1985      2.1390       1.777       2.380      0.6030   Weta= 1.339  Kp= 0.00
1986      2.1430       1.799       2.374      0.5750   Weta= 1.325  Kp= 0.00
1987      2.1360       1.706       2.369      0.6630   Weta= 1.402  Kp= 0.00
1988      2.1240       1.706       2.363      0.6570   Weta= 1.406  Kp= 0.00
1989      2.1250       1.819       2.363      0.5440   Weta= 1.316  Kp= 0.00
1990      2.1150       1.748       2.355      0.6070   Weta= 1.375  Kp= 0.00
1991      2.1040       1.807       2.349      0.5420   Weta= 1.332  Kp= 0.00
1992      2.0990       1.865       2.346      0.4810   Weta= 1.291  Kp= 0.00
1993      2.1020       1.781       2.339      0.5580   Weta= 1.358  Kp= 0.00
1994      2.0830       1.809       2.335      0.5260   Weta= 1.339  Kp= 0.00
1995      2.0820       1.754       2.331      0.5770   Weta= 1.384  Kp= 0.00
1996      2.0790       1.762       2.323      0.5610   Weta= 1.382  Kp= 0.00
1997      2.0640       1.798       2.316      0.5180   Weta= 1.358  Kp= 0.00
1998      2.0600       1.614       2.309      0.6950   Weta= 1.517  Kp= 0.00
1999      2.0570       1.693       2.303      0.6100   Weta= 1.450  Kp= 0.00
2000      2.0410       1.601       2.296      0.6950   Weta= 1.537  Kp= 0.00
2001      2.0480       1.656       2.291      0.6350   Weta= 1.490  Kp= 0.00
2002      2.0510       1.758       2.282      0.5240   Weta= 1.409  Kp= 0.00
2003      2.0360       1.748       2.274      0.5260   Weta= 1.421  Kp= 0.00
2004      2.0330       1.672       2.267      0.5950   Weta= 1.490  Kp= 0.00
2005      2.0250       1.703       2.259      0.5560   Weta= 1.468  Kp= 0.00
2006      2.0000       1.777       2.249      0.4720   Weta= 1.413  Kp= 0.00
2007      2.0050       1.722       2.239      0.5170   Weta= 1.463  Kp= 0.00
2008      1.9820       1.642       2.229      0.5870   Weta= 1.539  Kp= 0.00
2009      1.9720       1.754       2.221      0.4670   Weta= 1.448  Kp= 0.00
2010      1.9710       1.733       2.208      0.4750   Weta= 1.473  Kp= 0.00
2011      1.9660       1.534       2.195      0.6610   Weta= 1.663  Kp= 0.00
2012      1.9420       1.611       2.183      0.5720   Weta= 1.596  Kp= 0.00
2013      1.9290       1.679       2.169      0.4900   Weta= 1.543  Kp= 0.00
2014      1.9220       1.678       2.156      0.4780   Weta= 1.553  Kp= 0.00
2015      1.9260       1.678       2.141      0.4630   Weta= 1.562  Kp= 0.00
2016      1.8930       1.667       2.128      0.4610   Weta= 1.580  Kp= 0.00
2017      1.8840       1.644       2.114      0.4700   Weta= 1.610  Kp= 0.00
2018      1.8680       1.550       2.101      0.5510   Weta= 1.709  Kp= 0.00
2019      1.8630       1.581       2.087      0.5060   Weta= 1.688  Kp= 0.00
2020      1.8700       1.621       2.077      0.4560   Weta= 1.657  Kp= 0.00
