1950      2.6800       2.361       2.956      0.5950   Weta= 0.739  Kp= 0.00
1951      2.7030       2.176       2.960      0.7840   Weta= 0.830  Kp= 0.00
1952      2.6940       2.161       2.960      0.7990   Weta= 0.838  Kp= 0.00
1953      2.6980       2.213       2.963      0.7500   Weta= 0.810  Kp= 0.00
1954      2.6920       2.174       2.969      0.7950   Weta= 0.828  Kp= 0.00
1955      2.6820       2.206       2.974      0.7680   Weta= 0.809  Kp= 0.00
1956      2.7030       2.180       2.977      0.7970   Weta= 0.822  Kp= 0.00
1957      2.7100       2.215       2.980      0.7650   Weta= 0.802  Kp= 0.00
1958      2.6910       2.224       2.983      0.7590   Weta= 0.797  Kp= 0.00
1959      2.7200       2.232       2.986      0.7540   Weta= 0.792  Kp= 0.00
1960      2.7040       2.267       2.989      0.7220   Weta= 0.773  Kp= 0.00
1961      2.7120       2.325       2.985      0.6600   Weta= 0.746  Kp= 0.00
1962      2.7180       2.153       2.988      0.8350   Weta= 0.832  Kp= 0.00
1963      2.7070       2.280       2.992      0.7120   Weta= 0.766  Kp= 0.00
1964      2.7110       2.267       2.997      0.7300   Weta= 0.770  Kp= 0.00
1965      2.7160       2.181       3.005      0.8240   Weta= 0.811  Kp= 0.00
1966      2.7240       2.285       3.008      0.7230   Weta= 0.758  Kp= 0.00
1967      2.7380       2.229       3.011      0.7820   Weta= 0.784  Kp= 0.00
1968      2.7270       2.176       3.014      0.8380   Weta= 0.811  Kp= 0.00
1969      2.7280       2.247       3.017      0.7700   Weta= 0.773  Kp= 0.00
1970      2.7400       2.224       3.013      0.7890   Weta= 0.786  Kp= 0.00
1971      2.7370       2.200       3.017      0.8170   Weta= 0.797  Kp= 0.00
1972      2.7460       2.376       3.027      0.6510   Weta= 0.708  Kp= 0.00
1973      2.7430       2.308       3.024      0.7160   Weta= 0.741  Kp= 0.00
1974      2.7630       2.376       3.034      0.6580   Weta= 0.705  Kp= 0.00
1975      2.7510       2.279       3.030      0.7510   Weta= 0.753  Kp= 0.00
1976      2.7640       2.139       3.032      0.8930   Weta= 0.824  Kp= 0.00
1977      2.7650       2.222       3.038      0.8160   Weta= 0.779  Kp= 0.00
1978      2.7400       2.242       3.036      0.7940   Weta= 0.769  Kp= 0.00
1979      2.7650       2.309       3.038      0.7290   Weta= 0.736  Kp= 0.00
1980      2.7640       2.178       3.045      0.8670   Weta= 0.799  Kp= 0.00
1981      2.7570       2.316       3.044      0.7280   Weta= 0.730  Kp= 0.00
1982      2.7610       2.291       3.043      0.7520   Weta= 0.743  Kp= 0.00
1983      2.7570       2.378       3.044      0.6660   Weta= 0.701  Kp= 0.00
1984      2.7700       2.357       3.037      0.6800   Weta= 0.713  Kp= 0.00
1985      2.7610       2.281       3.037      0.7560   Weta= 0.750  Kp= 0.00
1986      2.7670       2.264       3.043      0.7790   Weta= 0.756  Kp= 0.00
1987      2.7570       2.249       3.035      0.7860   Weta= 0.766  Kp= 0.00
1988      2.7640       2.301       3.034      0.7330   Weta= 0.741  Kp= 0.00
1989      2.7660       2.295       3.040      0.7450   Weta= 0.742  Kp= 0.00
1990      2.7470       2.417       3.033      0.6160   Weta= 0.687  Kp= 0.00
1991      2.7690       2.297       3.033      0.7360   Weta= 0.743  Kp= 0.00
1992      2.7410       2.237       3.040      0.8030   Weta= 0.770  Kp= 0.00
1993      2.7670       2.267       3.034      0.7670   Weta= 0.757  Kp= 0.00
1994      2.7590       2.301       3.038      0.7370   Weta= 0.739  Kp= 0.00
1995      2.7490       2.280       3.034      0.7540   Weta= 0.751  Kp= 0.00
1996      2.7430       2.416       3.040      0.6240   Weta= 0.685  Kp= 0.00
1997      2.7510       2.265       3.039      0.7740   Weta= 0.757  Kp= 0.00
1998      2.7470       2.093       3.039      0.9460   Weta= 0.847  Kp= 0.00
1999      2.7420       2.266       3.032      0.7660   Weta= 0.759  Kp= 0.00
2000      2.7450       2.291       3.032      0.7410   Weta= 0.746  Kp= 0.00
2001      2.7540       2.232       3.032      0.8000   Weta= 0.776  Kp= 0.00
2002      2.7450       2.281       3.035      0.7540   Weta= 0.750  Kp= 0.00
2003      2.7580       2.382       3.038      0.6560   Weta= 0.701  Kp= 0.00
2004      2.7590       2.266       3.039      0.7730   Weta= 0.756  Kp= 0.00
2005      2.7670       2.376       3.033      0.6570   Weta= 0.706  Kp= 0.00
2006      2.7680       2.352       3.035      0.6830   Weta= 0.716  Kp= 0.00
2007      2.7590       2.309       3.044      0.7350   Weta= 0.734  Kp= 0.00
2008      2.7670       2.367       3.042      0.6750   Weta= 0.707  Kp= 0.00
2009      2.7680       2.291       3.043      0.7520   Weta= 0.743  Kp= 0.00
2010      2.7830       2.288       3.048      0.7600   Weta= 0.742  Kp= 0.00
2011      2.7790       2.217       3.046      0.8290   Weta= 0.779  Kp= 0.00
2012      2.7850       2.385       3.048      0.6630   Weta= 0.697  Kp= 0.00
2013      2.7690       2.401       3.050      0.6490   Weta= 0.689  Kp= 0.00
2014      2.8010       2.386       3.053      0.6670   Weta= 0.695  Kp= 0.00
2015      2.8060       2.309       3.061      0.7520   Weta= 0.728  Kp= 0.00
2016      2.7860       2.305       3.064      0.7590   Weta= 0.729  Kp= 0.00
2017      2.8020       2.424       3.067      0.6430   Weta= 0.673  Kp= 0.00
2018      2.7880       2.271       3.065      0.7940   Weta= 0.745  Kp= 0.00
2019      2.7950       2.424       3.070      0.6460   Weta= 0.672  Kp= 0.00
2020      2.7990       2.148       3.075      0.9270   Weta= 0.805  Kp= 0.00
