1950     11.5110      11.095      11.622      0.5270   Weta=-1.106  Kp= 0.00
1951     11.4800      11.067      11.598      0.5310   Weta=-1.105  Kp= 0.00
1952     11.4520      11.038      11.575      0.5370   Weta=-1.103  Kp= 0.00
1953     11.4220      11.010      11.551      0.5410   Weta=-1.102  Kp= 0.00
1954     11.3920      10.982      11.528      0.5460   Weta=-1.100  Kp= 0.00
1955     11.3630      10.951      11.502      0.5510   Weta=-1.099  Kp= 0.00
1956     11.3310      10.918      11.473      0.5550   Weta=-1.097  Kp= 0.00
1957     11.2970      10.884      11.445      0.5610   Weta=-1.095  Kp= 0.00
1958     11.2660      10.851      11.417      0.5660   Weta=-1.093  Kp= 0.00
1959     11.2290      10.817      11.389      0.5720   Weta=-1.091  Kp= 0.00
1960     11.1950      10.785      11.361      0.5760   Weta=-1.090  Kp= 0.00
1961     11.1700      10.754      11.336      0.5820   Weta=-1.088  Kp= 0.00
1962     11.1360      10.724      11.310      0.5860   Weta=-1.086  Kp= 0.00
1963     11.1040      10.693      11.284      0.5910   Weta=-1.085  Kp= 0.00
1964     11.0740      10.662      11.258      0.5960   Weta=-1.083  Kp= 0.00
1965     11.0420      10.629      11.231      0.6020   Weta=-1.081  Kp= 0.00
1966     11.0070      10.595      11.201      0.6060   Weta=-1.079  Kp= 0.00
1967     10.9710      10.560      11.172      0.6120   Weta=-1.077  Kp= 0.00
1968     10.9380      10.526      11.142      0.6160   Weta=-1.075  Kp= 0.00
1969     10.9040      10.491      11.113      0.6220   Weta=-1.073  Kp= 0.00
1970     10.8660      10.456      11.083      0.6270   Weta=-1.071  Kp= 0.00
1971     10.8270      10.420      11.052      0.6320   Weta=-1.069  Kp= 0.00
1972     10.7960      10.384      11.022      0.6380   Weta=-1.067  Kp= 0.00
1973     10.7600      10.349      10.991      0.6420   Weta=-1.065  Kp= 0.00
1974     10.7260      10.313      10.961      0.6480   Weta=-1.063  Kp= 0.00
1975     10.6860      10.278      10.931      0.6530   Weta=-1.061  Kp= 0.00
1976     10.6520      10.243      10.902      0.6590   Weta=-1.059  Kp= 0.00
1977     10.6150      10.210      10.873      0.6630   Weta=-1.057  Kp= 0.00
1978     10.5830      10.177      10.844      0.6670   Weta=-1.055  Kp= 0.00
1979     10.5510      10.146      10.815      0.6690   Weta=-1.053  Kp= 0.00
1980     10.5180      10.113      10.784      0.6710   Weta=-1.051  Kp= 0.00
1981     10.4910      10.079      10.752      0.6730   Weta=-1.049  Kp= 0.00
1982     10.4560      10.025      10.719      0.6940   Weta=-1.046  Kp= 0.00
1983     10.4130       9.989      10.686      0.6970   Weta=-1.044  Kp= 0.00
1984     10.3750       9.947      10.653      0.7060   Weta=-1.041  Kp= 0.00
1985     10.3360       9.908      10.622      0.7140   Weta=-1.039  Kp= 0.00
1986     10.3030       9.871      10.591      0.7200   Weta=-1.037  Kp= 0.00
1987     10.2640       9.833      10.561      0.7280   Weta=-1.034  Kp= 0.00
1988     10.2250       9.798      10.530      0.7320   Weta=-1.032  Kp= 0.00
1989     10.1880       9.759      10.499      0.7400   Weta=-1.030  Kp= 0.00
1990     10.1520       9.722      10.469      0.7470   Weta=-1.027  Kp= 0.00
1991     10.1210       9.685      10.440      0.7550   Weta=-1.025  Kp= 0.00
1992     10.0820       9.653      10.411      0.7580   Weta=-1.023  Kp= 0.00
1993     10.0570       9.621      10.382      0.7610   Weta=-1.021  Kp= 0.00
1994     10.0220       9.590      10.353      0.7630   Weta=-1.018  Kp= 0.00
1995      9.9900       9.557      10.323      0.7660   Weta=-1.016  Kp= 0.00
1996      9.9510       9.523      10.292      0.7690   Weta=-1.014  Kp= 0.00
1997      9.9160       9.490      10.261      0.7710   Weta=-1.012  Kp= 0.00
1998      9.8880       9.456      10.230      0.7740   Weta=-1.009  Kp= 0.00
1999      9.8530       9.422      10.199      0.7770   Weta=-1.007  Kp= 0.00
2000      9.8100       9.389      10.168      0.7790   Weta=-1.004  Kp= 0.00
2001      9.7800       9.357      10.139      0.7820   Weta=-1.002  Kp= 0.00
2002      9.7420       9.325      10.110      0.7850   Weta=-1.000  Kp= 0.00
2003      9.7200       9.294      10.080      0.7860   Weta=-0.998  Kp= 0.00
2004      9.6800       9.192      10.051      0.8590   Weta=-0.993  Kp= 0.00
2005      9.6480       9.160      10.021      0.8610   Weta=-0.990  Kp= 0.00
2006      9.5960       9.113       9.990      0.8770   Weta=-0.987  Kp= 0.00
2007      9.5650       9.073       9.959      0.8860   Weta=-0.984  Kp= 0.00
2008      9.5190       9.036       9.928      0.8920   Weta=-0.982  Kp= 0.00
2009      9.4840       8.998       9.898      0.9000   Weta=-0.979  Kp= 0.00
2010      9.4470       8.962       9.864      0.9020   Weta=-0.976  Kp= 0.00
2011      9.4150       8.902       9.830      0.9280   Weta=-0.972  Kp= 0.00
2012      9.3720       8.863       9.795      0.9320   Weta=-0.970  Kp= 0.00
2013      9.3250       8.820       9.761      0.9410   Weta=-0.966  Kp= 0.00
2014      9.2880       8.786       9.726      0.9400   Weta=-0.964  Kp= 0.00
2015      9.2460       8.744       9.691      0.9470   Weta=-0.960  Kp= 0.00
2016      9.2140       8.711       9.659      0.9480   Weta=-0.958  Kp= 0.00
2017      9.1820       8.667       9.625      0.9580   Weta=-0.954  Kp= 0.00
2018      9.1330       8.665       9.591      0.9260   Weta=-0.953  Kp= 0.00
2019      9.0990       8.623       9.559      0.9360   Weta=-0.950  Kp= 0.00
2020      9.0570       8.488       9.524      1.0360   Weta=-0.942  Kp= 0.00
