1950      4.1990       3.298       4.571      1.2730   Weta=-0.069  Kp= 0.00
1951      4.1930       3.249       4.571      1.3220   Weta=-0.056  Kp= 0.00
1952      4.1870       3.428       4.572      1.1440   Weta=-0.102  Kp= 0.00
1953      4.1950       3.426       4.573      1.1470   Weta=-0.101  Kp= 0.00
1954      4.1970       3.199       4.574      1.3750   Weta=-0.043  Kp= 0.00
1955      4.2040       3.531       4.576      1.0450   Weta=-0.127  Kp= 0.00
1956      4.1950       3.261       4.577      1.3160   Weta=-0.060  Kp= 0.00
1957      4.1970       3.419       4.580      1.1610   Weta=-0.101  Kp= 0.00
1958      4.2060       3.263       4.581      1.3180   Weta=-0.061  Kp= 0.00
1959      4.1890       3.355       4.582      1.2270   Weta=-0.085  Kp= 0.00
1960      4.2130       3.304       4.584      1.2800   Weta=-0.072  Kp= 0.00
1961      4.1940       3.222       4.586      1.3640   Weta=-0.051  Kp= 0.00
1962      4.1860       3.265       4.589      1.3240   Weta=-0.063  Kp= 0.00
1963      4.2260       3.114       4.591      1.4770   Weta=-0.022  Kp= 0.00
1964      4.2150       3.517       4.594      1.0770   Weta=-0.127  Kp= 0.00
1965      4.2000       3.351       4.595      1.2440   Weta=-0.086  Kp= 0.00
1966      4.2110       3.242       4.599      1.3570   Weta=-0.059  Kp= 0.00
1967      4.2130       3.539       4.601      1.0620   Weta=-0.133  Kp= 0.00
1968      4.2230       3.479       4.602      1.1230   Weta=-0.119  Kp= 0.00
1969      4.2190       3.477       4.605      1.1280   Weta=-0.119  Kp= 0.00
1970      4.2210       3.209       4.607      1.3980   Weta=-0.051  Kp= 0.00
1971      4.2190       3.363       4.610      1.2470   Weta=-0.092  Kp= 0.00
1972      4.2180       3.194       4.613      1.4190   Weta=-0.048  Kp= 0.00
1973      4.2300       3.521       4.616      1.0950   Weta=-0.131  Kp= 0.00
1974      4.2170       3.470       4.619      1.1490   Weta=-0.120  Kp= 0.00
1975      4.2290       3.533       4.620      1.0870   Weta=-0.135  Kp= 0.00
1976      4.2370       3.530       4.620      1.0900   Weta=-0.134  Kp= 0.00
1977      4.2180       3.527       4.619      1.0920   Weta=-0.133  Kp= 0.00
1978      4.2000       3.277       4.618      1.3410   Weta=-0.071  Kp= 0.00
1979      4.2290       3.337       4.618      1.2810   Weta=-0.087  Kp= 0.00
1980      4.2090       3.374       4.616      1.2420   Weta=-0.096  Kp= 0.00
1981      4.1930       3.343       4.613      1.2700   Weta=-0.087  Kp= 0.00
1982      4.2230       3.200       4.610      1.4100   Weta=-0.049  Kp= 0.00
1983      4.2010       3.321       4.606      1.2850   Weta=-0.081  Kp= 0.00
1984      4.2040       3.366       4.603      1.2370   Weta=-0.092  Kp= 0.00
1985      4.2170       3.229       4.599      1.3700   Weta=-0.055  Kp= 0.00
1986      4.2030       3.457       4.597      1.1400   Weta=-0.113  Kp= 0.00
1987      4.2060       3.496       4.593      1.0970   Weta=-0.122  Kp= 0.00
1988      4.1810       3.434       4.589      1.1550   Weta=-0.106  Kp= 0.00
1989      4.1950       3.441       4.586      1.1450   Weta=-0.107  Kp= 0.00
1990      4.1820       3.333       4.583      1.2500   Weta=-0.080  Kp= 0.00
1991      4.1920       3.098       4.581      1.4830   Weta=-0.016  Kp= 0.00
1992      4.1690       3.065       4.579      1.5140   Weta=-0.006  Kp= 0.00
1993      4.1800       3.435       4.578      1.1430   Weta=-0.104  Kp= 0.00
1994      4.1680       3.506       4.575      1.0690   Weta=-0.121  Kp= 0.00
1995      4.1670       3.327       4.574      1.2470   Weta=-0.077  Kp= 0.00
1996      4.1760       3.470       4.571      1.1010   Weta=-0.112  Kp= 0.00
1997      4.1520       3.338       4.567      1.2290   Weta=-0.078  Kp= 0.00
1998      4.1570       3.180       4.564      1.3840   Weta=-0.036  Kp= 0.00
1999      4.1710       3.205       4.562      1.3570   Weta=-0.042  Kp= 0.00
2000      4.1680       3.327       4.559      1.2320   Weta=-0.074  Kp= 0.00
2001      4.1590       3.249       4.557      1.3080   Weta=-0.053  Kp= 0.00
2002      4.1720       3.181       4.554      1.3730   Weta=-0.034  Kp= 0.00
2003      4.1700       3.221       4.552      1.3310   Weta=-0.045  Kp= 0.00
2004      4.1630       3.260       4.551      1.2910   Weta=-0.055  Kp= 0.00
2005      4.1500       3.292       4.550      1.2580   Weta=-0.064  Kp= 0.00
2006      4.1740       3.424       4.551      1.1270   Weta=-0.097  Kp= 0.00
2007      4.1470       3.250       4.553      1.3030   Weta=-0.053  Kp= 0.00
2008      4.1670       3.310       4.553      1.2430   Weta=-0.069  Kp= 0.00
2009      4.1590       3.293       4.554      1.2610   Weta=-0.065  Kp= 0.00
2010      4.1520       3.331       4.555      1.2240   Weta=-0.075  Kp= 0.00
2011      4.1620       3.442       4.555      1.1130   Weta=-0.102  Kp= 0.00
2012      4.1830       3.521       4.555      1.0340   Weta=-0.121  Kp= 0.00
2013      4.1540       3.276       4.556      1.2800   Weta=-0.060  Kp= 0.00
2014      4.1650       3.430       4.556      1.1260   Weta=-0.099  Kp= 0.00
2015      4.1570       3.277       4.557      1.2800   Weta=-0.061  Kp= 0.00
2016      4.1530       3.261       4.559      1.2980   Weta=-0.057  Kp= 0.00
2017      4.1570       3.059       4.561      1.5020   Weta=-0.001  Kp= 0.00
2018      4.1780       3.448       4.563      1.1150   Weta=-0.105  Kp= 0.00
2019      4.1670       3.307       4.564      1.2570   Weta=-0.070  Kp= 0.00
2020      4.1610       3.209       4.566      1.3570   Weta=-0.044  Kp= 0.00
