1950      5.0370       4.366       5.243      0.8770   Weta=-0.494  Kp= 0.00
1951      5.0290       3.825       5.188      1.3630   Weta=-0.388  Kp= 0.00
1952      5.0040       4.352       5.182      0.8300   Weta=-0.484  Kp= 0.00
1953      5.0170       3.819       5.174      1.3550   Weta=-0.385  Kp= 0.00
1954      4.9880       4.322       5.200      0.8780   Weta=-0.482  Kp= 0.00
1955      4.9680       4.311       5.193      0.8820   Weta=-0.479  Kp= 0.00
1956      4.9890       4.322       5.205      0.8830   Weta=-0.482  Kp= 0.00
1957      4.9810       4.344       5.135      0.7910   Weta=-0.477  Kp= 0.00
1958      4.9750       3.895       5.183      1.2880   Weta=-0.402  Kp= 0.00
1959      4.9690       3.792       5.182      1.3900   Weta=-0.381  Kp= 0.00
1960      4.9490       3.909       5.202      1.2930   Weta=-0.407  Kp= 0.00
1961      4.9460       4.349       5.110      0.7610   Weta=-0.474  Kp= 0.00
1962      4.9330       4.311       5.124      0.8130   Weta=-0.470  Kp= 0.00
1963      4.9220       4.291       5.117      0.8260   Weta=-0.465  Kp= 0.00
1964      4.9170       4.294       5.142      0.8480   Weta=-0.469  Kp= 0.00
1965      4.8840       3.510       5.079      1.5690   Weta=-0.304  Kp= 0.00
1966      4.8920       4.239       5.124      0.8850   Weta=-0.457  Kp= 0.00
1967      4.8730       3.512       5.083      1.5710   Weta=-0.305  Kp= 0.00
1968      4.8470       4.289       5.039      0.7500   Weta=-0.454  Kp= 0.00
1969      4.8500       4.255       5.126      0.8710   Weta=-0.460  Kp= 0.00
1970      4.8450       3.895       5.077      1.1820   Weta=-0.387  Kp= 0.00
1971      4.8340       4.221       5.123      0.9020   Weta=-0.454  Kp= 0.00
1972      4.8340       4.224       5.113      0.8890   Weta=-0.453  Kp= 0.00
1973      4.8150       4.218       5.054      0.8360   Weta=-0.444  Kp= 0.00
1974      4.8260       3.860       5.033      1.1730   Weta=-0.374  Kp= 0.00
1975      4.8170       4.203       5.078      0.8750   Weta=-0.445  Kp= 0.00
1976      4.8100       4.182       5.016      0.8340   Weta=-0.433  Kp= 0.00
1977      4.7970       4.195       5.080      0.8850   Weta=-0.444  Kp= 0.00
1978      4.7860       4.230       5.053      0.8230   Weta=-0.446  Kp= 0.00
1979      4.7700       3.701       5.054      1.3530   Weta=-0.343  Kp= 0.00
1980      4.7480       3.804       4.973      1.1690   Weta=-0.354  Kp= 0.00
1981      4.7490       4.173       4.966      0.7930   Weta=-0.424  Kp= 0.00
1982      4.7340       4.120       5.032      0.9120   Weta=-0.424  Kp= 0.00
1983      4.7220       4.135       4.971      0.8360   Weta=-0.418  Kp= 0.00
1984      4.7010       4.141       5.001      0.8600   Weta=-0.423  Kp= 0.00
1985      4.7190       3.647       4.959      1.3120   Weta=-0.318  Kp= 0.00
1986      4.6990       4.156       4.931      0.7750   Weta=-0.416  Kp= 0.00
1987      4.6790       3.562       4.900      1.3380   Weta=-0.289  Kp= 0.00
1988      4.6940       4.117       4.991      0.8740   Weta=-0.417  Kp= 0.00
1989      4.6790       4.074       5.003      0.9290   Weta=-0.411  Kp= 0.00
1990      4.6560       4.091       4.879      0.7880   Weta=-0.396  Kp= 0.00
1991      4.6770       4.090       4.873      0.7830   Weta=-0.395  Kp= 0.00
1992      4.6520       4.070       4.879      0.8090   Weta=-0.392  Kp= 0.00
1993      4.6310       3.561       4.977      1.4160   Weta=-0.301  Kp= 0.00
1994      4.6260       4.052       4.854      0.8020   Weta=-0.385  Kp= 0.00
1995      4.6180       4.055       4.850      0.7950   Weta=-0.385  Kp= 0.00
1996      4.6210       4.080       4.894      0.8140   Weta=-0.396  Kp= 0.00
1997      4.6010       3.560       4.927      1.3670   Weta=-0.293  Kp= 0.00
1998      4.5690       4.059       4.852      0.7930   Weta=-0.386  Kp= 0.00
1999      4.5920       3.609       4.836      1.2270   Weta=-0.290  Kp= 0.00
2000      4.5770       4.080       4.833      0.7530   Weta=-0.387  Kp= 0.00
2001      4.5840       4.062       4.830      0.7680   Weta=-0.384  Kp= 0.00
2002      4.5730       4.066       4.827      0.7610   Weta=-0.384  Kp= 0.00
2003      4.5740       4.068       4.824      0.7560   Weta=-0.384  Kp= 0.00
2004      4.5670       3.798       4.922      1.1240   Weta=-0.345  Kp= 0.00
2005      4.5700       3.744       4.928      1.1840   Weta=-0.334  Kp= 0.00
2006      4.5650       4.089       4.920      0.8310   Weta=-0.402  Kp= 0.00
2007      4.5520       4.077       4.932      0.8550   Weta=-0.401  Kp= 0.00
2008      4.5350       3.648       4.918      1.2700   Weta=-0.312  Kp= 0.00
2009      4.5430       3.698       4.807      1.1090   Weta=-0.306  Kp= 0.00
2010      4.5310       3.357       4.805      1.4480   Weta=-0.224  Kp= 0.00
2011      4.4990       3.679       4.907      1.2280   Weta=-0.317  Kp= 0.00
2012      4.4710       3.428       4.800      1.3720   Weta=-0.241  Kp= 0.00
2013      4.4710       4.090       4.882      0.7920   Weta=-0.397  Kp= 0.00
2014      4.4690       3.888       4.850      0.9620   Weta=-0.353  Kp= 0.00
2015      4.4440       4.101       4.910      0.8090   Weta=-0.403  Kp= 0.00
2016      4.4370       3.827       4.787      0.9600   Weta=-0.330  Kp= 0.00
2017      4.4330       3.848       4.896      1.0480   Weta=-0.351  Kp= 0.00
2018      4.4100       3.825       4.832      1.0070   Weta=-0.337  Kp= 0.00
2019      4.4030       3.850       4.775      0.9250   Weta=-0.333  Kp= 0.00
2020      4.3930       3.555       4.891      1.3360   Weta=-0.286  Kp= 0.00
