1950-01-01 00:00:00+00        0.00
1950-02-01 00:00:00+00        0.00
1950-03-01 00:00:00+00        0.00
1950-04-01 00:00:00+00        0.00
1950-05-01 00:00:00+00        0.00
1950-06-01 00:00:00+00        0.00
1950-07-01 00:00:00+00        0.00
1950-08-01 00:00:00+00        0.00
1950-09-01 00:00:00+00        0.00
1950-10-01 00:00:00+00        0.00
1950-11-01 00:00:00+00        0.00
1950-12-01 00:00:00+00        0.00
1951-01-01 00:00:00+00        0.00
1951-02-01 00:00:00+00        0.00
1951-03-01 00:00:00+00        0.00
1951-04-01 00:00:00+00        0.00
1951-05-01 00:00:00+00        0.00
1951-06-01 00:00:00+00        0.00
1951-07-01 00:00:00+00        0.00
1951-08-01 00:00:00+00        0.00
1951-09-01 00:00:00+00        0.00
1951-10-01 00:00:00+00        0.00
1951-11-01 00:00:00+00        0.00
1951-12-01 00:00:00+00        0.00
1952-01-01 00:00:00+00        0.00
1952-02-01 00:00:00+00        0.00
1952-03-01 00:00:00+00        0.00
1952-04-01 00:00:00+00        0.00
1952-05-01 00:00:00+00        0.00
1952-06-01 00:00:00+00        0.00
1952-07-01 00:00:00+00        0.00
1952-08-01 00:00:00+00        0.00
1952-09-01 00:00:00+00        0.00
1952-10-01 00:00:00+00        0.00
1952-11-01 00:00:00+00        0.00
1952-12-01 00:00:00+00        0.00
1953-01-01 00:00:00+00       34.80
1953-02-01 00:00:00+00       24.00
1953-03-01 00:00:00+00       19.00
1953-04-01 00:00:00+00       24.00
1953-05-01 00:00:00+00       34.80
1953-06-01 00:00:00+00       19.00
1953-07-01 00:00:00+00       24.00
1953-08-01 00:00:00+00       34.80
1953-09-01 00:00:00+00       54.80
1953-10-01 00:00:00+00       34.80
1953-11-01 00:00:00+00       19.00
1953-12-01 00:00:00+00       19.00
1954-01-01 00:00:00+00       19.00
1954-02-01 00:00:00+00       19.00
1954-03-01 00:00:00+00       24.00
1954-04-01 00:00:00+00       19.00
1954-05-01 00:00:00+00       19.00
1954-06-01 00:00:00+00       24.00
1954-07-01 00:00:00+00       24.00
1954-08-01 00:00:00+00       19.00
1954-09-01 00:00:00+00       24.00
1954-10-01 00:00:00+00       34.80
1954-11-01 00:00:00+00       34.80
1954-12-01 00:00:00+00       19.00
1955-01-01 00:00:00+00       94.80
1955-02-01 00:00:00+00       34.80
1955-03-01 00:00:00+00       24.00
1955-04-01 00:00:00+00       24.00
1955-05-01 00:00:00+00       34.80
1955-06-01 00:00:00+00       34.80
1955-07-01 00:00:00+00       24.00
1955-08-01 00:00:00+00       24.00
1955-09-01 00:00:00+00       19.00
1955-10-01 00:00:00+00       24.00
1955-11-01 00:00:00+00       24.00
1955-12-01 00:00:00+00       34.80
1956-01-01 00:00:00+00       54.80
1956-02-01 00:00:00+00       94.80
1956-03-01 00:00:00+00       74.80
1956-04-01 00:00:00+00      154.80
1956-05-01 00:00:00+00       94.80
1956-06-01 00:00:00+00       34.80
1956-07-01 00:00:00+00       24.00
1956-08-01 00:00:00+00      114.80
1956-09-01 00:00:00+00       54.80
1956-10-01 00:00:00+00       34.80
1956-11-01 00:00:00+00       54.80
1956-12-01 00:00:00+00       74.80
1957-01-01 00:00:00+00       94.80
1957-02-01 00:00:00+00       74.80
1957-03-01 00:00:00+00      174.80
1957-04-01 00:00:00+00      134.80
1957-05-01 00:00:00+00       34.80
1957-06-01 00:00:00+00        8.60
1957-07-01 00:00:00+00      103.50
1957-08-01 00:00:00+00      150.00
1957-09-01 00:00:00+00      201.80
1957-10-01 00:00:00+00      112.40
1957-11-01 00:00:00+00       92.80
1957-12-01 00:00:00+00      123.00
1958-01-01 00:00:00+00       81.50
1958-02-01 00:00:00+00       82.20
1958-03-01 00:00:00+00      133.30
1958-04-01 00:00:00+00       52.70
1958-05-01 00:00:00+00       71.90
1958-06-01 00:00:00+00       64.10
1958-07-01 00:00:00+00      110.30
1958-08-01 00:00:00+00      118.90
1958-09-01 00:00:00+00       85.60
1958-10-01 00:00:00+00       91.10
1958-11-01 00:00:00+00       44.90
1958-12-01 00:00:00+00       88.40
1959-01-01 00:00:00+00       68.20
1959-02-01 00:00:00+00       79.80
1959-03-01 00:00:00+00       61.30
1959-04-01 00:00:00+00       61.30
1959-05-01 00:00:00+00      114.10
1959-06-01 00:00:00+00       67.80
1959-07-01 00:00:00+00      198.00
1959-08-01 00:00:00+00       88.40
1959-09-01 00:00:00+00       87.40
1959-10-01 00:00:00+00       69.20
1959-11-01 00:00:00+00       49.70
1959-12-01 00:00:00+00       90.10
1960-01-01 00:00:00+00       77.80
1960-02-01 00:00:00+00       49.30
1960-03-01 00:00:00+00       93.90
1960-04-01 00:00:00+00      107.60
1960-05-01 00:00:00+00      118.50
1960-06-01 00:00:00+00      104.10
1960-07-01 00:00:00+00       62.70
1960-08-01 00:00:00+00       96.30
1960-09-01 00:00:00+00       65.40
1960-10-01 00:00:00+00       80.20
1960-11-01 00:00:00+00      139.10
1960-12-01 00:00:00+00       73.00
1961-01-01 00:00:00+00       54.10
1961-02-01 00:00:00+00       70.90
1961-03-01 00:00:00+00       59.30
1961-04-01 00:00:00+00       49.70
1961-05-01 00:00:00+00       53.40
1961-06-01 00:00:00+00       48.00
1961-07-01 00:00:00+00      129.10
1961-08-01 00:00:00+00       43.20
1961-09-01 00:00:00+00       69.90
1961-10-01 00:00:00+00       52.70
1961-11-01 00:00:00+00       32.90
1961-12-01 00:00:00+00       68.80
1962-01-01 00:00:00+00       15.60
1962-02-01 00:00:00+00       56.90
1962-03-01 00:00:00+00       34.20
1962-04-01 00:00:00+00       44.50
1962-05-01 00:00:00+00       36.60
1962-06-01 00:00:00+00       34.90
1962-07-01 00:00:00+00       37.70
1962-08-01 00:00:00+00       30.80
1962-09-01 00:00:00+00       46.20
1962-10-01 00:00:00+00       40.10
1962-11-01 00:00:00+00       31.80
1962-12-01 00:00:00+00       42.10
1963-01-01 00:00:00+00       48.60
1963-02-01 00:00:00+00       16.30
1963-03-01 00:00:00+00       43.20
1963-04-01 00:00:00+00       38.40
1963-05-01 00:00:00+00       44.20
1963-06-01 00:00:00+00       17.00
1963-07-01 00:00:00+00       34.90
1963-08-01 00:00:00+00       28.80
1963-09-01 00:00:00+00       79.80
1963-10-01 00:00:00+00       54.50
1963-11-01 00:00:00+00       33.20
1963-12-01 00:00:00+00       17.20
1964-01-01 00:00:00+00       32.50
1964-02-01 00:00:00+00       28.10
1964-03-01 00:00:00+00       16.90
1964-04-01 00:00:00+00       28.80
1964-05-01 00:00:00+00       28.10
1964-06-01 00:00:00+00       29.10
1964-07-01 00:00:00+00       13.70
1964-08-01 00:00:00+00       16.30
1964-09-01 00:00:00+00       14.90
1964-10-01 00:00:00+00       16.10
1964-11-01 00:00:00+00       31.80
1964-12-01 00:00:00+00        8.90
1965-01-01 00:00:00+00       29.80
1965-02-01 00:00:00+00       37.00
1965-03-01 00:00:00+00       12.60
1965-04-01 00:00:00+00       29.80
1965-05-01 00:00:00+00       17.00
1965-06-01 00:00:00+00       38.00
1965-07-01 00:00:00+00       35.60
1965-08-01 00:00:00+00       17.00
1965-09-01 00:00:00+00       28.40
1965-10-01 00:00:00+00       28.40
1965-11-01 00:00:00+00       30.10
1965-12-01 00:00:00+00       27.10
1966-01-01 00:00:00+00       38.00
1966-02-01 00:00:00+00       12.70
1966-03-01 00:00:00+00       64.40
1966-04-01 00:00:00+00       30.50
1966-05-01 00:00:00+00       49.00
1966-06-01 00:00:00+00       29.50
1966-07-01 00:00:00+00       30.10
1966-08-01 00:00:00+00       57.90
1966-09-01 00:00:00+00       69.90
1966-10-01 00:00:00+00       45.20
1966-11-01 00:00:00+00       34.90
1966-12-01 00:00:00+00       56.90
1967-01-01 00:00:00+00       70.60
1967-02-01 00:00:00+00       67.50
1967-03-01 00:00:00+00       33.60
1967-04-01 00:00:00+00       35.60
1967-05-01 00:00:00+00       94.90
1967-06-01 00:00:00+00       54.50
1967-07-01 00:00:00+00       40.40
1967-08-01 00:00:00+00       17.30
1967-09-01 00:00:00+00       40.10
1967-10-01 00:00:00+00       52.10
1967-11-01 00:00:00+00       31.80
1967-12-01 00:00:00+00       52.10
1968-01-01 00:00:00+00       39.40
1968-02-01 00:00:00+00       63.00
1968-03-01 00:00:00+00       26.70
1968-04-01 00:00:00+00       16.90
1968-05-01 00:00:00+00       52.70
1968-06-01 00:00:00+00       52.40
1968-07-01 00:00:00+00       38.70
1968-08-01 00:00:00+00       37.70
1968-09-01 00:00:00+00       52.70
1968-10-01 00:00:00+00       99.30
1968-11-01 00:00:00+00       79.80
1968-12-01 00:00:00+00       53.40
1969-01-01 00:00:00+00       44.20
1969-02-01 00:00:00+00       57.50
1969-03-01 00:00:00+00      100.40
1969-04-01 00:00:00+00       83.90
1969-05-01 00:00:00+00       63.00
1969-06-01 00:00:00+00       50.30
1969-07-01 00:00:00+00       27.70
1969-08-01 00:00:00+00       32.20
1969-09-01 00:00:00+00       60.60
1969-10-01 00:00:00+00       32.90
1969-11-01 00:00:00+00       53.80
1969-12-01 00:00:00+00       40.10
1970-01-01 00:00:00+00       47.60
1970-02-01 00:00:00+00       28.40
1970-03-01 00:00:00+00       70.60
1970-04-01 00:00:00+00       37.30
1970-05-01 00:00:00+00       39.70
1970-06-01 00:00:00+00       59.30
1970-07-01 00:00:00+00       72.30
1970-08-01 00:00:00+00       54.50
1970-09-01 00:00:00+00       16.20
1970-10-01 00:00:00+00       44.20
1970-11-01 00:00:00+00       55.80
1970-12-01 00:00:00+00       50.30
1971-01-01 00:00:00+00       65.80
1971-02-01 00:00:00+00       40.10
1971-03-01 00:00:00+00       28.80
1971-04-01 00:00:00+00       44.50
1971-05-01 00:00:00+00       37.70
1971-06-01 00:00:00+00       30.50
1971-07-01 00:00:00+00       27.10
1971-08-01 00:00:00+00       34.90
1971-09-01 00:00:00+00       35.60
1971-10-01 00:00:00+00       30.10
1971-11-01 00:00:00+00       41.80
1971-12-01 00:00:00+00       58.60
1972-01-01 00:00:00+00       43.20
1972-02-01 00:00:00+00       53.80
1972-03-01 00:00:00+00       38.40
1972-04-01 00:00:00+00       35.30
1972-05-01 00:00:00+00       58.20
1972-06-01 00:00:00+00       43.50
1972-07-01 00:00:00+00       35.60
1972-08-01 00:00:00+00      163.40
1972-09-01 00:00:00+00       17.30
1972-10-01 00:00:00+00       77.10
1972-11-01 00:00:00+00       29.50
1972-12-01 00:00:00+00       39.40
1973-01-01 00:00:00+00       31.50
1973-02-01 00:00:00+00       35.60
1973-03-01 00:00:00+00       38.70
1973-04-01 00:00:00+00       63.70
1973-05-01 00:00:00+00       63.40
1973-06-01 00:00:00+00       28.40
1973-07-01 00:00:00+00       35.60
1973-08-01 00:00:00+00       14.50
1973-09-01 00:00:00+00       38.40
1973-10-01 00:00:00+00       44.20
1973-11-01 00:00:00+00       13.80
1973-12-01 00:00:00+00       17.00
1974-01-01 00:00:00+00       29.50
1974-02-01 00:00:00+00       13.70
1974-03-01 00:00:00+00       16.90
1974-04-01 00:00:00+00       33.60
1974-05-01 00:00:00+00       45.90
1974-06-01 00:00:00+00       16.80
1974-07-01 00:00:00+00       48.60
1974-08-01 00:00:00+00       30.50
1974-09-01 00:00:00+00       62.30
1974-10-01 00:00:00+00       56.20
1974-11-01 00:00:00+00       31.80
1974-12-01 00:00:00+00       32.50
1975-01-01 00:00:00+00       46.20
1975-02-01 00:00:00+00       15.60
1975-03-01 00:00:00+00       28.10
1975-04-01 00:00:00+00       15.20
1975-05-01 00:00:00+00       27.10
1975-06-01 00:00:00+00       13.00
1975-07-01 00:00:00+00       16.80
1975-08-01 00:00:00+00       28.40
1975-09-01 00:00:00+00       13.80
1975-10-01 00:00:00+00       13.80
1975-11-01 00:00:00+00       48.30
1975-12-01 00:00:00+00        9.80
1976-01-01 00:00:00+00       28.10
1976-02-01 00:00:00+00       16.20
1976-03-01 00:00:00+00       37.70
1976-04-01 00:00:00+00       36.60
1976-05-01 00:00:00+00       31.80
1976-06-01 00:00:00+00       16.90
1976-07-01 00:00:00+00       12.60
1976-08-01 00:00:00+00       13.70
1976-09-01 00:00:00+00       16.80
1976-10-01 00:00:00+00       13.50
1976-11-01 00:00:00+00       13.40
1976-12-01 00:00:00+00       27.10
1977-01-01 00:00:00+00       34.20
1977-02-01 00:00:00+00       28.80
1977-03-01 00:00:00+00       15.80
1977-04-01 00:00:00+00       31.20
1977-05-01 00:00:00+00       17.50
1977-06-01 00:00:00+00       26.70
1977-07-01 00:00:00+00       29.80
1977-08-01 00:00:00+00       27.10
1977-09-01 00:00:00+00       55.10
1977-10-01 00:00:00+00       33.90
1977-11-01 00:00:00+00       32.50
1977-12-01 00:00:00+00       33.60
1978-01-01 00:00:00+00       67.80
1978-02-01 00:00:00+00      103.10
1978-03-01 00:00:00+00       58.60
1978-04-01 00:00:00+00       94.90
1978-05-01 00:00:00+00      107.90
1978-06-01 00:00:00+00       89.70
1978-07-01 00:00:00+00       55.10
1978-08-01 00:00:00+00       40.40
1978-09-01 00:00:00+00       71.20
1978-10-01 00:00:00+00       45.20
1978-11-01 00:00:00+00       64.70
1978-12-01 00:00:00+00       65.10
1979-01-01 00:00:00+00       59.90
1979-02-01 00:00:00+00       70.90
1979-03-01 00:00:00+00       63.70
1979-04-01 00:00:00+00       81.50
1979-05-01 00:00:00+00       62.00
1979-06-01 00:00:00+00       45.60
1979-07-01 00:00:00+00       56.50
1979-08-01 00:00:00+00       94.90
1979-09-01 00:00:00+00       62.30
1979-10-01 00:00:00+00       36.30
1979-11-01 00:00:00+00       61.30
1979-12-01 00:00:00+00       32.90
1980-01-01 00:00:00+00       47.30
1980-02-01 00:00:00+00       47.30
1980-03-01 00:00:00+00       53.80
1980-04-01 00:00:00+00       58.60
1980-05-01 00:00:00+00       41.80
1980-06-01 00:00:00+00       56.90
1980-07-01 00:00:00+00       46.20
1980-08-01 00:00:00+00       39.00
1980-09-01 00:00:00+00       28.80
1980-10-01 00:00:00+00       64.70
1980-11-01 00:00:00+00       54.50
1980-12-01 00:00:00+00       73.30
1981-01-01 00:00:00+00       30.50
1981-02-01 00:00:00+00       43.80
1981-03-01 00:00:00+00       74.70
1981-04-01 00:00:00+00       94.20
1981-05-01 00:00:00+00      110.60
1981-06-01 00:00:00+00       54.50
1981-07-01 00:00:00+00       65.10
1981-08-01 00:00:00+00       53.10
1981-09-01 00:00:00+00       51.00
1981-10-01 00:00:00+00      106.20
1981-11-01 00:00:00+00       85.30
1981-12-01 00:00:00+00       49.70
1982-01-01 00:00:00+00       82.20
1982-02-01 00:00:00+00       67.10
1982-03-01 00:00:00+00       57.20
1982-04-01 00:00:00+00       64.70
1982-05-01 00:00:00+00       33.60
1982-06-01 00:00:00+00       55.80
1982-07-01 00:00:00+00      153.80
1982-08-01 00:00:00+00       47.60
1982-09-01 00:00:00+00      114.40
1982-10-01 00:00:00+00       43.50
1982-11-01 00:00:00+00       85.30
1982-12-01 00:00:00+00       84.60
1983-01-01 00:00:00+00       58.20
1983-02-01 00:00:00+00       47.60
1983-03-01 00:00:00+00       45.60
1983-04-01 00:00:00+00       40.10
1983-05-01 00:00:00+00       68.80
1983-06-01 00:00:00+00       44.50
1983-07-01 00:00:00+00       32.90
1983-08-01 00:00:00+00       49.70
1983-09-01 00:00:00+00       16.50
1983-10-01 00:00:00+00       31.20
1983-11-01 00:00:00+00       39.00
1983-12-01 00:00:00+00       44.90
1984-01-01 00:00:00+00       33.90
1984-02-01 00:00:00+00       63.40
1984-03-01 00:00:00+00       52.10
1984-04-01 00:00:00+00       58.90
1984-05-01 00:00:00+00       55.80
1984-06-01 00:00:00+00       50.30
1984-07-01 00:00:00+00       39.70
1984-08-01 00:00:00+00       14.90
1984-09-01 00:00:00+00       27.70
1984-10-01 00:00:00+00       40.40
1984-11-01 00:00:00+00       17.20
1984-12-01 00:00:00+00       32.90
1985-01-01 00:00:00+00       40.10
1985-02-01 00:00:00+00       15.10
1985-03-01 00:00:00+00       16.10
1985-04-01 00:00:00+00       59.60
1985-05-01 00:00:00+00       15.10
1985-06-01 00:00:00+00       16.30
1985-07-01 00:00:00+00       40.80
1985-08-01 00:00:00+00       14.90
1985-09-01 00:00:00+00       12.70
1985-10-01 00:00:00+00       27.40
1985-11-01 00:00:00+00       33.20
1985-12-01 00:00:00+00       35.60
1986-01-01 00:00:00+00       30.50
1986-02-01 00:00:00+00       92.10
1986-03-01 00:00:00+00       33.60
1986-04-01 00:00:00+00       14.40
1986-05-01 00:00:00+00       32.90
1986-06-01 00:00:00+00       15.50
1986-07-01 00:00:00+00       16.50
1986-08-01 00:00:00+00       14.10
1986-09-01 00:00:00+00       16.50
1986-10-01 00:00:00+00       29.50
1986-11-01 00:00:00+00       49.70
1986-12-01 00:00:00+00       14.20
1987-01-01 00:00:00+00       13.10
1987-02-01 00:00:00+00       14.00
1987-03-01 00:00:00+00       16.50
1987-04-01 00:00:00+00       16.50
1987-05-01 00:00:00+00       27.10
1987-06-01 00:00:00+00       15.60
1987-07-01 00:00:00+00       16.90
1987-08-01 00:00:00+00       34.90
1987-09-01 00:00:00+00       36.30
1987-10-01 00:00:00+00       17.00
1987-11-01 00:00:00+00       31.50
1987-12-01 00:00:00+00       14.90
1988-01-01 00:00:00+00       65.10
1988-02-01 00:00:00+00       61.00
1988-03-01 00:00:00+00       34.90
1988-04-01 00:00:00+00       27.10
1988-05-01 00:00:00+00       41.10
1988-06-01 00:00:00+00       43.50
1988-07-01 00:00:00+00       40.10
1988-08-01 00:00:00+00       56.50
1988-09-01 00:00:00+00       15.60
1988-10-01 00:00:00+00       50.70
1988-11-01 00:00:00+00       63.70
1988-12-01 00:00:00+00       80.20
1989-01-01 00:00:00+00       88.70
1989-02-01 00:00:00+00       48.60
1989-03-01 00:00:00+00      182.30
1989-04-01 00:00:00+00       64.10
1989-05-01 00:00:00+00       70.60
1989-06-01 00:00:00+00       80.80
1989-07-01 00:00:00+00       45.90
1989-08-01 00:00:00+00      126.40
1989-09-01 00:00:00+00      120.60
1989-10-01 00:00:00+00      179.20
1989-11-01 00:00:00+00      148.00
1989-12-01 00:00:00+00       75.40
1990-01-01 00:00:00+00       36.00
1990-02-01 00:00:00+00       48.30
1990-03-01 00:00:00+00       98.00
1990-04-01 00:00:00+00      106.20
1990-05-01 00:00:00+00       78.80
1990-06-01 00:00:00+00       60.60
1990-07-01 00:00:00+00       97.30
1990-08-01 00:00:00+00       86.70
1990-09-01 00:00:00+00       30.50
1990-10-01 00:00:00+00       49.00
1990-11-01 00:00:00+00       31.20
1990-12-01 00:00:00+00       40.40
1991-01-01 00:00:00+00       43.80
1991-02-01 00:00:00+00       32.50
1991-03-01 00:00:00+00      167.90
1991-04-01 00:00:00+00       70.20
1991-05-01 00:00:00+00      113.00
1991-06-01 00:00:00+00      271.00
1991-07-01 00:00:00+00      149.70
1991-08-01 00:00:00+00      106.50
1991-09-01 00:00:00+00       42.10
1991-10-01 00:00:00+00      166.50
1991-11-01 00:00:00+00      139.80
1991-12-01 00:00:00+00       75.70
1992-01-01 00:00:00+00       81.20
1992-02-01 00:00:00+00      137.70
1992-03-01 00:00:00+00       38.00
1992-04-01 00:00:00+00       33.60
1992-05-01 00:00:00+00       90.80
1992-06-01 00:00:00+00       49.70
1992-07-01 00:00:00+00       30.80
1992-08-01 00:00:00+00       75.00
1992-09-01 00:00:00+00       99.70
1992-10-01 00:00:00+00       47.30
1992-11-01 00:00:00+00       61.00
1992-12-01 00:00:00+00       48.60
1993-01-01 00:00:00+00       46.60
1993-02-01 00:00:00+00       45.20
1993-03-01 00:00:00+00       65.10
1993-04-01 00:00:00+00       45.20
1993-05-01 00:00:00+00       29.10
1993-06-01 00:00:00+00       42.50
1993-07-01 00:00:00+00       28.80
1993-08-01 00:00:00+00       28.40
1993-09-01 00:00:00+00       41.40
1993-10-01 00:00:00+00       45.90
1993-11-01 00:00:00+00       38.40
1993-12-01 00:00:00+00       43.80
1994-01-01 00:00:00+00       34.60
1994-02-01 00:00:00+00       48.30
1994-03-01 00:00:00+00       39.40
1994-04-01 00:00:00+00       40.80
1994-05-01 00:00:00+00       30.50
1994-06-01 00:00:00+00       35.30
1994-07-01 00:00:00+00       30.80
1994-08-01 00:00:00+00       29.50
1994-09-01 00:00:00+00       17.20
1994-10-01 00:00:00+00       46.20
1994-11-01 00:00:00+00       30.10
1994-12-01 00:00:00+00       15.80
1995-01-01 00:00:00+00       27.10
1995-02-01 00:00:00+00       13.00
1995-03-01 00:00:00+00       17.30
1995-04-01 00:00:00+00       17.30
1995-05-01 00:00:00+00       29.80
1995-06-01 00:00:00+00       12.80
1995-07-01 00:00:00+00       16.20
1995-08-01 00:00:00+00       14.00
1995-09-01 00:00:00+00       15.80
1995-10-01 00:00:00+00       34.60
1995-11-01 00:00:00+00       14.80
1995-12-01 00:00:00+00       13.50
1996-01-01 00:00:00+00       12.60
1996-02-01 00:00:00+00       10.00
1996-03-01 00:00:00+00       11.20
1996-04-01 00:00:00+00       14.10
1996-05-01 00:00:00+00       16.80
1996-06-01 00:00:00+00        0.50
1996-07-01 00:00:00+00        3.70
1996-08-01 00:00:00+00        6.50
1996-09-01 00:00:00+00        0.80
1996-10-01 00:00:00+00        2.50
1996-11-01 00:00:00+00        5.80
1996-12-01 00:00:00+00        4.10
1997-01-01 00:00:00+00        1.00
1997-02-01 00:00:00+00        4.60
1997-03-01 00:00:00+00        1.90
1997-04-01 00:00:00+00        8.70
1997-05-01 00:00:00+00        4.70
1997-06-01 00:00:00+00        2.00
1997-07-01 00:00:00+00        2.40
1997-08-01 00:00:00+00        2.50
1997-09-01 00:00:00+00       10.90
1997-10-01 00:00:00+00       13.00
1997-11-01 00:00:00+00       29.50
1997-12-01 00:00:00+00        5.90
1998-01-01 00:00:00+00       13.70
1998-02-01 00:00:00+00        8.70
1998-03-01 00:00:00+00       37.10
1998-04-01 00:00:00+00       51.30
1998-05-01 00:00:00+00       56.30
1998-06-01 00:00:00+00       52.40
1998-07-01 00:00:00+00       51.00
1998-08-01 00:00:00+00       80.80
1998-09-01 00:00:00+00       64.40
1998-10-01 00:00:00+00       43.50
1998-11-01 00:00:00+00       71.60
1998-12-01 00:00:00+00       58.60
1999-01-01 00:00:00+00       48.00
1999-02-01 00:00:00+00       61.30
1999-03-01 00:00:00+00       15.20
1999-04-01 00:00:00+00       31.30
1999-05-01 00:00:00+00       55.40
1999-06-01 00:00:00+00       90.90
1999-07-01 00:00:00+00       49.80
1999-08-01 00:00:00+00       35.50
1999-09-01 00:00:00+00       60.10
1999-10-01 00:00:00+00       30.50
1999-11-01 00:00:00+00       38.70
1999-12-01 00:00:00+00       36.30
2000-01-01 00:00:00+00       41.70
2000-02-01 00:00:00+00       49.80
2000-03-01 00:00:00+00       46.40
2000-04-01 00:00:00+00       42.70
2000-05-01 00:00:00+00       93.80
2000-06-01 00:00:00+00       60.70
2000-07-01 00:00:00+00       83.00
2000-08-01 00:00:00+00       42.00
2000-09-01 00:00:00+00       54.60
2000-10-01 00:00:00+00       50.10
2000-11-01 00:00:00+00      108.60
2000-12-01 00:00:00+00       41.60
2001-01-01 00:00:00+00       54.90
2001-02-01 00:00:00+00       37.30
2001-03-01 00:00:00+00       50.20
2001-04-01 00:00:00+00      168.80
2001-05-01 00:00:00+00       51.10
2001-06-01 00:00:00+00       67.20
2001-07-01 00:00:00+00       20.50
2001-08-01 00:00:00+00       44.60
2001-09-01 00:00:00+00       71.70
2001-10-01 00:00:00+00       76.50
2001-11-01 00:00:00+00       76.60
2001-12-01 00:00:00+00       73.60
2002-01-01 00:00:00+00       50.70
2002-02-01 00:00:00+00       31.10
2002-03-01 00:00:00+00       81.30
2002-04-01 00:00:00+00       71.80
2002-05-01 00:00:00+00       80.30
2002-06-01 00:00:00+00       30.10
2002-07-01 00:00:00+00      135.30
2002-08-01 00:00:00+00       85.20
2002-09-01 00:00:00+00       57.00
2002-10-01 00:00:00+00      101.80
2002-11-01 00:00:00+00       58.10
2002-12-01 00:00:00+00       41.80
2003-01-01 00:00:00+00       34.20
2003-02-01 00:00:00+00       24.40
2003-03-01 00:00:00+00       41.40
2003-04-01 00:00:00+00       39.70
2003-05-01 00:00:00+00       58.30
2003-06-01 00:00:00+00       61.30
2003-07-01 00:00:00+00       12.70
2003-08-01 00:00:00+00       14.00
2003-09-01 00:00:00+00       16.80
2003-10-01 00:00:00+00      114.40
2003-11-01 00:00:00+00      181.20
2003-12-01 00:00:00+00       10.80
2004-01-01 00:00:00+00       50.60
2004-02-01 00:00:00+00       12.10
2004-03-01 00:00:00+00       12.40
2004-04-01 00:00:00+00       37.70
2004-05-01 00:00:00+00       20.80
2004-06-01 00:00:00+00       35.30
2004-07-01 00:00:00+00       66.30
2004-08-01 00:00:00+00       15.90
2004-09-01 00:00:00+00       39.10
2004-10-01 00:00:00+00       17.40
2004-11-01 00:00:00+00       95.70
2004-12-01 00:00:00+00       47.00
2005-01-01 00:00:00+00      124.10
2005-02-01 00:00:00+00       25.80
2005-03-01 00:00:00+00       13.30
2005-04-01 00:00:00+00       16.20
2005-05-01 00:00:00+00       60.20
2005-06-01 00:00:00+00       43.70
2005-07-01 00:00:00+00      174.80
2005-08-01 00:00:00+00       84.60
2005-09-01 00:00:00+00      118.60
2005-10-01 00:00:00+00        4.00
2005-11-01 00:00:00+00        7.90
2005-12-01 00:00:00+00       15.70
2006-01-01 00:00:00+00        9.60
2006-02-01 00:00:00+00        4.50
2006-03-01 00:00:00+00        4.30
2006-04-01 00:00:00+00        8.50
2006-05-01 00:00:00+00       11.40
2006-06-01 00:00:00+00        6.00
2006-07-01 00:00:00+00       11.00
2006-08-01 00:00:00+00       12.90
2006-09-01 00:00:00+00       13.00
2006-10-01 00:00:00+00        4.60
2006-11-01 00:00:00+00       39.50
2006-12-01 00:00:00+00       26.30
2007-01-01 00:00:00+00       17.20
2007-02-01 00:00:00+00        8.70
2007-03-01 00:00:00+00        4.30
2007-04-01 00:00:00+00        3.80
2007-05-01 00:00:00+00        8.30
2007-06-01 00:00:00+00        4.80
2007-07-01 00:00:00+00        6.40
2007-08-01 00:00:00+00        5.40
2007-09-01 00:00:00+00        2.50
2007-10-01 00:00:00+00        2.50
2007-11-01 00:00:00+00        1.90
2007-12-01 00:00:00+00        4.50
2008-01-01 00:00:00+00        3.90
2008-02-01 00:00:00+00        2.80
2008-03-01 00:00:00+00        3.70
2008-04-01 00:00:00+00        6.00
2008-05-01 00:00:00+00        2.60
2008-06-01 00:00:00+00        1.90
2008-07-01 00:00:00+00        1.80
2008-08-01 00:00:00+00        1.30
2008-09-01 00:00:00+00        0.70
2008-10-01 00:00:00+00        1.70
2008-11-01 00:00:00+00        2.40
2008-12-01 00:00:00+00        2.10
2009-01-01 00:00:00+00        1.70
2009-02-01 00:00:00+00       10.60
2009-03-01 00:00:00+00        1.50
2009-04-01 00:00:00+00        1.40
2009-05-01 00:00:00+00        1.50
2009-06-01 00:00:00+00        1.90
2009-07-01 00:00:00+00        1.60
2009-08-01 00:00:00+00        1.50
2009-09-01 00:00:00+00        2.30
2009-10-01 00:00:00+00        2.00
2009-11-01 00:00:00+00        2.20
2009-12-01 00:00:00+00        3.10
2010-01-01 00:00:00+00        3.10
2010-02-01 00:00:00+00       15.00
2010-03-01 00:00:00+00       13.50
2010-04-01 00:00:00+00        8.20
2010-05-01 00:00:00+00        7.50
2010-06-01 00:00:00+00        6.90
2010-07-01 00:00:00+00        7.60
2010-08-01 00:00:00+00       38.80
2010-09-01 00:00:00+00       10.10
2010-10-01 00:00:00+00        5.90
2010-11-01 00:00:00+00       11.60
2010-12-01 00:00:00+00       12.70
2011-01-01 00:00:00+00       11.60
2011-02-01 00:00:00+00       16.30
2011-03-01 00:00:00+00       58.80
2011-04-01 00:00:00+00       30.20
2011-05-01 00:00:00+00       31.90
2011-06-01 00:00:00+00       64.60
2011-07-01 00:00:00+00       16.30
2011-08-01 00:00:00+00       43.30
2011-09-01 00:00:00+00       89.80
2011-10-01 00:00:00+00       48.20
2011-11-01 00:00:00+00       56.10
2011-12-01 00:00:00+00       43.40
2012-01-01 00:00:00+00       86.00
2012-02-01 00:00:00+00       25.30
2012-03-01 00:00:00+00      132.80
2012-04-01 00:00:00+00       54.50
2012-05-01 00:00:00+00       66.80
2012-06-01 00:00:00+00       58.70
2012-07-01 00:00:00+00      108.30
2012-08-01 00:00:00+00       73.60
2012-09-01 00:00:00+00       63.30
2012-10-01 00:00:00+00       24.70
2012-11-01 00:00:00+00       64.90
2012-12-01 00:00:00+00       27.50
2013-01-01 00:00:00+00       28.80
2013-02-01 00:00:00+00       39.30
2013-03-01 00:00:00+00       33.10
2013-04-01 00:00:00+00       40.20
2013-05-01 00:00:00+00      104.30
2013-06-01 00:00:00+00       54.10
2013-07-01 00:00:00+00       27.00
2013-08-01 00:00:00+00       38.40
2013-09-01 00:00:00+00       29.70
2013-10-01 00:00:00+00       79.30
2013-11-01 00:00:00+00       67.60
2013-12-01 00:00:00+00       68.00
2014-01-01 00:00:00+00       95.80
2014-02-01 00:00:00+00       90.60
2014-03-01 00:00:00+00       58.90
2014-04-01 00:00:00+00       55.50
2014-05-01 00:00:00+00       55.70
2014-06-01 00:00:00+00       75.40
2014-07-01 00:00:00+00       31.10
2014-08-01 00:00:00+00       38.40
2014-09-01 00:00:00+00       90.80
2014-10-01 00:00:00+00       34.90
2014-11-01 00:00:00+00       47.90
2014-12-01 00:00:00+00       59.50
2015-01-01 00:00:00+00       20.40
2015-02-01 00:00:00+00       30.90
2015-03-01 00:00:00+00       62.10
2015-04-01 00:00:00+00       59.80
2015-05-01 00:00:00+00       48.40
2015-06-01 00:00:00+00       67.00
2015-07-01 00:00:00+00       28.70
2015-08-01 00:00:00+00       23.00
2015-09-01 00:00:00+00       24.90
2015-10-01 00:00:00+00       21.50
2015-11-01 00:00:00+00       55.50
2015-12-01 00:00:00+00       41.10
2016-01-01 00:00:00+00        0.00
2016-02-01 00:00:00+00        0.00
2016-03-01 00:00:00+00        0.00
2016-04-01 00:00:00+00        0.00
2016-05-01 00:00:00+00        0.00
2016-06-01 00:00:00+00        0.00
2016-07-01 00:00:00+00        0.00
2016-08-01 00:00:00+00        0.00
2016-09-01 00:00:00+00        0.00
2016-10-01 00:00:00+00        0.00
2016-11-01 00:00:00+00        0.00
2016-12-01 00:00:00+00        0.00
