1950     12.3630      12.228      12.376      0.1480     12.3620
1951     12.3630      12.231      12.378      0.1470     12.3620
1952     12.3640      12.233      12.379      0.1460     12.3630
1953     12.3680      12.236      12.382      0.1460     12.3670
1954     12.3730      12.238      12.385      0.1470     12.3720
1955     12.3680      12.237      12.382      0.1450     12.3670
1956     12.3630      12.232      12.378      0.1460     12.3620
1957     12.3570      12.226      12.372      0.1460     12.3560
1958     12.3530      12.221      12.367      0.1460     12.3520
1959     12.3490      12.216      12.361      0.1450     12.3480
1960     12.3420      12.212      12.357      0.1450     12.3410
1961     12.3410      12.211      12.357      0.1460     12.3400
1962     12.3410      12.210      12.356      0.1460     12.3400
1963     12.3400      12.209      12.354      0.1450     12.3390
1964     12.3400      12.208      12.352      0.1440     12.3390
1965     12.3360      12.205      12.350      0.1450     12.3350
1966     12.3300      12.200      12.344      0.1440     12.3290
1967     12.3230      12.195      12.338      0.1430     12.3220
1968     12.3230      12.190      12.334      0.1440     12.3220
1969     12.3140      12.184      12.328      0.1440     12.3130
1970     12.3070      12.177      12.321      0.1440     12.3060
1971     12.2970      12.168      12.312      0.1440     12.2960
1972     12.2880      12.158      12.302      0.1440     12.2870
1973     12.2790      12.149      12.293      0.1440     12.2780
1974     12.2700      12.140      12.284      0.1440     12.2690
1975     12.2550      12.127      12.271      0.1440     12.2540
1976     12.2400      12.111      12.256      0.1450     12.2390
1977     12.2220      12.094      12.240      0.1460     12.2210
1978     12.2060      12.078      12.224      0.1460     12.2050
1979     12.1910      12.062      12.208      0.1460     12.1900
1980     12.1710      12.044      12.190      0.1460     12.1700
1981     12.1490      12.023      12.170      0.1470     12.1480
1982     12.1280      12.003      12.149      0.1460     12.1270
1983     12.1060      11.982      12.129      0.1470     12.1050
1984     12.0870      11.962      12.109      0.1470     12.0860
1985     12.0700      11.945      12.093      0.1480     12.0690
1986     12.0590      11.933      12.081      0.1480     12.0580
1987     12.0470      11.921      12.069      0.1480     12.0460
1988     12.0340      11.909      12.058      0.1490     12.0330
1989     12.0210      11.897      12.046      0.1490     12.0200
1990     12.0120      11.886      12.036      0.1500     12.0110
1991     12.0020      11.877      12.025      0.1480     12.0010
1992     11.9920      11.867      12.016      0.1490     11.9910
1993     11.9850      11.858      12.007      0.1490     11.9840
1994     11.9730      11.848      11.996      0.1480     11.9720
1995     11.9640      11.838      11.986      0.1480     11.9630
1996     11.9510      11.827      11.974      0.1470     11.9500
1997     11.9420      11.815      11.964      0.1490     11.9410
1998     11.9310      11.804      11.952      0.1480     11.9300
1999     11.9190      11.793      11.941      0.1480     11.9180
2000     11.9090      11.782      11.931      0.1490     11.9080
2001     11.8980      11.773      11.921      0.1480     11.8970
2002     11.8910      11.764      11.913      0.1490     11.8900
2003     11.8810      11.755      11.903      0.1480     11.8800
2004     11.8710      11.746      11.893      0.1470     11.8700
2005     11.8630      11.737      11.885      0.1480     11.8620
2006     11.8540      11.728      11.876      0.1480     11.8530
2007     11.8450      11.718      11.866      0.1480     11.8440
2008     11.8350      11.709      11.856      0.1470     11.8340
2009     11.8260      11.700      11.848      0.1480     11.8250
2010     11.8160      11.691      11.839      0.1480     11.8150
2011     11.8090      11.685      11.831      0.1460     11.8080
2012     11.8040      11.678      11.824      0.1460     11.8030
2013     11.7970      11.671      11.817      0.1460     11.7960
2014     11.7880      11.664      11.810      0.1460     11.7870
2015     11.7820      11.658      11.804      0.1460     11.7810
2016     11.7770      11.653      11.799      0.1460     11.7760
2017     11.7710      11.649      11.794      0.1450     11.7700
2018     11.7690      11.644      11.791      0.1470     11.7680
2019     11.7640      11.640      11.786      0.1460     11.7630
2020     11.7590      11.635      11.781      0.1460     11.7580
2021     11.7520      11.630      11.775      0.1450     11.7510
2022     11.7480      11.626      11.770      0.1440     11.7470
2023     11.7430      11.621      11.766      0.1450     11.7420
2024     11.7390      11.617      11.761      0.1440     11.7380
2025     11.7350      11.612      11.757      0.1450     11.7340
2026     11.7280      11.608      11.751      0.1430     11.7270
2027     11.7240      11.603      11.746      0.1430     11.7230
2028     11.7160      11.598      11.741      0.1430     11.7150
2029     11.7150      11.594      11.738      0.1440     11.7140
2030     11.7090      11.589      11.733      0.1440     11.7080
2031     11.7040      11.585      11.727      0.1420     11.7030
2032     11.7010      11.580      11.723      0.1430     11.7000
2033     11.6940      11.576      11.717      0.1410     11.6930
2034     11.6900      11.571      11.712      0.1410     11.6890
2035     11.6840      11.566      11.708      0.1420     11.6830
2036     11.6820      11.562      11.704      0.1420     11.6810
2037     11.6740      11.557      11.698      0.1410     11.6730
2038     11.6690      11.553      11.693      0.1400     11.6680
2039     11.6650      11.548      11.688      0.1400     11.6640
2040     11.6600      11.543      11.684      0.1410     11.6590
2041     11.6560      11.539      11.679      0.1400     11.6550
2042     11.6500      11.534      11.674      0.1400     11.6490
2043     11.6450      11.529      11.669      0.1400     11.6440
2044     11.6400      11.525      11.664      0.1390     11.6390
2045     11.6340      11.520      11.659      0.1390     11.6330
2046     11.6320      11.516      11.655      0.1390     11.6310
2047     11.6250      11.511      11.650      0.1390     11.6240
2048     11.6230      11.507      11.645      0.1380     11.6220
2049     11.6150      11.502      11.640      0.1380     11.6140
2050     11.6110      11.497      11.635      0.1380     11.6100
