1950     19.8190      19.819      19.820      0.0010     19.8195
1951     19.7720      19.772      19.773      0.0010     19.7720
1952     19.7250      19.725      19.726      0.0010     19.7255
1953     19.6770      19.677      19.678      0.0010     19.6775
1954     19.6300      19.630      19.631      0.0010     19.6300
1955     19.5790      19.579      19.580      0.0010     19.5795
1956     19.5240      19.524      19.525      0.0010     19.5245
1957     19.4690      19.469      19.470      0.0010     19.4695
1958     19.4150      19.415      19.416      0.0010     19.4155
1959     19.3600      19.360      19.361      0.0010     19.3605
1960     19.3060      19.306      19.307      0.0010     19.3065
1961     19.2520      19.252      19.253      0.0010     19.2525
1962     19.1990      19.199      19.200      0.0010     19.1990
1963     19.1460      19.146      19.147      0.0010     19.1465
1964     19.0920      19.092      19.093      0.0010     19.0920
1965     19.0360      19.036      19.037      0.0010     19.0360
1966     18.9770      18.977      18.978      0.0010     18.9770
1967     18.9180      18.918      18.919      0.0010     18.9180
1968     18.8590      18.859      18.860      0.0010     18.8590
1969     18.8000      18.800      18.801      0.0010     18.8000
1970     18.7400      18.740      18.741      0.0010     18.7405
1971     18.6780      18.678      18.679      0.0010     18.6780
1972     18.6170      18.617      18.618      0.0010     18.6175
1973     18.5560      18.556      18.557      0.0010     18.5565
1974     18.4950      18.495      18.496      0.0010     18.4955
1975     18.4320      18.432      18.433      0.0010     18.4320
1976     18.3660      18.366      18.367      0.0010     18.3660
1977     18.3010      18.292      18.301      0.0090     18.3000
1978     18.2360      18.236      18.237      0.0010     18.2365
1979     18.1700      18.161      18.170      0.0090     18.1690
1980     18.1020      18.092      18.102      0.0100     18.1010
1981     18.0300      18.021      18.031      0.0100     18.0290
1982     17.9590      17.950      17.960      0.0100     17.9580
1983     17.8890      17.879      17.889      0.0100     17.8880
1984     17.8170      17.807      17.818      0.0110     17.8160
1985     17.7480      17.738      17.749      0.0110     17.7470
1986     17.6800      17.552      17.683      0.1310     17.6790
1987     17.6130      17.484      17.618      0.1340     17.6120
1988     17.5440      17.415      17.551      0.1360     17.5430
1989     17.4660      16.692      17.485      0.7930     17.4650
1990     17.3870      16.618      17.421      0.8030     17.3860
1991     17.3070      16.545      17.359      0.8140     17.3060
1992     17.2350      16.478      17.297      0.8190     17.2340
1993     17.1650      16.416      17.235      0.8190     17.1640
1994     17.0980      16.353      17.173      0.8200     17.0970
1995     17.0250      16.289      17.108      0.8190     17.0240
1996     16.9520      16.170      17.042      0.8720     16.9510
1997     16.8700      16.094      16.976      0.8820     16.8690
1998     16.7950      16.015      16.909      0.8940     16.7940
1999     16.7110      15.935      16.842      0.9070     16.7100
2000     16.6300      15.859      16.778      0.9190     16.6290
2001     16.5550      15.790      16.716      0.9260     16.5540
2002     16.4770      15.726      16.655      0.9290     16.4760
2003     16.4090      15.662      16.593      0.9310     16.4080
2004     16.3390      15.597      16.531      0.9340     16.3380
2005     16.2630      15.533      16.468      0.9350     16.2620
2006     16.1850      15.467      16.403      0.9360     16.1840
2007     16.1070      15.401      16.338      0.9370     16.1060
2008     16.0230      15.257      16.273      1.0160     16.0220
2009     15.9290      15.182      16.209      1.0270     15.9280
2010     15.8430      15.096      16.140      1.0440     15.8420
2011     15.7440      15.021      16.067      1.0460     15.7430
2012     15.6510      14.946      15.993      1.0470     15.6500
2013     15.5530      14.871      15.920      1.0490     15.5520
2014     15.4460      14.738      15.846      1.1080     15.4450
2015     15.3140      14.649      15.774      1.1250     15.3130
2016     15.1980      14.561      15.704      1.1430     15.1970
2017     15.0880      14.473      15.634      1.1610     15.0870
2018     14.9810      14.385      15.563      1.1780     14.9800
2019     14.8680      14.296      15.492      1.1960     14.8670
2020     14.7490      14.205      15.420      1.2150     14.7480
2021     14.6270      14.114      15.349      1.2350     14.6260
2022     14.4990      14.021      15.277      1.2560     14.4980
2023     14.3650      13.927      15.205      1.2780     14.3640
2024     14.2220      13.832      15.133      1.3010     14.2210
2025     14.0640      13.737      15.060      1.3230     14.0630
2026     13.8440      13.640      14.987      1.3470     13.8430
2027     13.7440      13.541      14.913      1.3720     13.7430
2028     13.6350      13.440      14.840      1.4000     13.6340
2029     13.5310      13.338      14.766      1.4280     13.5300
2030     13.4190      13.235      14.691      1.4560     13.4180
2031     13.3080      13.130      14.616      1.4860     13.3070
2032     13.1900      13.023      14.541      1.5180     13.1890
2033     13.0690      12.913      14.466      1.5530     13.0680
2034     12.9510      12.800      14.390      1.5900     12.9500
2035     12.8390      12.686      14.313      1.6270     12.8380
2036     12.7210      12.568      14.236      1.6680     12.7200
2037     12.5990      12.448      14.159      1.7110     12.5980
2038     12.4740      12.322      14.082      1.7600     12.4730
2039     12.3390      12.193      14.003      1.8100     12.3380
2040     12.2100      12.059      13.925      1.8660     12.2090
2041     12.0710      11.919      13.846      1.9270     12.0700
2042     11.9180      11.770      13.766      1.9960     11.9170
2043     11.7710      11.616      13.686      2.0700     11.7700
2044     11.6040      11.447      13.605      2.1580     11.6030
2045     11.4270      11.269      13.524      2.2550     11.4260
2046     11.2270      11.064      13.443      2.3790     11.2260
2047     10.9880       8.862      13.360      4.4980     10.9870
2048     10.6340       8.493      13.277      4.7840     10.6330
2049     10.0180       8.720      13.194      4.4740     10.0170
2050      9.5300       8.818      13.110      4.2920      9.5291
