1950-01-01 00:00:00+00        0.00  Hz
1950-02-01 00:00:00+00        0.00
1950-03-01 00:00:00+00        0.00
1950-04-01 00:00:00+00        0.00
1950-05-01 00:00:00+00        0.00
1950-06-01 00:00:00+00        0.00
1950-07-01 00:00:00+00        0.00
1950-08-01 00:00:00+00        0.00
1950-09-01 00:00:00+00        0.00
1950-10-01 00:00:00+00        0.00
1950-11-01 00:00:00+00        0.00
1950-12-01 00:00:00+00        0.00
1951-01-01 00:00:00+00        0.00
1951-02-01 00:00:00+00        0.00
1951-03-01 00:00:00+00        0.00
1951-04-01 00:00:00+00        0.00
1951-05-01 00:00:00+00        0.00
1951-06-01 00:00:00+00        0.00
1951-07-01 00:00:00+00        0.00
1951-08-01 00:00:00+00        0.00
1951-09-01 00:00:00+00        0.00
1951-10-01 00:00:00+00        0.00
1951-11-01 00:00:00+00        0.00
1951-12-01 00:00:00+00        0.00
1952-01-01 00:00:00+00        0.00
1952-02-01 00:00:00+00        0.00
1952-03-01 00:00:00+00        0.00
1952-04-01 00:00:00+00        0.00
1952-05-01 00:00:00+00        0.00
1952-06-01 00:00:00+00        0.00
1952-07-01 00:00:00+00        0.00
1952-08-01 00:00:00+00        0.00
1952-09-01 00:00:00+00        0.00
1952-10-01 00:00:00+00        0.00
1952-11-01 00:00:00+00        0.00
1952-12-01 00:00:00+00        0.00
1953-01-01 00:00:00+00        0.00
1953-02-01 00:00:00+00        0.00
1953-03-01 00:00:00+00        0.00
1953-04-01 00:00:00+00        0.00
1953-05-01 00:00:00+00        0.00
1953-06-01 00:00:00+00        0.00
1953-07-01 00:00:00+00        0.00
1953-08-01 00:00:00+00        0.00
1953-09-01 00:00:00+00        0.00
1953-10-01 00:00:00+00        0.00
1953-11-01 00:00:00+00        0.00
1953-12-01 00:00:00+00        0.00
1954-01-01 00:00:00+00        0.00
1954-02-01 00:00:00+00        0.00
1954-03-01 00:00:00+00        0.00
1954-04-01 00:00:00+00        0.00
1954-05-01 00:00:00+00        0.00
1954-06-01 00:00:00+00        0.00
1954-07-01 00:00:00+00        0.00
1954-08-01 00:00:00+00        0.00
1954-09-01 00:00:00+00        0.00
1954-10-01 00:00:00+00        0.00
1954-11-01 00:00:00+00        0.00
1954-12-01 00:00:00+00        0.00
1955-01-01 00:00:00+00        0.00
1955-02-01 00:00:00+00        0.00
1955-03-01 00:00:00+00        0.00
1955-04-01 00:00:00+00        0.00
1955-05-01 00:00:00+00        0.00
1955-06-01 00:00:00+00        0.00
1955-07-01 00:00:00+00        0.00
1955-08-01 00:00:00+00        0.00
1955-09-01 00:00:00+00        0.00
1955-10-01 00:00:00+00        0.00
1955-11-01 00:00:00+00        0.00
1955-12-01 00:00:00+00        0.00
1956-01-01 00:00:00+00        0.00
1956-02-01 00:00:00+00        0.00
1956-03-01 00:00:00+00        0.00
1956-04-01 00:00:00+00        0.00
1956-05-01 00:00:00+00        0.00
1956-06-01 00:00:00+00        0.00
1956-07-01 00:00:00+00        0.00
1956-08-01 00:00:00+00        0.00
1956-09-01 00:00:00+00        0.00
1956-10-01 00:00:00+00        0.00
1956-11-01 00:00:00+00        0.00
1956-12-01 00:00:00+00        0.00
1957-01-01 00:00:00+00        0.00
1957-02-01 00:00:00+00        0.00
1957-03-01 00:00:00+00        0.00
1957-04-01 00:00:00+00        0.00
1957-05-01 00:00:00+00        0.00
1957-06-01 00:00:00+00        0.00
1957-07-01 00:00:00+00        0.00
1957-08-01 00:00:00+00        0.00
1957-09-01 00:00:00+00        0.00
1957-10-01 00:00:00+00        0.00
1957-11-01 00:00:00+00        0.00
1957-12-01 00:00:00+00        0.00
1958-01-01 00:00:00+00        0.00
1958-02-01 00:00:00+00        0.00
1958-03-01 00:00:00+00        0.00
1958-04-01 00:00:00+00        0.00
1958-05-01 00:00:00+00        0.00
1958-06-01 00:00:00+00        0.00
1958-07-01 00:00:00+00        0.00
1958-08-01 00:00:00+00        0.00
1958-09-01 00:00:00+00        0.00
1958-10-01 00:00:00+00        0.00
1958-11-01 00:00:00+00        0.00
1958-12-01 00:00:00+00        0.00
1959-01-01 00:00:00+00        0.00
1959-02-01 00:00:00+00        0.00
1959-03-01 00:00:00+00        0.00
1959-04-01 00:00:00+00        0.00
1959-05-01 00:00:00+00        0.00
1959-06-01 00:00:00+00        0.00
1959-07-01 00:00:00+00        0.00
1959-08-01 00:00:00+00        0.00
1959-09-01 00:00:00+00        0.00
1959-10-01 00:00:00+00        0.00
1959-11-01 00:00:00+00        0.00
1959-12-01 00:00:00+00        0.00
1960-01-01 00:00:00+00        0.00
1960-02-01 00:00:00+00        0.00
1960-03-01 00:00:00+00        0.00
1960-04-01 00:00:00+00        0.00
1960-05-01 00:00:00+00        0.00
1960-06-01 00:00:00+00        0.00
1960-07-01 00:00:00+00        0.00
1960-08-01 00:00:00+00        0.00
1960-09-01 00:00:00+00        0.00
1960-10-01 00:00:00+00        0.00
1960-11-01 00:00:00+00        0.00
1960-12-01 00:00:00+00        0.00
1961-01-01 00:00:00+00        0.00
1961-02-01 00:00:00+00        0.00
1961-03-01 00:00:00+00        0.00
1961-04-01 00:00:00+00        0.00
1961-05-01 00:00:00+00        0.00
1961-06-01 00:00:00+00        0.00
1961-07-01 00:00:00+00        0.00
1961-08-01 00:00:00+00        0.00
1961-09-01 00:00:00+00        0.00
1961-10-01 00:00:00+00        0.00
1961-11-01 00:00:00+00        0.00
1961-12-01 00:00:00+00        0.00
1962-01-01 00:00:00+00        0.00
1962-02-01 00:00:00+00        0.00
1962-03-01 00:00:00+00        0.00
1962-04-01 00:00:00+00        0.00
1962-05-01 00:00:00+00        0.00
1962-06-01 00:00:00+00        0.00
1962-07-01 00:00:00+00        0.00
1962-08-01 00:00:00+00        0.00
1962-09-01 00:00:00+00        0.00
1962-10-01 00:00:00+00        0.00
1962-11-01 00:00:00+00        0.00
1962-12-01 00:00:00+00        0.00
1963-01-01 00:00:00+00        0.00
1963-02-01 00:00:00+00        0.00
1963-03-01 00:00:00+00        0.00
1963-04-01 00:00:00+00        0.00
1963-05-01 00:00:00+00        0.00
1963-06-01 00:00:00+00        0.00
1963-07-01 00:00:00+00        0.00
1963-08-01 00:00:00+00        0.00
1963-09-01 00:00:00+00        0.00
1963-10-01 00:00:00+00        0.00
1963-11-01 00:00:00+00        0.00
1963-12-01 00:00:00+00        0.00
1964-01-01 00:00:00+00        0.00
1964-02-01 00:00:00+00        0.00
1964-03-01 00:00:00+00        0.00
1964-04-01 00:00:00+00        0.00
1964-05-01 00:00:00+00        0.00
1964-06-01 00:00:00+00        0.00
1964-07-01 00:00:00+00        0.00
1964-08-01 00:00:00+00        0.00
1964-09-01 00:00:00+00        0.00
1964-10-01 00:00:00+00        0.00
1964-11-01 00:00:00+00        0.00
1964-12-01 00:00:00+00        0.00
1965-01-01 00:00:00+00        0.00
1965-02-01 00:00:00+00        0.00
1965-03-01 00:00:00+00        0.00
1965-04-01 00:00:00+00        0.00
1965-05-01 00:00:00+00        0.00
1965-06-01 00:00:00+00        0.00
1965-07-01 00:00:00+00        0.00
1965-08-01 00:00:00+00        0.00
1965-09-01 00:00:00+00        0.00
1965-10-01 00:00:00+00        0.00
1965-11-01 00:00:00+00        0.00
1965-12-01 00:00:00+00        0.00
1966-01-01 00:00:00+00        0.00
1966-02-01 00:00:00+00        0.00
1966-03-01 00:00:00+00        0.00
1966-04-01 00:00:00+00        0.00
1966-05-01 00:00:00+00        0.00
1966-06-01 00:00:00+00        0.00
1966-07-01 00:00:00+00        0.00
1966-08-01 00:00:00+00        0.00
1966-09-01 00:00:00+00        0.00
1966-10-01 00:00:00+00        0.00
1966-11-01 00:00:00+00        0.00
1966-12-01 00:00:00+00        0.00
1967-01-01 00:00:00+00        0.00
1967-02-01 00:00:00+00        0.00
1967-03-01 00:00:00+00        0.00
1967-04-01 00:00:00+00        0.00
1967-05-01 00:00:00+00        0.00
1967-06-01 00:00:00+00        0.00
1967-07-01 00:00:00+00        0.00
1967-08-01 00:00:00+00        0.00
1967-09-01 00:00:00+00        0.00
1967-10-01 00:00:00+00        0.00
1967-11-01 00:00:00+00        0.00
1967-12-01 00:00:00+00        0.00
1968-01-01 00:00:00+00        0.00
1968-02-01 00:00:00+00        0.00
1968-03-01 00:00:00+00        0.00
1968-04-01 00:00:00+00        0.00
1968-05-01 00:00:00+00        0.00
1968-06-01 00:00:00+00        0.00
1968-07-01 00:00:00+00        0.00
1968-08-01 00:00:00+00        0.00
1968-09-01 00:00:00+00        0.00
1968-10-01 00:00:00+00        0.00
1968-11-01 00:00:00+00        0.00
1968-12-01 00:00:00+00        0.00
1969-01-01 00:00:00+00        0.00
1969-02-01 00:00:00+00        0.00
1969-03-01 00:00:00+00        0.00
1969-04-01 00:00:00+00        0.00
1969-05-01 00:00:00+00        0.00
1969-06-01 00:00:00+00        0.00
1969-07-01 00:00:00+00        0.00
1969-08-01 00:00:00+00        0.00
1969-09-01 00:00:00+00        0.00
1969-10-01 00:00:00+00        0.00
1969-11-01 00:00:00+00        0.00
1969-12-01 00:00:00+00        0.00
1970-01-01 00:00:00+00        0.00
1970-02-01 00:00:00+00        0.00
1970-03-01 00:00:00+00        0.00
1970-04-01 00:00:00+00        0.00
1970-05-01 00:00:00+00        0.00
1970-06-01 00:00:00+00        0.00
1970-07-01 00:00:00+00        0.00
1970-08-01 00:00:00+00        0.00
1970-09-01 00:00:00+00        0.00
1970-10-01 00:00:00+00        0.00
1970-11-01 00:00:00+00        0.00
1970-12-01 00:00:00+00        0.00
1971-01-01 00:00:00+00        0.00
1971-02-01 00:00:00+00        0.00
1971-03-01 00:00:00+00        0.00
1971-04-01 00:00:00+00        0.00
1971-05-01 00:00:00+00        0.00
1971-06-01 00:00:00+00        0.00
1971-07-01 00:00:00+00        0.00
1971-08-01 00:00:00+00        0.00
1971-09-01 00:00:00+00        0.00
1971-10-01 00:00:00+00        0.00
1971-11-01 00:00:00+00        0.00
1971-12-01 00:00:00+00        0.00
1972-01-01 00:00:00+00        0.00
1972-02-01 00:00:00+00        0.00
1972-03-01 00:00:00+00        0.00
1972-04-01 00:00:00+00        0.00
1972-05-01 00:00:00+00        0.00
1972-06-01 00:00:00+00        0.00
1972-07-01 00:00:00+00        0.00
1972-08-01 00:00:00+00        0.00
1972-09-01 00:00:00+00        0.00
1972-10-01 00:00:00+00        0.00
1972-11-01 00:00:00+00        0.00
1972-12-01 00:00:00+00        0.00
1973-01-01 00:00:00+00        0.00
1973-02-01 00:00:00+00        0.00
1973-03-01 00:00:00+00        0.00
1973-04-01 00:00:00+00        0.00
1973-05-01 00:00:00+00        0.00
1973-06-01 00:00:00+00        0.00
1973-07-01 00:00:00+00        0.00
1973-08-01 00:00:00+00        0.00
1973-09-01 00:00:00+00        0.00
1973-10-01 00:00:00+00        0.00
1973-11-01 00:00:00+00        0.00
1973-12-01 00:00:00+00        0.00
1974-01-01 00:00:00+00      139.11
1974-02-01 00:00:00+00      139.21
1974-03-01 00:00:00+00      138.83
1974-04-01 00:00:00+00      138.71
1974-05-01 00:00:00+00      137.93
1974-06-01 00:00:00+00      137.97
1974-07-01 00:00:00+00      137.94
1974-08-01 00:00:00+00      138.47
1974-09-01 00:00:00+00      137.81
1974-10-01 00:00:00+00      137.63
1974-11-01 00:00:00+00      136.89
1974-12-01 00:00:00+00      138.01
1975-01-01 00:00:00+00      138.53
1975-02-01 00:00:00+00      138.51
1975-03-01 00:00:00+00      138.51
1975-04-01 00:00:00+00      138.54
1975-05-01 00:00:00+00      138.67
1975-06-01 00:00:00+00      138.97
1975-07-01 00:00:00+00      138.83
1975-08-01 00:00:00+00      139.06
1975-09-01 00:00:00+00      139.33
1975-10-01 00:00:00+00      138.95
1975-11-01 00:00:00+00      138.71
1975-12-01 00:00:00+00      138.96
1976-01-01 00:00:00+00      139.03
1976-02-01 00:00:00+00      138.95
1976-03-01 00:00:00+00      139.08
1976-04-01 00:00:00+00      136.84
1976-05-01 00:00:00+00      137.10
1976-06-01 00:00:00+00      136.36
1976-07-01 00:00:00+00      133.18
1976-08-01 00:00:00+00      138.59
1976-09-01 00:00:00+00      138.98
1976-10-01 00:00:00+00      138.95
1976-11-01 00:00:00+00      138.67
1976-12-01 00:00:00+00      138.67
1977-01-01 00:00:00+00      138.50
1977-02-01 00:00:00+00      138.48
1977-03-01 00:00:00+00      138.13
1977-04-01 00:00:00+00      138.11
1977-05-01 00:00:00+00      138.02
1977-06-01 00:00:00+00      137.72
1977-07-01 00:00:00+00      137.28
1977-08-01 00:00:00+00      137.55
1977-09-01 00:00:00+00      137.17
1977-10-01 00:00:00+00      137.68
1977-11-01 00:00:00+00      137.77
1977-12-01 00:00:00+00      137.42
1978-01-01 00:00:00+00      137.72
1978-02-01 00:00:00+00      137.36
1978-03-01 00:00:00+00      137.39
1978-04-01 00:00:00+00      136.78
1978-05-01 00:00:00+00      136.17
1978-06-01 00:00:00+00      136.77
1978-07-01 00:00:00+00      137.01
1978-08-01 00:00:00+00      136.57
1978-09-01 00:00:00+00      136.59
1978-10-01 00:00:00+00      136.29
1978-11-01 00:00:00+00      136.63
1978-12-01 00:00:00+00      136.00
1979-01-01 00:00:00+00      135.88
1979-02-01 00:00:00+00      136.25
1979-03-01 00:00:00+00      136.02
1979-04-01 00:00:00+00      134.87
1979-05-01 00:00:00+00      135.30
1979-06-01 00:00:00+00      135.15
1979-07-01 00:00:00+00      135.60
1979-08-01 00:00:00+00      135.20
1979-09-01 00:00:00+00      135.25
1979-10-01 00:00:00+00      135.58
1979-11-01 00:00:00+00      135.30
1979-12-01 00:00:00+00      135.42
1980-01-01 00:00:00+00      135.57
1980-02-01 00:00:00+00      135.08
1980-03-01 00:00:00+00      135.68
1980-04-01 00:00:00+00      135.11
1980-05-01 00:00:00+00      135.52
1980-06-01 00:00:00+00      135.18
1980-07-01 00:00:00+00      135.58
1980-08-01 00:00:00+00      135.82
1980-09-01 00:00:00+00      135.62
1980-10-01 00:00:00+00      134.86
1980-11-01 00:00:00+00      133.80
1980-12-01 00:00:00+00      134.35
1981-01-01 00:00:00+00      134.80
1981-02-01 00:00:00+00      134.61
1981-03-01 00:00:00+00      134.23
1981-04-01 00:00:00+00      133.90
1981-05-01 00:00:00+00      133.78
1981-06-01 00:00:00+00      134.26
1981-07-01 00:00:00+00      134.44
1981-08-01 00:00:00+00      135.10
1981-09-01 00:00:00+00      134.82
1981-10-01 00:00:00+00      133.61
1981-11-01 00:00:00+00      133.76
1981-12-01 00:00:00+00      134.52
1982-01-01 00:00:00+00      134.78
1982-02-01 00:00:00+00      133.44
1982-03-01 00:00:00+00      133.94
1982-04-01 00:00:00+00      133.61
1982-05-01 00:00:00+00      133.67
1982-06-01 00:00:00+00      132.74
1982-07-01 00:00:00+00      131.71
1982-08-01 00:00:00+00      132.04
1982-09-01 00:00:00+00      131.33
1982-10-01 00:00:00+00      133.48
1982-11-01 00:00:00+00      135.30
1982-12-01 00:00:00+00      134.60
1983-01-01 00:00:00+00      132.86
1983-02-01 00:00:00+00      133.38
1983-03-01 00:00:00+00      133.71
1983-04-01 00:00:00+00      133.71
1983-05-01 00:00:00+00      133.07
1983-06-01 00:00:00+00      134.03
1983-07-01 00:00:00+00      134.70
1983-08-01 00:00:00+00      134.37
1983-09-01 00:00:00+00      134.22
1983-10-01 00:00:00+00      134.26
1983-11-01 00:00:00+00      134.48
1983-12-01 00:00:00+00      134.20
1984-01-01 00:00:00+00      134.25
1984-02-01 00:00:00+00      134.05
1984-03-01 00:00:00+00      133.41
1984-04-01 00:00:00+00      132.69
1984-05-01 00:00:00+00      132.41
1984-06-01 00:00:00+00      133.16
1984-07-01 00:00:00+00      133.89
1984-08-01 00:00:00+00      134.05
1984-09-01 00:00:00+00      133.86
1984-10-01 00:00:00+00      133.96
1984-11-01 00:00:00+00      133.58
1984-12-01 00:00:00+00      133.90
1985-01-01 00:00:00+00      133.99
1985-02-01 00:00:00+00      134.80
1985-03-01 00:00:00+00      134.54
1985-04-01 00:00:00+00      135.07
1985-05-01 00:00:00+00      135.01
1985-06-01 00:00:00+00      135.34
1985-07-01 00:00:00+00      135.32
1985-08-01 00:00:00+00      135.22
1985-09-01 00:00:00+00      135.04
1985-10-01 00:00:00+00      134.86
1985-11-01 00:00:00+00      135.26
1985-12-01 00:00:00+00      135.70
1986-01-01 00:00:00+00      136.07
1986-02-01 00:00:00+00      135.51
1986-03-01 00:00:00+00      130.42
1986-04-01 00:00:00+00      133.32
1986-05-01 00:00:00+00      136.98
1986-06-01 00:00:00+00      136.97
1986-07-01 00:00:00+00      136.91
1986-08-01 00:00:00+00      137.13
1986-09-01 00:00:00+00      137.05
1986-10-01 00:00:00+00      136.91
1986-11-01 00:00:00+00      136.71
1986-12-01 00:00:00+00      137.21
1987-01-01 00:00:00+00      137.58
1987-02-01 00:00:00+00      137.87
1987-03-01 00:00:00+00      137.73
1987-04-01 00:00:00+00      137.52
1987-05-01 00:00:00+00      137.58
1987-06-01 00:00:00+00      137.17
1987-07-01 00:00:00+00      137.28
1987-08-01 00:00:00+00      137.02
1987-09-01 00:00:00+00      136.03
1987-10-01 00:00:00+00      133.18
1987-11-01 00:00:00+00      136.16
1987-12-01 00:00:00+00      136.49
1988-01-01 00:00:00+00      136.20
1988-02-01 00:00:00+00      136.11
1988-03-01 00:00:00+00      136.30
1988-04-01 00:00:00+00      136.21
1988-05-01 00:00:00+00      136.56
1988-06-01 00:00:00+00      136.54
1988-07-01 00:00:00+00      136.56
1988-08-01 00:00:00+00      136.36
1988-09-01 00:00:00+00      136.42
1988-10-01 00:00:00+00      136.08
1988-11-01 00:00:00+00      136.07
1988-12-01 00:00:00+00      135.46
1989-01-01 00:00:00+00      135.08
1989-02-01 00:00:00+00      135.12
1989-03-01 00:00:00+00      133.86
1989-04-01 00:00:00+00      134.34
1989-05-01 00:00:00+00      134.38
1989-06-01 00:00:00+00      134.71
1989-07-01 00:00:00+00      135.54
1989-08-01 00:00:00+00      135.26
1989-09-01 00:00:00+00      134.15
1989-10-01 00:00:00+00      133.62
1989-11-01 00:00:00+00      133.46
1989-12-01 00:00:00+00      134.20
1990-01-01 00:00:00+00      134.43
1990-02-01 00:00:00+00      134.21
1990-03-01 00:00:00+00      133.79
1990-04-01 00:00:00+00      133.72
1990-05-01 00:00:00+00      134.23
1990-06-01 00:00:00+00      134.95
1990-07-01 00:00:00+00      135.51
1990-08-01 00:00:00+00      135.29
1990-09-01 00:00:00+00      135.31
1990-10-01 00:00:00+00      135.41
1990-11-01 00:00:00+00      135.61
1990-12-01 00:00:00+00      136.05
1991-01-01 00:00:00+00      136.49
1991-02-01 00:00:00+00      136.19
1991-03-01 00:00:00+00      133.65
1991-04-01 00:00:00+00      134.13
1991-05-01 00:00:00+00      134.23
1991-06-01 00:00:00+00      130.96
1991-07-01 00:00:00+00      131.82
1991-08-01 00:00:00+00      133.72
1991-09-01 00:00:00+00      134.42
1991-10-01 00:00:00+00      134.15
1991-11-01 00:00:00+00      133.56
1991-12-01 00:00:00+00      134.05
1992-01-01 00:00:00+00      134.24
1992-02-01 00:00:00+00      134.37
1992-03-01 00:00:00+00      134.74
1992-04-01 00:00:00+00      135.54
1992-05-01 00:00:00+00      135.08
1992-06-01 00:00:00+00      135.85
1992-07-01 00:00:00+00      136.34
1992-08-01 00:00:00+00      136.06
1992-09-01 00:00:00+00      135.82
1992-10-01 00:00:00+00      136.00
1992-11-01 00:00:00+00      135.79
1992-12-01 00:00:00+00      136.28
1993-01-01 00:00:00+00      136.11
1993-02-01 00:00:00+00      136.47
1993-03-01 00:00:00+00      136.16
1993-04-01 00:00:00+00      136.69
1993-05-01 00:00:00+00      136.69
1993-06-01 00:00:00+00      136.88
1993-07-01 00:00:00+00      136.83
1993-08-01 00:00:00+00      136.80
1993-09-01 00:00:00+00      136.96
1993-10-01 00:00:00+00      136.83
1993-11-01 00:00:00+00      136.69
1993-12-01 00:00:00+00      137.07
1994-01-01 00:00:00+00      137.08
1994-02-01 00:00:00+00      136.98
1994-03-01 00:00:00+00      136.51
1994-04-01 00:00:00+00      136.77
1994-05-01 00:00:00+00      137.07
1994-06-01 00:00:00+00      136.89
1994-07-01 00:00:00+00      136.43
1994-08-01 00:00:00+00      136.87
1994-09-01 00:00:00+00      137.57
1994-10-01 00:00:00+00      137.17
1994-11-01 00:00:00+00      136.89
1994-12-01 00:00:00+00      137.14
1995-01-01 00:00:00+00      137.57
1995-02-01 00:00:00+00      137.54
1995-03-01 00:00:00+00      137.37
1995-04-01 00:00:00+00      137.49
1995-05-01 00:00:00+00      137.62
1995-06-01 00:00:00+00      137.79
1995-07-01 00:00:00+00      137.92
1995-08-01 00:00:00+00      138.75
1995-09-01 00:00:00+00      137.57
1995-10-01 00:00:00+00      137.42
1995-11-01 00:00:00+00      136.68
1995-12-01 00:00:00+00      137.55
1996-01-01 00:00:00+00      137.70
1996-02-01 00:00:00+00      137.80
1996-03-01 00:00:00+00      137.89
1996-04-01 00:00:00+00      137.80
1996-05-01 00:00:00+00      137.74
1996-06-01 00:00:00+00      137.73
1996-07-01 00:00:00+00      137.50
1996-08-01 00:00:00+00      137.63
1996-09-01 00:00:00+00      136.28
1996-10-01 00:00:00+00      137.24
1996-11-01 00:00:00+00      137.44
1996-12-01 00:00:00+00      137.67
1997-01-01 00:00:00+00      138.03
1997-02-01 00:00:00+00      137.97
1997-03-01 00:00:00+00      137.82
1997-04-01 00:00:00+00      137.95
1997-05-01 00:00:00+00      138.20
1997-06-01 00:00:00+00      137.92
1997-07-01 00:00:00+00      137.91
1997-08-01 00:00:00+00      138.00
1997-09-01 00:00:00+00      137.93
1997-10-01 00:00:00+00      137.72
1997-11-01 00:00:00+00      137.37
1997-12-01 00:00:00+00      137.61
1998-01-01 00:00:00+00      137.87
1998-02-01 00:00:00+00      137.76
1998-03-01 00:00:00+00      137.81
1998-04-01 00:00:00+00      137.13
1998-05-01 00:00:00+00      136.94
1998-06-01 00:00:00+00      137.47
1998-07-01 00:00:00+00        0.00
1998-08-01 00:00:00+00        0.00
1998-09-01 00:00:00+00      136.20
1998-10-01 00:00:00+00      136.99
1998-11-01 00:00:00+00      137.05
1998-12-01 00:00:00+00      135.61
1999-01-01 00:00:00+00      136.32
1999-02-01 00:00:00+00      136.88
1999-03-01 00:00:00+00      137.10
1999-04-01 00:00:00+00      137.13
1999-05-01 00:00:00+00      137.15
1999-06-01 00:00:00+00      137.38
1999-07-01 00:00:00+00      137.14
1999-08-01 00:00:00+00      136.39
1999-09-01 00:00:00+00      136.08
1999-10-01 00:00:00+00      136.20
1999-11-01 00:00:00+00      136.38
1999-12-01 00:00:00+00      136.41
2000-01-01 00:00:00+00      136.59
2000-02-01 00:00:00+00      136.82
2000-03-01 00:00:00+00      136.59
2000-04-01 00:00:00+00      136.79
2000-05-01 00:00:00+00      135.92
2000-06-01 00:00:00+00      135.55
2000-07-01 00:00:00+00      133.45
2000-08-01 00:00:00+00      130.39
2000-09-01 00:00:00+00      130.64
2000-10-01 00:00:00+00      130.95
2000-11-01 00:00:00+00      130.23
2000-12-01 00:00:00+00      135.04
2001-01-01 00:00:00+00      137.27
2001-02-01 00:00:00+00      137.84
2001-03-01 00:00:00+00      137.76
2001-04-01 00:00:00+00      135.99
2001-05-01 00:00:00+00      136.65
2001-06-01 00:00:00+00      136.69
2001-07-01 00:00:00+00      136.74
2001-08-01 00:00:00+00      135.96
2001-09-01 00:00:00+00      136.50
2001-10-01 00:00:00+00      136.16
2001-11-01 00:00:00+00      136.61
2001-12-01 00:00:00+00      136.52
2002-01-01 00:00:00+00      136.20
2002-02-01 00:00:00+00      136.71
2002-03-01 00:00:00+00      136.68
2002-04-01 00:00:00+00      136.62
2002-05-01 00:00:00+00      136.48
2002-06-01 00:00:00+00      136.86
2002-07-01 00:00:00+00      136.16
2002-08-01 00:00:00+00      135.32
2002-09-01 00:00:00+00      135.67
2002-10-01 00:00:00+00      135.76
2002-11-01 00:00:00+00      135.77
2002-12-01 00:00:00+00      136.14
2003-01-01 00:00:00+00      136.85
2003-02-01 00:00:00+00      136.33
2003-03-01 00:00:00+00      136.33
2003-04-01 00:00:00+00      136.15
2003-05-01 00:00:00+00      135.73
2003-06-01 00:00:00+00      134.96
2003-07-01 00:00:00+00      135.47
2003-08-01 00:00:00+00      135.71
2003-09-01 00:00:00+00      136.01
2003-10-01 00:00:00+00      135.67
2003-11-01 00:00:00+00      134.55
2003-12-01 00:00:00+00      136.72
2004-01-01 00:00:00+00      136.82
2004-02-01 00:00:00+00      137.34
2004-03-01 00:00:00+00      137.44
2004-04-01 00:00:00+00      137.43
2004-05-01 00:00:00+00      137.10
2004-06-01 00:00:00+00      137.13
2004-07-01 00:00:00+00      136.93
2004-08-01 00:00:00+00      137.24
2004-09-01 00:00:00+00      137.03
2004-10-01 00:00:00+00      137.61
2004-11-01 00:00:00+00      137.03
2004-12-01 00:00:00+00      137.40
2005-01-01 00:00:00+00      137.16
2005-02-01 00:00:00+00      137.72
2005-03-01 00:00:00+00      137.96
2005-04-01 00:00:00+00      137.94
2005-05-01 00:00:00+00      137.75
2005-06-01 00:00:00+00      137.49
2005-07-01 00:00:00+00      137.49
2005-08-01 00:00:00+00      137.39
2005-09-01 00:00:00+00      136.37
2005-10-01 00:00:00+00      137.51
2005-11-01 00:00:00+00      138.82
2005-12-01 00:00:00+00      139.41
2006-01-01 00:00:00+00      138.72
2006-02-01 00:00:00+00      138.39
2006-03-01 00:00:00+00      139.32
2006-04-01 00:00:00+00      139.36
2006-05-01 00:00:00+00      138.38
2006-06-01 00:00:00+00      138.78
2006-07-01 00:00:00+00      138.09
2006-08-01 00:00:00+00      138.25
2006-09-01 00:00:00+00      139.09
2006-10-01 00:00:00+00      139.16
2006-11-01 00:00:00+00      139.75
2006-12-01 00:00:00+00      138.63
2007-01-01 00:00:00+00      139.58
2007-02-01 00:00:00+00      139.69
2007-03-01 00:00:00+00      139.79
2007-04-01 00:00:00+00      139.84
2007-05-01 00:00:00+00      139.90
2007-06-01 00:00:00+00      139.76
2007-07-01 00:00:00+00      139.97
2007-08-01 00:00:00+00      139.37
2007-09-01 00:00:00+00      139.37
2007-10-01 00:00:00+00      139.92
2007-11-01 00:00:00+00      140.20
2007-12-01 00:00:00+00      140.43
2008-01-01 00:00:00+00      140.25
2008-02-01 00:00:00+00      140.46
2008-03-01 00:00:00+00      140.36
2008-04-01 00:00:00+00      140.45
2008-05-01 00:00:00+00      140.38
2008-06-01 00:00:00+00      140.30
2008-07-01 00:00:00+00      140.06
2008-08-01 00:00:00+00      140.17
2008-09-01 00:00:00+00      139.96
2008-10-01 00:00:00+00      140.02
2008-11-01 00:00:00+00      140.67
2008-12-01 00:00:00+00      140.88
2009-01-01 00:00:00+00      140.68
2009-02-01 00:00:00+00      140.96
2009-03-01 00:00:00+00      140.80
2009-04-01 00:00:00+00      141.14
2009-05-01 00:00:00+00      141.06
2009-06-01 00:00:00+00      141.09
2009-07-01 00:00:00+00      140.61
2009-08-01 00:00:00+00      140.55
2009-09-01 00:00:00+00      140.70
2009-10-01 00:00:00+00      140.78
2009-11-01 00:00:00+00      140.70
2009-12-01 00:00:00+00      140.82
2010-01-01 00:00:00+00      140.47
2010-02-01 00:00:00+00      140.27
2010-03-01 00:00:00+00      140.01
2010-04-01 00:00:00+00      139.80
2010-05-01 00:00:00+00      140.18
2010-06-01 00:00:00+00      140.12
2010-07-01 00:00:00+00      140.09
2010-08-01 00:00:00+00      139.87
2010-09-01 00:00:00+00      139.92
2010-10-01 00:00:00+00      139.95
2010-11-01 00:00:00+00      139.94
2010-12-01 00:00:00+00      139.92
2011-01-01 00:00:00+00      140.38
2011-02-01 00:00:00+00      140.55
2011-03-01 00:00:00+00      140.13
2011-04-01 00:00:00+00      140.33
2011-05-01 00:00:00+00      140.55
2011-06-01 00:00:00+00      139.74
2011-07-01 00:00:00+00      139.89
2011-08-01 00:00:00+00      139.95
2011-09-01 00:00:00+00      139.70
2011-10-01 00:00:00+00      139.44
2011-11-01 00:00:00+00      139.72
2011-12-01 00:00:00+00      139.51
2012-01-01 00:00:00+00      139.84
2012-02-01 00:00:00+00      139.69
2012-03-01 00:00:00+00      139.25
2012-04-01 00:00:00+00      140.06
2012-05-01 00:00:00+00      139.96
2012-06-01 00:00:00+00      139.70
2012-07-01 00:00:00+00      138.96
2012-08-01 00:00:00+00      139.31
2012-09-01 00:00:00+00      139.48
2012-10-01 00:00:00+00      139.43
2012-11-01 00:00:00+00      139.90
2012-12-01 00:00:00+00      139.78
2013-01-01 00:00:00+00      139.30
2013-02-01 00:00:00+00      139.25
2013-03-01 00:00:00+00      139.78
2013-04-01 00:00:00+00      140.56
2013-05-01 00:00:00+00      140.14
2013-06-01 00:00:00+00      139.69
2013-07-01 00:00:00+00      139.28
2013-08-01 00:00:00+00      138.73
2013-09-01 00:00:00+00      138.38
2013-10-01 00:00:00+00      137.36
2013-11-01 00:00:00+00      138.70
2013-12-01 00:00:00+00      139.04
2014-01-01 00:00:00+00      139.39
2014-02-01 00:00:00+00      139.14
2014-03-01 00:00:00+00      139.69
2014-04-01 00:00:00+00      139.51
2014-05-01 00:00:00+00      139.61
2014-06-01 00:00:00+00      139.31
2014-07-01 00:00:00+00      139.15
2014-08-01 00:00:00+00      138.93
2014-09-01 00:00:00+00      138.45
2014-10-01 00:00:00+00      138.25
2014-11-01 00:00:00+00      138.11
2014-12-01 00:00:00+00      137.90
2015-01-01 00:00:00+00      138.00
2015-02-01 00:00:00+00      138.43
2015-03-01 00:00:00+00      138.45
2015-04-01 00:00:00+00      138.53
2015-05-01 00:00:00+00      138.67
2015-06-01 00:00:00+00      138.28
2015-07-01 00:00:00+00      138.38
2015-08-01 00:00:00+00      138.08
2015-09-01 00:00:00+00      138.06
2015-10-01 00:00:00+00      138.19
2015-11-01 00:00:00+00      138.09
2015-12-01 00:00:00+00      138.18
