1950      9.6950       8.081      10.591      2.5100      9.6950
1951      9.7050       7.261      10.598      3.3370      9.7040
1952      9.7180       8.171      10.605      2.4340      9.7170
1953      9.7270       8.242      10.612      2.3700      9.7260
1954      9.7450       8.267      10.616      2.3490      9.7440
1955      9.7520       8.290      10.620      2.3300      9.7510
1956      9.7660       8.311      10.623      2.3120      9.7650
1957      9.7690       8.321      10.624      2.3030      9.7680
1958      9.7750       8.340      10.624      2.2840      9.7740
1959      9.7820       8.358      10.623      2.2650      9.7810
1960      9.7820       8.370      10.627      2.2570      9.7810
1961      9.7800       7.895      10.629      2.7340      9.7800
1962      9.8010       8.016      10.631      2.6150      9.8010
1963      9.8030       8.998      10.633      1.6350      9.8020
1964      9.8130       9.005      10.635      1.6300      9.8120
1965      9.8210       9.009      10.636      1.6270      9.8200
1966      9.8190       9.013      10.634      1.6210      9.8180
1967      9.8200       9.016      10.633      1.6170      9.8190
1968      9.8210       7.790      10.631      2.8410      9.8210
1969      9.8250       7.731      10.630      2.8990      9.8250
1970      9.8260       9.024      10.628      1.6040      9.8250
1971      9.8260       7.688      10.623      2.9350      9.8250
1972      9.8170       7.587      10.623      3.0360      9.8170
1973      9.8270       9.040      10.620      1.5800      9.8260
1974      9.8240       9.040      10.617      1.5770      9.8230
1975      9.8300       8.213      10.615      2.4020      9.8290
1976      9.8340       8.036      10.620      2.5840      9.8340
1977      9.8230       7.874      10.622      2.7480      9.8230
1978      9.7830       7.841      10.624      2.7830      9.7820
1979      9.8160       7.468      10.626      3.1580      9.8160
1980      9.8180       7.788      10.625      2.8370      9.8170
1981      9.8040       7.351      10.620      3.2690      9.8040
1982      9.8430       9.080      10.615      1.5350      9.8420
1983      9.8340       8.257      10.610      2.3530      9.8330
1984      9.8240       9.065      10.605      1.5400      9.8230
1985      9.8150       7.696      10.598      2.9020      9.8150
1986      9.7950       9.037      10.589      1.5520      9.7940
1987      9.7840       7.629      10.580      2.9510      9.7840
1988      9.7740       7.816      10.571      2.7550      9.7740
1989      9.7620       8.987      10.561      1.5740      9.7610
1990      9.7440       8.967      10.550      1.5830      9.7430
1991      9.7230       8.943      10.540      1.5970      9.7220
1992      9.7020       8.918      10.528      1.6100      9.7010
1993      9.6520       7.624      10.517      2.8930      9.6510
1994      9.6560       8.814      10.505      1.6910      9.6550
1995      9.6370       8.787      10.494      1.7070      9.6360
1996      9.6100       8.756      10.479      1.7230      9.6090
1997      9.5890       8.726      10.469      1.7430      9.5880
1998      9.5590       8.695      10.455      1.7600      9.5580
1999      9.5390       8.663      10.445      1.7820      9.5380
2000      9.5190       8.637      10.435      1.7980      9.5180
2001      9.5050       8.618      10.427      1.8090      9.5040
2002      9.4950       8.599      10.419      1.8200      9.4940
2003      9.4720       8.579      10.411      1.8320      9.4710
2004      9.4680       8.559      10.403      1.8440      9.4670
2005      9.4440       8.536      10.394      1.8580      9.4430
2006      9.4270       8.510      10.385      1.8750      9.4260
2007      9.4060       8.483      10.376      1.8930      9.4050
2008      9.3930       8.455      10.367      1.9120      9.3920
2009      9.3650       8.427      10.357      1.9300      9.3640
2010      9.3500       8.397      10.348      1.9510      9.3490
2011      9.3390       8.366      10.340      1.9740      9.3380
2012      9.3160       8.339      10.331      1.9920      9.3150
2013      9.3070       8.299      10.322      2.0230      9.3060
2014      9.2800       8.268      10.313      2.0450      9.2790
2015      9.2660       8.239      10.305      2.0660      9.2650
2016      9.2580       8.213      10.298      2.0850      9.2570
2017      9.2490       8.185      10.289      2.1040      9.2480
2018      9.2400       8.158      10.283      2.1250      9.2390
2019      9.2310       8.130      10.276      2.1460      9.2300
2020      9.2240       8.102      10.268      2.1660      9.2230
2021      9.2150       8.073      10.263      2.1900      9.2140
2022      9.2090       8.043      10.256      2.2130      9.2080
2023      9.1930       8.013      10.249      2.2360      9.1920
2024      9.1860       7.982      10.242      2.2600      9.1850
2025      9.1860       7.951      10.235      2.2840      9.1850
2026      9.1860       7.918      10.228      2.3100      9.1850
2027      9.1820       7.885      10.220      2.3350      9.1810
2028      9.1770       7.851      10.212      2.3610      9.1760
2029      9.1770       7.817      10.206      2.3890      9.1760
2030      9.1630       7.781      10.199      2.4180      9.1620
2031      9.1500       7.744      10.191      2.4470      9.1490
2032      9.1600       7.707      10.184      2.4770      9.1590
2033      9.1490       7.669      10.177      2.5080      9.1480
2034      9.1410       7.631      10.168      2.5370      9.1400
2035      9.1330       7.593      10.162      2.5690      9.1320
2036      9.1290       7.553      10.155      2.6020      9.1280
2037      9.1200       7.513      10.146      2.6330      9.1190
2038      9.1210       7.475      10.140      2.6650      9.1200
2039      9.1220       7.435      10.132      2.6970      9.1210
2040      9.1270       7.395      10.125      2.7300      9.1260
2041      9.1250       7.356      10.117      2.7610      9.1240
2042      9.1290       7.318      10.110      2.7920      9.1280
2043      9.1270       7.391      10.100      2.7090      9.1260
2044      9.1260       7.350      10.093      2.7430      9.1250
2045      9.1410       7.235      10.087      2.8520      9.1400
2046      9.1460       7.270      10.077      2.8070      9.1450
2047      9.1600       7.231      10.071      2.8400      9.1590
2048      9.1760       7.192      10.064      2.8720      9.1750
2049      9.1950       7.182      10.056      2.8740      9.1940
2050      9.2140       7.461      10.047      2.5860      9.2130
