1950-01-01 00:00:00+00      0.0000
1950-02-01 00:00:00+00      0.0000
1950-03-01 00:00:00+00      0.0000
1950-04-01 00:00:00+00      0.0000
1950-05-01 00:00:00+00      0.0000
1950-06-01 00:00:00+00      0.0000
1950-07-01 00:00:00+00      0.0000
1950-08-01 00:00:00+00      0.0000
1950-09-01 00:00:00+00      0.0000
1950-10-01 00:00:00+00      0.0000
1950-11-01 00:00:00+00      0.0000
1950-12-01 00:00:00+00      0.0000
1951-01-01 00:00:00+00      0.0000
1951-02-01 00:00:00+00      0.0000
1951-03-01 00:00:00+00      0.0000
1951-04-01 00:00:00+00      0.0000
1951-05-01 00:00:00+00      0.0000
1951-06-01 00:00:00+00      0.0000
1951-07-01 00:00:00+00      0.0000
1951-08-01 00:00:00+00      0.0000
1951-09-01 00:00:00+00      0.0000
1951-10-01 00:00:00+00      0.0000
1951-11-01 00:00:00+00      0.0000
1951-12-01 00:00:00+00      0.0000
1952-01-01 00:00:00+00      0.0000
1952-02-01 00:00:00+00      0.0000
1952-03-01 00:00:00+00      0.0000
1952-04-01 00:00:00+00      0.0000
1952-05-01 00:00:00+00      0.0000
1952-06-01 00:00:00+00      0.0000
1952-07-01 00:00:00+00      0.0000
1952-08-01 00:00:00+00      0.0000
1952-09-01 00:00:00+00      0.0000
1952-10-01 00:00:00+00      0.0000
1952-11-01 00:00:00+00      0.0000
1952-12-01 00:00:00+00      0.0000
1953-01-01 00:00:00+00      0.0000
1953-02-01 00:00:00+00      0.0000
1953-03-01 00:00:00+00      0.0000
1953-04-01 00:00:00+00      0.0000
1953-05-01 00:00:00+00      0.0000
1953-06-01 00:00:00+00      0.0000
1953-07-01 00:00:00+00      0.0000
1953-08-01 00:00:00+00      0.0000
1953-09-01 00:00:00+00      0.0000
1953-10-01 00:00:00+00      0.0000
1953-11-01 00:00:00+00      0.0000
1953-12-01 00:00:00+00      0.0000
1954-01-01 00:00:00+00      0.0000
1954-02-01 00:00:00+00      0.0000
1954-03-01 00:00:00+00      0.0000
1954-04-01 00:00:00+00      0.0000
1954-05-01 00:00:00+00      0.0000
1954-06-01 00:00:00+00      0.0000
1954-07-01 00:00:00+00      0.0000
1954-08-01 00:00:00+00      0.0000
1954-09-01 00:00:00+00      0.0000
1954-10-01 00:00:00+00      0.0000
1954-11-01 00:00:00+00      0.0000
1954-12-01 00:00:00+00      0.0000
1955-01-01 00:00:00+00      0.0000
1955-02-01 00:00:00+00      0.0000
1955-03-01 00:00:00+00      0.0000
1955-04-01 00:00:00+00      0.0000
1955-05-01 00:00:00+00      0.0000
1955-06-01 00:00:00+00      0.0000
1955-07-01 00:00:00+00      0.0000
1955-08-01 00:00:00+00      0.0000
1955-09-01 00:00:00+00      0.0000
1955-10-01 00:00:00+00      0.0000
1955-11-01 00:00:00+00      0.0000
1955-12-01 00:00:00+00      0.0000
1956-01-01 00:00:00+00      0.0000
1956-02-01 00:00:00+00      0.0000
1956-03-01 00:00:00+00      0.0000
1956-04-01 00:00:00+00      0.0000
1956-05-01 00:00:00+00      0.0000
1956-06-01 00:00:00+00      0.0000
1956-07-01 00:00:00+00      0.0000
1956-08-01 00:00:00+00      0.0000
1956-09-01 00:00:00+00      0.0000
1956-10-01 00:00:00+00      0.0000
1956-11-01 00:00:00+00      0.0000
1956-12-01 00:00:00+00      0.0000
1957-01-01 00:00:00+00      0.0000
1957-02-01 00:00:00+00      0.0000
1957-03-01 00:00:00+00      0.0000
1957-04-01 00:00:00+00      0.0000
1957-05-01 00:00:00+00      0.0000
1957-06-01 00:00:00+00      0.0000
1957-07-01 00:00:00+00      0.0000
1957-08-01 00:00:00+00      0.0000
1957-09-01 00:00:00+00      0.0000
1957-10-01 00:00:00+00      0.0000
1957-11-01 00:00:00+00      0.0000
1957-12-01 00:00:00+00      0.0000
1958-01-01 00:00:00+00    224.0609
1958-02-01 00:00:00+00    229.1502
1958-03-01 00:00:00+00    228.8219
1958-04-01 00:00:00+00    228.2309
1958-05-01 00:00:00+00    227.8369
1958-06-01 00:00:00+00    232.3023
1958-07-01 00:00:00+00    224.4550
1958-08-01 00:00:00+00    220.1208
1958-09-01 00:00:00+00    226.8519
1958-10-01 00:00:00+00    228.5264
1958-11-01 00:00:00+00    230.1353
1958-12-01 00:00:00+00    225.9325
1959-01-01 00:00:00+00    225.9653
1959-02-01 00:00:00+00    220.9745
1959-03-01 00:00:00+00    228.9861
1959-04-01 00:00:00+00    232.8277
1959-05-01 00:00:00+00    227.2130
1959-06-01 00:00:00+00    229.6099
1959-07-01 00:00:00+00    218.6433
1959-08-01 00:00:00+00    217.0016
1959-09-01 00:00:00+00    224.2908
1959-10-01 00:00:00+00    229.2159
1959-11-01 00:00:00+00    232.6307
1959-12-01 00:00:00+00    229.2488
1960-01-01 00:00:00+00      0.0000
1960-02-01 00:00:00+00      0.0000
1960-03-01 00:00:00+00      0.0000
1960-04-01 00:00:00+00      0.0000
1960-05-01 00:00:00+00      0.0000
1960-06-01 00:00:00+00      0.0000
1960-07-01 00:00:00+00      0.0000
1960-08-01 00:00:00+00      0.0000
1960-09-01 00:00:00+00      0.0000
1960-10-01 00:00:00+00      0.0000
1960-11-01 00:00:00+00      0.0000
1960-12-01 00:00:00+00      0.0000
1961-01-01 00:00:00+00      0.0000
1961-02-01 00:00:00+00      0.0000
1961-03-01 00:00:00+00    247.6359
1961-04-01 00:00:00+00    245.3047
1961-05-01 00:00:00+00    245.2719
1961-06-01 00:00:00+00    251.4447
1961-07-01 00:00:00+00    235.9141
1961-08-01 00:00:00+00    246.6509
1961-09-01 00:00:00+00    246.5852
1961-10-01 00:00:00+00    253.3163
1961-11-01 00:00:00+00    249.4747
1961-12-01 00:00:00+00    243.9585
1962-01-01 00:00:00+00    243.8600
1962-02-01 00:00:00+00    244.1883
1962-03-01 00:00:00+00    253.2834
1962-04-01 00:00:00+00    253.1521
1962-05-01 00:00:00+00    252.8894
1962-06-01 00:00:00+00    254.5640
1962-07-01 00:00:00+00    256.3042
1962-08-01 00:00:00+00    257.5847
1962-09-01 00:00:00+00    258.8324
1962-10-01 00:00:00+00    260.0144
1962-11-01 00:00:00+00    263.6262
1962-12-01 00:00:00+00    262.9367
1963-01-01 00:00:00+00    260.7696
1963-02-01 00:00:00+00    257.8474
1963-03-01 00:00:00+00    263.9874
1963-04-01 00:00:00+00    261.4592
1963-05-01 00:00:00+00    263.2979
1963-06-01 00:00:00+00    267.6320
1963-07-01 00:00:00+00    254.7938
1963-08-01 00:00:00+00    259.1936
1963-09-01 00:00:00+00    263.5934
1963-10-01 00:00:00+00    256.2057
1963-11-01 00:00:00+00    270.2259
1963-12-01 00:00:00+00    257.6504
1964-01-01 00:00:00+00    263.5934
1964-02-01 00:00:00+00    262.0502
1964-03-01 00:00:00+00    261.7547
1964-04-01 00:00:00+00    261.9845
1964-05-01 00:00:00+00    262.6412
1964-06-01 00:00:00+00    261.2621
1964-07-01 00:00:00+00    258.7339
1964-08-01 00:00:00+00    260.9010
1964-09-01 00:00:00+00    263.0680
1964-10-01 00:00:00+00    263.0680
1964-11-01 00:00:00+00    264.4799
1964-12-01 00:00:00+00    258.4384
1965-01-01 00:00:00+00    268.2230
1965-02-01 00:00:00+00    269.7662
1965-03-01 00:00:00+00    267.7633
1965-04-01 00:00:00+00    269.7991
1965-05-01 00:00:00+00    269.9632
1965-06-01 00:00:00+00    266.7783
1965-07-01 00:00:00+00    265.9574
1965-08-01 00:00:00+00    264.8739
1965-09-01 00:00:00+00    266.9425
1965-10-01 00:00:00+00    268.6499
1965-11-01 00:00:00+00    268.9782
1965-12-01 00:00:00+00    266.2530
1966-01-01 00:00:00+00    260.5726
1966-02-01 00:00:00+00    261.6562
1966-03-01 00:00:00+00    263.6262
1966-04-01 00:00:00+00    261.9517
1966-05-01 00:00:00+00    262.6412
1966-06-01 00:00:00+00    260.3428
1966-07-01 00:00:00+00    257.8146
1966-08-01 00:00:00+00    259.4234
1966-09-01 00:00:00+00    247.8329
1966-10-01 00:00:00+00    252.0029
1966-11-01 00:00:00+00    257.3549
1966-12-01 00:00:00+00    255.1878
1967-01-01 00:00:00+00    251.8387
1967-02-01 00:00:00+00    246.9136
1967-03-01 00:00:00+00    249.3105
1967-04-01 00:00:00+00    251.9044
1967-05-01 00:00:00+00    248.4240
1967-06-01 00:00:00+00    246.8807
1967-07-01 00:00:00+00    247.4061
1967-08-01 00:00:00+00    247.0778
1967-09-01 00:00:00+00    245.4032
1967-10-01 00:00:00+00    247.2748
1967-11-01 00:00:00+00    244.4510
1967-12-01 00:00:00+00    245.7644
1968-01-01 00:00:00+00    247.0449
1968-02-01 00:00:00+00    246.8807
1968-03-01 00:00:00+00    245.5345
1968-04-01 00:00:00+00    246.7494
1968-05-01 00:00:00+00    243.9913
1968-06-01 00:00:00+00    239.6572
1968-07-01 00:00:00+00    241.3318
1968-08-01 00:00:00+00    242.6123
1968-09-01 00:00:00+00    240.9049
1968-10-01 00:00:00+00    238.9020
1968-11-01 00:00:00+00    234.1082
1968-12-01 00:00:00+00    234.6336
1969-01-01 00:00:00+00    240.3467
1969-02-01 00:00:00+00    241.5288
1969-03-01 00:00:00+00    241.1676
1969-04-01 00:00:00+00    239.0990
1969-05-01 00:00:00+00    232.8605
1969-06-01 00:00:00+00    230.0039
1969-07-01 00:00:00+00    233.2874
1969-08-01 00:00:00+00    237.6872
1969-09-01 00:00:00+00    239.2960
1969-10-01 00:00:00+00    240.2154
1969-11-01 00:00:00+00    241.3318
1969-12-01 00:00:00+00    240.5109
1970-01-01 00:00:00+00    238.2453
1970-02-01 00:00:00+00    240.0184
1970-03-01 00:00:00+00    240.3139
1970-04-01 00:00:00+00    239.6572
1970-05-01 00:00:00+00    239.1975
1970-06-01 00:00:00+00    233.2874
1970-07-01 00:00:00+00    232.3352
1970-08-01 00:00:00+00    235.9141
1970-09-01 00:00:00+00    240.1169
1970-10-01 00:00:00+00    241.4959
1970-11-01 00:00:00+00    239.0334
1970-12-01 00:00:00+00    243.5973
1971-01-01 00:00:00+00    243.0391
1971-02-01 00:00:00+00    245.1077
1971-03-01 00:00:00+00    246.5852
1971-04-01 00:00:00+00    247.4061
1971-05-01 00:00:00+00    248.5881
1971-06-01 00:00:00+00    251.3462
1971-07-01 00:00:00+00    252.0029
1971-08-01 00:00:00+00    252.5939
1971-09-01 00:00:00+00    253.4476
1971-10-01 00:00:00+00    255.7132
1971-11-01 00:00:00+00    255.6803
1971-12-01 00:00:00+00    254.2028
1972-01-01 00:00:00+00    254.1371
1972-02-01 00:00:00+00    253.5133
1972-03-01 00:00:00+00    257.7817
1972-04-01 00:00:00+00    259.5219
1972-05-01 00:00:00+00    258.2742
1972-06-01 00:00:00+00    254.2356
1972-07-01 00:00:00+00    257.0594
1972-08-01 00:00:00+00    248.3255
1972-09-01 00:00:00+00    256.5997
1972-10-01 00:00:00+00    258.1101
1972-11-01 00:00:00+00    256.8952
1972-12-01 00:00:00+00    256.3370
1973-01-01 00:00:00+00    255.5818
1973-02-01 00:00:00+00    254.7938
1973-03-01 00:00:00+00    254.2356
1973-04-01 00:00:00+00    251.0507
1973-05-01 00:00:00+00    248.0956
1973-06-01 00:00:00+00    252.3641
1973-07-01 00:00:00+00    253.6446
1973-08-01 00:00:00+00    254.6296
1973-09-01 00:00:00+00    257.3220
1973-10-01 00:00:00+00    256.7639
1973-11-01 00:00:00+00    257.7160
1973-12-01 00:00:00+00    257.5190
1974-01-01 00:00:00+00    257.4205
1974-02-01 00:00:00+00    257.5847
1974-03-01 00:00:00+00    257.2564
1974-04-01 00:00:00+00    256.1072
1974-05-01 00:00:00+00    251.9701
1974-06-01 00:00:00+00    250.4597
1974-07-01 00:00:00+00    247.9971
1974-08-01 00:00:00+00    251.1492
1974-09-01 00:00:00+00    246.8807
1974-10-01 00:00:00+00    249.1463
1974-11-01 00:00:00+00    252.1342
1974-12-01 00:00:00+00    254.0386
1975-01-01 00:00:00+00    254.3341
1975-02-01 00:00:00+00    256.8624
1975-03-01 00:00:00+00    256.2713
1975-04-01 00:00:00+00    258.0772
1975-05-01 00:00:00+00    257.9787
1975-06-01 00:00:00+00    258.0772
1975-07-01 00:00:00+00    257.7160
1975-08-01 00:00:00+00    256.2385
1975-09-01 00:00:00+00    256.3042
1975-10-01 00:00:00+00    257.0922
1975-11-01 00:00:00+00    255.3191
1975-12-01 00:00:00+00    256.7967
1976-01-01 00:00:00+00    256.9609
1976-02-01 00:00:00+00    256.4683
1976-03-01 00:00:00+00    256.5012
1976-04-01 00:00:00+00    256.2385
1976-05-01 00:00:00+00    256.5012
1976-06-01 00:00:00+00    256.5340
1976-07-01 00:00:00+00    257.0265
1976-08-01 00:00:00+00    257.9787
1976-09-01 00:00:00+00    257.7489
1976-10-01 00:00:00+00    257.2235
1976-11-01 00:00:00+00    257.5190
1976-12-01 00:00:00+00    257.7489
1977-01-01 00:00:00+00    256.8295
1977-02-01 00:00:00+00    256.8295
1977-03-01 00:00:00+00    257.0922
1977-04-01 00:00:00+00    257.2564
1977-05-01 00:00:00+00    257.6504
1977-06-01 00:00:00+00    255.5162
1977-07-01 00:00:00+00    253.2834
1977-08-01 00:00:00+00    253.7759
1977-09-01 00:00:00+00    254.4655
1977-10-01 00:00:00+00    256.2057
1977-11-01 00:00:00+00    257.1250
1977-12-01 00:00:00+00    257.3549
1978-01-01 00:00:00+00    251.6089
1978-02-01 00:00:00+00    251.1820
1978-03-01 00:00:00+00    250.4597
1978-04-01 00:00:00+00    248.0956
1978-05-01 00:00:00+00    247.0778
1978-06-01 00:00:00+00    248.1941
1978-07-01 00:00:00+00    249.4747
1978-08-01 00:00:00+00    253.5461
1978-09-01 00:00:00+00    254.5311
1978-10-01 00:00:00+00    250.5910
1978-11-01 00:00:00+00    252.3312
1978-12-01 00:00:00+00    252.4954
1979-01-01 00:00:00+00    249.9672
1979-02-01 00:00:00+00    247.8986
1979-03-01 00:00:00+00    246.6509
1979-04-01 00:00:00+00    242.3825
1979-05-01 00:00:00+00    243.3675
1979-06-01 00:00:00+00    239.4274
1979-07-01 00:00:00+00    239.6244
1979-08-01 00:00:00+00    235.9798
1979-09-01 00:00:00+00    237.6215
1979-10-01 00:00:00+00    241.6273
1979-11-01 00:00:00+00    240.6751
1979-12-01 00:00:00+00    245.1405
1980-01-01 00:00:00+00    243.9913
1980-02-01 00:00:00+00    242.9735
1980-03-01 00:00:00+00    245.0420
1980-04-01 00:00:00+00    241.7914
1980-05-01 00:00:00+00    241.2004
1980-06-01 00:00:00+00    237.8513
1980-07-01 00:00:00+00    237.3260
1980-08-01 00:00:00+00    236.4066
1980-09-01 00:00:00+00    236.0783
1980-10-01 00:00:00+00    235.7171
1980-11-01 00:00:00+00    231.7442
1980-12-01 00:00:00+00    232.4993
1981-01-01 00:00:00+00    238.7379
1981-02-01 00:00:00+00    235.1918
1981-03-01 00:00:00+00    234.6992
1981-04-01 00:00:00+00    231.9083
1981-05-01 00:00:00+00    229.7084
1981-06-01 00:00:00+00    235.1589
1981-07-01 00:00:00+00    237.0633
1981-08-01 00:00:00+00    237.2275
1981-09-01 00:00:00+00    238.8692
1981-10-01 00:00:00+00    232.6963
1981-11-01 00:00:00+00    233.8455
1981-12-01 00:00:00+00    238.2453
1982-01-01 00:00:00+00    240.7407
1982-02-01 00:00:00+00    234.6992
1982-03-01 00:00:00+00    240.1826
1982-04-01 00:00:00+00    240.8721
1982-05-01 00:00:00+00    242.9406
1982-06-01 00:00:00+00    232.6963
1982-07-01 00:00:00+00    223.4371
1982-08-01 00:00:00+00    225.2101
1982-09-01 00:00:00+00    221.6312
1982-10-01 00:00:00+00    226.9504
1982-11-01 00:00:00+00    230.0039
1982-12-01 00:00:00+00    225.1445
1983-01-01 00:00:00+00    229.3144
1983-02-01 00:00:00+00    232.5322
1983-03-01 00:00:00+00    235.7499
1983-04-01 00:00:00+00    236.4395
1983-05-01 00:00:00+00    230.7263
1983-06-01 00:00:00+00    233.5829
1983-07-01 00:00:00+00    237.3588
1983-08-01 00:00:00+00    236.7350
1983-09-01 00:00:00+00    237.6215
1983-10-01 00:00:00+00    239.4274
1983-11-01 00:00:00+00    239.8542
1983-12-01 00:00:00+00    240.6422
1984-01-01 00:00:00+00    244.7794
1984-02-01 00:00:00+00    243.7287
1984-03-01 00:00:00+00    240.8392
1984-04-01 00:00:00+00    239.8214
1984-05-01 00:00:00+00    233.5829
1984-06-01 00:00:00+00    236.9648
1984-07-01 00:00:00+00    238.7707
1984-08-01 00:00:00+00    240.8392
1984-09-01 00:00:00+00    242.3825
1984-10-01 00:00:00+00    242.6780
1984-11-01 00:00:00+00    241.4959
1984-12-01 00:00:00+00    242.6780
1985-01-01 00:00:00+00    244.1883
1985-02-01 00:00:00+00    246.4867
1985-03-01 00:00:00+00    247.7673
1985-04-01 00:00:00+00    250.6895
1985-05-01 00:00:00+00    249.7045
1985-06-01 00:00:00+00    253.3819
1985-07-01 00:00:00+00    253.5461
1985-08-01 00:00:00+00    253.5133
1985-09-01 00:00:00+00    255.7788
1985-10-01 00:00:00+00    254.6625
1985-11-01 00:00:00+00    255.7132
1985-12-01 00:00:00+00    254.7281
1986-01-01 00:00:00+00    255.0893
1986-02-01 00:00:00+00    250.5253
1986-03-01 00:00:00+00    254.6625
1986-04-01 00:00:00+00    257.8802
1986-05-01 00:00:00+00    259.2593
1986-06-01 00:00:00+00    259.0951
1986-07-01 00:00:00+00    260.3428
1986-08-01 00:00:00+00    260.9338
1986-09-01 00:00:00+00    258.0772
1986-10-01 00:00:00+00    258.5697
1986-11-01 00:00:00+00    255.0565
1986-12-01 00:00:00+00    258.2414
1987-01-01 00:00:00+00    262.1487
1987-02-01 00:00:00+00    263.2979
1987-03-01 00:00:00+00    263.3635
1987-04-01 00:00:00+00    263.0680
1987-05-01 00:00:00+00    261.6233
1987-06-01 00:00:00+00    257.6175
1987-07-01 00:00:00+00    258.1429
1987-08-01 00:00:00+00    255.9102
1987-09-01 00:00:00+00    253.5133
1987-10-01 00:00:00+00    253.7431
1987-11-01 00:00:00+00    251.0179
1987-12-01 00:00:00+00    251.4447
1988-01-01 00:00:00+00    247.9314
1988-02-01 00:00:00+00    248.7195
1988-03-01 00:00:00+00    248.8836
1988-04-01 00:00:00+00    248.2926
1988-05-01 00:00:00+00    248.3911
1988-06-01 00:00:00+00    247.4718
1988-07-01 00:00:00+00    245.3047
1988-08-01 00:00:00+00    244.3853
1988-09-01 00:00:00+00    244.8779
1988-10-01 00:00:00+00    241.2004
1988-11-01 00:00:00+00    240.1826
1988-12-01 00:00:00+00    239.3289
1989-01-01 00:00:00+00    236.7350
1989-02-01 00:00:00+00    236.6365
1989-03-01 00:00:00+00    225.8668
1989-04-01 00:00:00+00    228.1652
1989-05-01 00:00:00+00    224.2251
1989-06-01 00:00:00+00    226.2608
1989-07-01 00:00:00+00    231.7770
1989-08-01 00:00:00+00    227.6070
1989-09-01 00:00:00+00    226.8519
1989-10-01 00:00:00+00    219.4313
1989-11-01 00:00:00+00    218.9060
1989-12-01 00:00:00+00    220.6462
1990-01-01 00:00:00+00    224.9146
1990-02-01 00:00:00+00    226.1295
1990-03-01 00:00:00+00    224.1266
1990-04-01 00:00:00+00    218.2164
1990-05-01 00:00:00+00    217.9209
1990-06-01 00:00:00+00    222.1237
1990-07-01 00:00:00+00    226.0967
1990-08-01 00:00:00+00    224.2251
1990-09-01 00:00:00+00    226.0310
1990-10-01 00:00:00+00    230.2994
1990-11-01 00:00:00+00    233.2874
1990-12-01 00:00:00+00    231.9412
1991-01-01 00:00:00+00    236.2753
1991-02-01 00:00:00+00    237.4901
1991-03-01 00:00:00+00    223.7326
1991-04-01 00:00:00+00    225.3743
1991-05-01 00:00:00+00    226.0310
1991-06-01 00:00:00+00    204.7216
1991-07-01 00:00:00+00    206.7245
1991-08-01 00:00:00+00    218.1508
1991-09-01 00:00:00+00    225.8340
1991-10-01 00:00:00+00    226.3922
1991-11-01 00:00:00+00    227.1474
1991-12-01 00:00:00+00    229.7741
1992-01-01 00:00:00+00    231.7113
1992-02-01 00:00:00+00    230.1681
1992-03-01 00:00:00+00    234.3381
1992-04-01 00:00:00+00    238.8035
1992-05-01 00:00:00+00    237.4901
1992-06-01 00:00:00+00    241.6601
1992-07-01 00:00:00+00    245.0092
1992-08-01 00:00:00+00    243.9913
1992-09-01 00:00:00+00    242.5795
1992-10-01 00:00:00+00    245.4360
1992-11-01 00:00:00+00    244.2868
1992-12-01 00:00:00+00    246.9792
1993-01-01 00:00:00+00    245.6987
1993-02-01 00:00:00+00    245.5017
1993-03-01 00:00:00+00    244.3525
1993-04-01 00:00:00+00    246.1584
1993-05-01 00:00:00+00    247.5046
1993-06-01 00:00:00+00    248.6538
1993-07-01 00:00:00+00    248.5881
1993-08-01 00:00:00+00    248.5881
1993-09-01 00:00:00+00    248.8836
1993-10-01 00:00:00+00    249.2776
1993-11-01 00:00:00+00    249.5075
1993-12-01 00:00:00+00    249.8030
1994-01-01 00:00:00+00    250.0328
1994-02-01 00:00:00+00    248.5225
1994-03-01 00:00:00+00    248.5225
1994-04-01 00:00:00+00    246.8151
1994-05-01 00:00:00+00    248.0299
1994-06-01 00:00:00+00    248.6210
1994-07-01 00:00:00+00    249.9015
1994-08-01 00:00:00+00    251.5104
1994-09-01 00:00:00+00    251.2477
1994-10-01 00:00:00+00    251.4119
1994-11-01 00:00:00+00    251.2477
1994-12-01 00:00:00+00    250.7552
1995-01-01 00:00:00+00    252.1342
1995-02-01 00:00:00+00    252.8894
1995-03-01 00:00:00+00    251.9044
1995-04-01 00:00:00+00    252.7252
1995-05-01 00:00:00+00    253.3163
1995-06-01 00:00:00+00    253.0208
1995-07-01 00:00:00+00    251.9372
1995-08-01 00:00:00+00    252.7581
1995-09-01 00:00:00+00    253.5133
1995-10-01 00:00:00+00    254.3013
1995-11-01 00:00:00+00    253.7759
1995-12-01 00:00:00+00    254.0058
1996-01-01 00:00:00+00    255.0565
1996-02-01 00:00:00+00    255.1221
1996-03-01 00:00:00+00    255.4833
1996-04-01 00:00:00+00    255.1221
1996-05-01 00:00:00+00    254.4983
1996-06-01 00:00:00+00    254.1043
1996-07-01 00:00:00+00    254.7610
1996-08-01 00:00:00+00    253.9729
1996-09-01 00:00:00+00    254.1043
1996-10-01 00:00:00+00    253.7431
1996-11-01 00:00:00+00    253.9401
1996-12-01 00:00:00+00    253.5789
1997-01-01 00:00:00+00    255.3848
1997-02-01 00:00:00+00    255.8773
1997-03-01 00:00:00+00    255.6475
1997-04-01 00:00:00+00    255.6803
1997-05-01 00:00:00+00    257.1579
1997-06-01 00:00:00+00    256.5012
1997-07-01 00:00:00+00    255.4177
1997-08-01 00:00:00+00    256.4683
1997-09-01 00:00:00+00    254.8595
1997-10-01 00:00:00+00    253.9729
1997-11-01 00:00:00+00    254.1700
1997-12-01 00:00:00+00    254.0714
1998-01-01 00:00:00+00    253.5133
1998-02-01 00:00:00+00    253.6446
1998-03-01 00:00:00+00    254.6296
1998-04-01 00:00:00+00    248.9165
1998-05-01 00:00:00+00    247.8329
1998-06-01 00:00:00+00    247.5703
1998-07-01 00:00:00+00    247.4718
1998-08-01 00:00:00+00    247.4718
1998-09-01 00:00:00+00    249.4418
1998-10-01 00:00:00+00    251.6089
1998-11-01 00:00:00+00    249.7702
1998-12-01 00:00:00+00    248.0956
1999-01-01 00:00:00+00    244.5823
1999-02-01 00:00:00+00    244.3525
1999-03-01 00:00:00+00    245.0420
1999-04-01 00:00:00+00    245.8629
1999-05-01 00:00:00+00    245.5345
1999-06-01 00:00:00+00    247.8329
1999-07-01 00:00:00+00    248.9165
1999-08-01 00:00:00+00    242.3825
1999-09-01 00:00:00+00    241.4631
1999-10-01 00:00:00+00    240.6094
1999-11-01 00:00:00+00    238.6722
1999-12-01 00:00:00+00    237.5887
2000-01-01 00:00:00+00    239.1647
2000-02-01 00:00:00+00    237.2275
2000-03-01 00:00:00+00    234.4037
2000-04-01 00:00:00+00    235.8813
2000-05-01 00:00:00+00    230.5950
2000-06-01 00:00:00+00    224.6191
2000-07-01 00:00:00+00    223.6669
2000-08-01 00:00:00+00    228.1652
2000-09-01 00:00:00+00    230.7263
2000-10-01 00:00:00+00    234.7977
2000-11-01 00:00:00+00    229.3473
2000-12-01 00:00:00+00    231.3830
2001-01-01 00:00:00+00    234.7649
2001-02-01 00:00:00+00    238.7379
2001-03-01 00:00:00+00    240.7407
2001-04-01 00:00:00+00    229.4458
2001-05-01 00:00:00+00    233.9441
2001-06-01 00:00:00+00    236.4395
2001-07-01 00:00:00+00    236.3738
2001-08-01 00:00:00+00    232.8605
2001-09-01 00:00:00+00    231.7770
2001-10-01 00:00:00+00    231.1531
2001-11-01 00:00:00+00    234.5351
2001-12-01 00:00:00+00    235.4873
2002-01-01 00:00:00+00    228.8547
2002-02-01 00:00:00+00    234.9619
2002-03-01 00:00:00+00    232.4665
2002-04-01 00:00:00+00    232.4993
2002-05-01 00:00:00+00    232.1710
2002-06-01 00:00:00+00    233.0247
2002-07-01 00:00:00+00    230.4965
2002-08-01 00:00:00+00    226.8847
2002-09-01 00:00:00+00    229.8726
2002-10-01 00:00:00+00    231.7113
2002-11-01 00:00:00+00    227.6399
2002-12-01 00:00:00+00    234.8634
2003-01-01 00:00:00+00    235.3231
2003-02-01 00:00:00+00    236.0454
2003-03-01 00:00:00+00    236.6365
2003-04-01 00:00:00+00    236.1439
2003-05-01 00:00:00+00    235.7499
2003-06-01 00:00:00+00    231.2516
2003-07-01 00:00:00+00    235.9798
2003-08-01 00:00:00+00    238.1468
2003-09-01 00:00:00+00    240.6094
2003-10-01 00:00:00+00    236.5380
2003-11-01 00:00:00+00    224.1923
2003-12-01 00:00:00+00    236.9320
2004-01-01 00:00:00+00    239.4274
2004-02-01 00:00:00+00    241.4303
2004-03-01 00:00:00+00    245.6002
2004-04-01 00:00:00+00    246.3226
2004-05-01 00:00:00+00    243.7943
2004-06-01 00:00:00+00    241.8571
2004-07-01 00:00:00+00    244.0898
2004-08-01 00:00:00+00    245.6002
2004-09-01 00:00:00+00    250.2298
2004-10-01 00:00:00+00    246.2241
2004-11-01 00:00:00+00    247.1434
2004-12-01 00:00:00+00    237.3588
2005-01-01 00:00:00+00    245.2062
2005-02-01 00:00:00+00    245.9286
2005-03-01 00:00:00+00    248.3583
2005-04-01 00:00:00+00    242.9735
2005-05-01 00:00:00+00    246.8151
2005-06-01 00:00:00+00    244.6809
2005-07-01 00:00:00+00    242.9735
2005-08-01 00:00:00+00    237.9498
2005-09-01 00:00:00+00    247.8986
2005-10-01 00:00:00+00    249.6060
2005-11-01 00:00:00+00    248.0628
2005-12-01 00:00:00+00    245.4360
2006-01-01 00:00:00+00    252.7909
2006-02-01 00:00:00+00    255.3520
2006-03-01 00:00:00+00    259.4234
2006-04-01 00:00:00+00    259.7189
2006-05-01 00:00:00+00    260.1129
2006-06-01 00:00:00+00    260.1786
2006-07-01 00:00:00+00    258.8652
2006-08-01 00:00:00+00    259.0951
2006-09-01 00:00:00+00    259.4234
2006-10-01 00:00:00+00    261.1965
2006-11-01 00:00:00+00    258.6354
2006-12-01 00:00:00+00    255.7132
2007-01-01 00:00:00+00    259.4891
2007-02-01 00:00:00+00    260.4085
2007-03-01 00:00:00+00    262.3785
2007-04-01 00:00:00+00    264.1516
2007-05-01 00:00:00+00    265.2023
2007-06-01 00:00:00+00    264.6769
2007-07-01 00:00:00+00    264.0859
2007-08-01 00:00:00+00    263.6919
2007-09-01 00:00:00+00    265.4978
2007-10-01 00:00:00+00    266.0231
2007-11-01 00:00:00+00    265.3008
2007-12-01 00:00:00+00    265.0709
2008-01-01 00:00:00+00    263.7576
2008-02-01 00:00:00+00    263.0352
2008-03-01 00:00:00+00    264.6441
2008-04-01 00:00:00+00    265.8261
2008-05-01 00:00:00+00    264.8411
2008-06-01 00:00:00+00    264.4799
2008-07-01 00:00:00+00    265.3336
2008-08-01 00:00:00+00    266.3186
2008-09-01 00:00:00+00    266.7783
2008-10-01 00:00:00+00    266.8440
2008-11-01 00:00:00+00    266.9096
2008-12-01 00:00:00+00    266.2858
2009-01-01 00:00:00+00    265.9246
2009-02-01 00:00:00+00    267.3693
2009-03-01 00:00:00+00    268.8469
2009-04-01 00:00:00+00    270.2259
2009-05-01 00:00:00+00    270.4557
2009-06-01 00:00:00+00    270.0617
2009-07-01 00:00:00+00    270.3901
2009-08-01 00:00:00+00    269.6020
2009-09-01 00:00:00+00    269.5364
2009-10-01 00:00:00+00    270.7512
2009-11-01 00:00:00+00    269.4050
2009-12-01 00:00:00+00    269.2737
2010-01-01 00:00:00+00    266.9753
2010-02-01 00:00:00+00    264.6769
2010-03-01 00:00:00+00    263.7576
2010-04-01 00:00:00+00    262.4770
2010-05-01 00:00:00+00    263.8232
2010-06-01 00:00:00+00    262.4442
2010-07-01 00:00:00+00    262.6740
2010-08-01 00:00:00+00    261.5248
2010-09-01 00:00:00+00    261.3935
2010-10-01 00:00:00+00    262.4442
2010-11-01 00:00:00+00    261.5577
2010-12-01 00:00:00+00    259.3578
2011-01-01 00:00:00+00    260.1458
2011-02-01 00:00:00+00    260.8681
2011-03-01 00:00:00+00    257.7160
2011-04-01 00:00:00+00    254.4655
2011-05-01 00:00:00+00    257.9131
2011-06-01 00:00:00+00    252.7252
2011-07-01 00:00:00+00    254.4983
2011-08-01 00:00:00+00    254.3670
2011-09-01 00:00:00+00    254.1043
2011-10-01 00:00:00+00    252.9879
2011-11-01 00:00:00+00    255.1878
2011-12-01 00:00:00+00    255.8773
2012-01-01 00:00:00+00    250.1313
2012-02-01 00:00:00+00    247.3733
2012-03-01 00:00:00+00    242.5138
2012-04-01 00:00:00+00    251.3134
2012-05-01 00:00:00+00    252.5282
2012-06-01 00:00:00+00    248.9493
2012-07-01 00:00:00+00      0.0000
2012-08-01 00:00:00+00      0.0000
2012-09-01 00:00:00+00      0.0000
2012-10-01 00:00:00+00      0.0000
2012-11-01 00:00:00+00      0.0000
2012-12-01 00:00:00+00      0.0000
2013-01-01 00:00:00+00    249.2448
2013-02-01 00:00:00+00    249.5732
2013-03-01 00:00:00+00    246.5852
2013-04-01 00:00:00+00    247.7673
2013-05-01 00:00:00+00    242.0869
2013-06-01 00:00:00+00    241.8571
2013-07-01 00:00:00+00    243.7615
2013-08-01 00:00:00+00    244.5823
2013-09-01 00:00:00+00    245.6002
2013-10-01 00:00:00+00    248.4240
2013-11-01 00:00:00+00    246.9136
2013-12-01 00:00:00+00    243.2033
2014-01-01 00:00:00+00    235.0604
2014-02-01 00:00:00+00    232.3352
2014-03-01 00:00:00+00    234.8634
2014-04-01 00:00:00+00    236.9648
2014-05-01 00:00:00+00    239.5259
2014-06-01 00:00:00+00    235.7499
2014-07-01 00:00:00+00    238.1140
2014-08-01 00:00:00+00    240.0184
2014-09-01 00:00:00+00    237.8842
2014-10-01 00:00:00+00    240.0184
2014-11-01 00:00:00+00    241.0362
2014-12-01 00:00:00+00    235.4216
2015-01-01 00:00:00+00    237.6872
2015-02-01 00:00:00+00    238.1797
2015-03-01 00:00:00+00    235.7171
2015-04-01 00:00:00+00    238.4095
2015-05-01 00:00:00+00    242.8750
2015-06-01 00:00:00+00    242.0213
2015-07-01 00:00:00+00    245.0420
2015-08-01 00:00:00+00    245.2390
2015-09-01 00:00:00+00    245.3047
2015-10-01 00:00:00+00    245.6002
2015-11-01 00:00:00+00    244.0242
2015-12-01 00:00:00+00    244.9435
2016-01-01 00:00:00+00    246.8151
2016-02-01 00:00:00+00    249.9343
2016-03-01 00:00:00+00    250.6895
2016-04-01 00:00:00+00    252.3969
2016-05-01 00:00:00+00    253.7103
2016-06-01 00:00:00+00    253.7103
2016-07-01 00:00:00+00    252.7252
2016-08-01 00:00:00+00    253.8088
2016-09-01 00:00:00+00    254.3998
2016-10-01 00:00:00+00    256.7310
2016-11-01 00:00:00+00    256.7310
2016-12-01 00:00:00+00    257.2892
2017-01-01 00:00:00+00    258.1101
2017-02-01 00:00:00+00    258.7011
2017-03-01 00:00:00+00    259.5876
2017-04-01 00:00:00+00      0.0000
2017-05-01 00:00:00+00      0.0000
2017-06-01 00:00:00+00      0.0000
2017-07-01 00:00:00+00      0.0000
2017-08-01 00:00:00+00      0.0000
2017-09-01 00:00:00+00      0.0000
2017-10-01 00:00:00+00      0.0000
2017-11-01 00:00:00+00      0.0000
2017-12-01 00:00:00+00      0.0000
