1950-01-01 00:00:00+00      0.0000
1950-02-01 00:00:00+00      0.0000
1950-03-01 00:00:00+00      0.0000
1950-04-01 00:00:00+00      0.0000
1950-05-01 00:00:00+00      0.0000
1950-06-01 00:00:00+00      0.0000
1950-07-01 00:00:00+00      0.0000
1950-08-01 00:00:00+00      0.0000
1950-09-01 00:00:00+00      0.0000
1950-10-01 00:00:00+00      0.0000
1950-11-01 00:00:00+00      0.0000
1950-12-01 00:00:00+00      0.0000
1951-01-01 00:00:00+00      0.0000
1951-02-01 00:00:00+00      0.0000
1951-03-01 00:00:00+00      0.0000
1951-04-01 00:00:00+00      0.0000
1951-05-01 00:00:00+00      0.0000
1951-06-01 00:00:00+00      0.0000
1951-07-01 00:00:00+00      0.0000
1951-08-01 00:00:00+00      0.0000
1951-09-01 00:00:00+00      0.0000
1951-10-01 00:00:00+00      0.0000
1951-11-01 00:00:00+00      0.0000
1951-12-01 00:00:00+00      0.0000
1952-01-01 00:00:00+00      0.0000
1952-02-01 00:00:00+00      0.0000
1952-03-01 00:00:00+00      0.0000
1952-04-01 00:00:00+00      0.0000
1952-05-01 00:00:00+00      0.0000
1952-06-01 00:00:00+00      0.0000
1952-07-01 00:00:00+00      0.0000
1952-08-01 00:00:00+00      0.0000
1952-09-01 00:00:00+00      0.0000
1952-10-01 00:00:00+00      0.0000
1952-11-01 00:00:00+00      0.0000
1952-12-01 00:00:00+00      0.0000
1953-01-01 00:00:00+00      0.0000
1953-02-01 00:00:00+00      0.0000
1953-03-01 00:00:00+00      0.0000
1953-04-01 00:00:00+00      0.0000
1953-05-01 00:00:00+00      0.0000
1953-06-01 00:00:00+00      0.0000
1953-07-01 00:00:00+00      0.0000
1953-08-01 00:00:00+00      0.0000
1953-09-01 00:00:00+00      0.0000
1953-10-01 00:00:00+00      0.0000
1953-11-01 00:00:00+00      0.0000
1953-12-01 00:00:00+00      0.0000
1954-01-01 00:00:00+00      0.0000
1954-02-01 00:00:00+00      0.0000
1954-03-01 00:00:00+00      0.0000
1954-04-01 00:00:00+00      0.0000
1954-05-01 00:00:00+00      0.0000
1954-06-01 00:00:00+00      0.0000
1954-07-01 00:00:00+00      0.0000
1954-08-01 00:00:00+00      0.0000
1954-09-01 00:00:00+00      0.0000
1954-10-01 00:00:00+00      0.0000
1954-11-01 00:00:00+00      0.0000
1954-12-01 00:00:00+00      0.0000
1955-01-01 00:00:00+00      0.0000
1955-02-01 00:00:00+00      0.0000
1955-03-01 00:00:00+00      0.0000
1955-04-01 00:00:00+00      0.0000
1955-05-01 00:00:00+00      0.0000
1955-06-01 00:00:00+00      0.0000
1955-07-01 00:00:00+00      0.0000
1955-08-01 00:00:00+00      0.0000
1955-09-01 00:00:00+00      0.0000
1955-10-01 00:00:00+00      0.0000
1955-11-01 00:00:00+00      0.0000
1955-12-01 00:00:00+00      0.0000
1956-01-01 00:00:00+00      0.0000
1956-02-01 00:00:00+00      0.0000
1956-03-01 00:00:00+00      0.0000
1956-04-01 00:00:00+00      0.0000
1956-05-01 00:00:00+00      0.0000
1956-06-01 00:00:00+00      0.0000
1956-07-01 00:00:00+00      0.0000
1956-08-01 00:00:00+00      0.0000
1956-09-01 00:00:00+00      0.0000
1956-10-01 00:00:00+00      0.0000
1956-11-01 00:00:00+00      0.0000
1956-12-01 00:00:00+00      0.0000
1957-01-01 00:00:00+00      0.0000
1957-02-01 00:00:00+00      0.0000
1957-03-01 00:00:00+00      0.0000
1957-04-01 00:00:00+00      0.0000
1957-05-01 00:00:00+00      0.0000
1957-06-01 00:00:00+00      0.0000
1957-07-01 00:00:00+00    102.2702
1957-08-01 00:00:00+00    102.2464
1957-09-01 00:00:00+00    100.1029
1957-10-01 00:00:00+00    100.8889
1957-11-01 00:00:00+00    100.7936
1957-12-01 00:00:00+00     99.5789
1958-01-01 00:00:00+00     99.5789
1958-02-01 00:00:00+00    100.6269
1958-03-01 00:00:00+00     99.6504
1958-04-01 00:00:00+00    100.2220
1958-05-01 00:00:00+00    101.8415
1958-06-01 00:00:00+00    102.3655
1958-07-01 00:00:00+00    100.4840
1958-08-01 00:00:00+00    101.1032
1958-09-01 00:00:00+00    101.6034
1958-10-01 00:00:00+00    101.6986
1958-11-01 00:00:00+00    102.3179
1958-12-01 00:00:00+00    102.2226
1959-01-01 00:00:00+00    103.4135
1959-02-01 00:00:00+00    102.1988
1959-03-01 00:00:00+00    103.8422
1959-04-01 00:00:00+00    104.6281
1959-05-01 00:00:00+00    102.2226
1959-06-01 00:00:00+00    103.3658
1959-07-01 00:00:00+00     98.6262
1959-08-01 00:00:00+00     99.6742
1959-09-01 00:00:00+00    100.4125
1959-10-01 00:00:00+00    102.5084
1959-11-01 00:00:00+00    102.8895
1959-12-01 00:00:00+00    102.2464
1960-01-01 00:00:00+00    101.3890
1960-02-01 00:00:00+00    102.7704
1960-03-01 00:00:00+00    104.4376
1960-04-01 00:00:00+00    102.4131
1960-05-01 00:00:00+00    101.2699
1960-06-01 00:00:00+00    102.3893
1960-07-01 00:00:00+00    102.4608
1960-08-01 00:00:00+00    103.8898
1960-09-01 00:00:00+00    104.1518
1960-10-01 00:00:00+00    104.2947
1960-11-01 00:00:00+00    102.6513
1960-12-01 00:00:00+00    104.8187
1961-01-01 00:00:00+00    106.2239
1961-02-01 00:00:00+00    106.6764
1961-03-01 00:00:00+00    105.0092
1961-04-01 00:00:00+00    106.3429
1961-05-01 00:00:00+00    106.9384
1961-06-01 00:00:00+00    106.4858
1961-07-01 00:00:00+00    104.0089
1961-08-01 00:00:00+00    106.2239
1961-09-01 00:00:00+00    107.3194
1961-10-01 00:00:00+00    107.7243
1961-11-01 00:00:00+00    108.8914
1961-12-01 00:00:00+00    108.7008
1962-01-01 00:00:00+00    108.9152
1962-02-01 00:00:00+00    108.0340
1962-03-01 00:00:00+00    108.1769
1962-04-01 00:00:00+00    107.3909
1962-05-01 00:00:00+00    107.9387
1962-06-01 00:00:00+00    107.8434
1962-07-01 00:00:00+00    107.7720
1962-08-01 00:00:00+00    107.8434
1962-09-01 00:00:00+00    107.4862
1962-10-01 00:00:00+00    107.7005
1962-11-01 00:00:00+00    108.4627
1962-12-01 00:00:00+00    108.5579
1963-01-01 00:00:00+00    109.8679
1963-02-01 00:00:00+00    110.7729
1963-03-01 00:00:00+00    110.6062
1963-04-01 00:00:00+00    110.6300
1963-05-01 00:00:00+00    109.8917
1963-06-01 00:00:00+00    110.4157
1963-07-01 00:00:00+00    110.2489
1963-08-01 00:00:00+00    109.9631
1963-09-01 00:00:00+00    109.2486
1963-10-01 00:00:00+00    109.9393
1963-11-01 00:00:00+00    110.3204
1963-12-01 00:00:00+00    111.0111
1964-01-01 00:00:00+00    111.6065
1964-02-01 00:00:00+00    111.2492
1964-03-01 00:00:00+00    111.4160
1964-04-01 00:00:00+00    111.5351
1964-05-01 00:00:00+00    111.4160
1964-06-01 00:00:00+00    111.3922
1964-07-01 00:00:00+00    111.6541
1964-08-01 00:00:00+00    111.8685
1964-09-01 00:00:00+00    112.1305
1964-10-01 00:00:00+00    112.4877
1964-11-01 00:00:00+00    112.2972
1964-12-01 00:00:00+00    113.3690
1965-01-01 00:00:00+00    113.3451
1965-02-01 00:00:00+00    113.5119
1965-03-01 00:00:00+00    113.8453
1965-04-01 00:00:00+00    114.2978
1965-05-01 00:00:00+00    113.9882
1965-06-01 00:00:00+00    112.8926
1965-07-01 00:00:00+00    112.3448
1965-08-01 00:00:00+00    112.4639
1965-09-01 00:00:00+00    112.5592
1965-10-01 00:00:00+00    112.8926
1965-11-01 00:00:00+00    113.4642
1965-12-01 00:00:00+00    113.8453
1966-01-01 00:00:00+00    113.6071
1966-02-01 00:00:00+00    113.5833
1966-03-01 00:00:00+00    112.9641
1966-04-01 00:00:00+00    112.4163
1966-05-01 00:00:00+00    112.9879
1966-06-01 00:00:00+00    111.9161
1966-07-01 00:00:00+00    111.4636
1966-08-01 00:00:00+00    111.2492
1966-09-01 00:00:00+00    108.6056
1966-10-01 00:00:00+00    110.2728
1966-11-01 00:00:00+00    111.2492
1966-12-01 00:00:00+00    110.7015
1967-01-01 00:00:00+00    110.1775
1967-02-01 00:00:00+00    110.2251
1967-03-01 00:00:00+00    111.0349
1967-04-01 00:00:00+00    111.0825
1967-05-01 00:00:00+00    110.0346
1967-06-01 00:00:00+00    109.6535
1967-07-01 00:00:00+00    110.0108
1967-08-01 00:00:00+00    109.0581
1967-09-01 00:00:00+00    109.1772
1967-10-01 00:00:00+00    109.3677
1967-11-01 00:00:00+00    108.8199
1967-12-01 00:00:00+00    108.9628
1968-01-01 00:00:00+00    109.5582
1968-02-01 00:00:00+00    108.8675
1968-03-01 00:00:00+00    108.7961
1968-04-01 00:00:00+00    109.0819
1968-05-01 00:00:00+00    108.5103
1968-06-01 00:00:00+00    107.4623
1968-07-01 00:00:00+00    107.5814
1968-08-01 00:00:00+00    107.7958
1968-09-01 00:00:00+00    107.3433
1968-10-01 00:00:00+00    106.6526
1968-11-01 00:00:00+00    105.1283
1968-12-01 00:00:00+00    106.0810
1969-01-01 00:00:00+00    107.7243
1969-02-01 00:00:00+00    108.1054
1969-03-01 00:00:00+00    107.5338
1969-04-01 00:00:00+00    107.1051
1969-05-01 00:00:00+00    104.6758
1969-06-01 00:00:00+00    104.0089
1969-07-01 00:00:00+00    105.2474
1969-08-01 00:00:00+00    106.6526
1969-09-01 00:00:00+00    107.2480
1969-10-01 00:00:00+00    107.7720
1969-11-01 00:00:00+00    107.7481
1969-12-01 00:00:00+00    108.1530
1970-01-01 00:00:00+00    107.8672
1970-02-01 00:00:00+00    108.6532
1970-03-01 00:00:00+00    108.4865
1970-04-01 00:00:00+00    107.4385
1970-05-01 00:00:00+00    107.2718
1970-06-01 00:00:00+00    105.3426
1970-07-01 00:00:00+00    105.7475
1970-08-01 00:00:00+00    106.7478
1970-09-01 00:00:00+00    107.6767
1970-10-01 00:00:00+00    107.8672
1970-11-01 00:00:00+00    106.8193
1970-12-01 00:00:00+00    109.1057
1971-01-01 00:00:00+00    108.8437
1971-02-01 00:00:00+00    110.2966
1971-03-01 00:00:00+00    110.2013
1971-04-01 00:00:00+00    110.0584
1971-05-01 00:00:00+00    110.4157
1971-06-01 00:00:00+00    111.4160
1971-07-01 00:00:00+00    111.2731
1971-08-01 00:00:00+00    111.3445
1971-09-01 00:00:00+00    111.2969
1971-10-01 00:00:00+00    111.9161
1971-11-01 00:00:00+00    111.7256
1971-12-01 00:00:00+00    111.6780
1972-01-01 00:00:00+00    111.5589
1972-02-01 00:00:00+00    111.3922
1972-03-01 00:00:00+00    112.1543
1972-04-01 00:00:00+00    112.4401
1972-05-01 00:00:00+00    111.7732
1972-06-01 00:00:00+00    110.5586
1972-07-01 00:00:00+00    111.7018
1972-08-01 00:00:00+00    108.9152
1972-09-01 00:00:00+00    111.5351
1972-10-01 00:00:00+00    111.9876
1972-11-01 00:00:00+00    111.5351
1972-12-01 00:00:00+00    111.7256
1973-01-01 00:00:00+00    111.8923
1973-02-01 00:00:00+00    111.7256
1973-03-01 00:00:00+00    111.3445
1973-04-01 00:00:00+00    110.1299
1973-05-01 00:00:00+00    108.8914
1973-06-01 00:00:00+00    110.2728
1973-07-01 00:00:00+00    110.7253
1973-08-01 00:00:00+00    111.3922
1973-09-01 00:00:00+00    112.0828
1973-10-01 00:00:00+00    112.2257
1973-11-01 00:00:00+00    112.4639
1973-12-01 00:00:00+00    112.7259
1974-01-01 00:00:00+00    112.6545
1974-02-01 00:00:00+00    113.1070
1974-03-01 00:00:00+00    112.4877
1974-04-01 00:00:00+00    111.8447
1974-05-01 00:00:00+00    110.2013
1974-06-01 00:00:00+00    109.3677
1974-07-01 00:00:00+00    108.5817
1974-08-01 00:00:00+00    109.7964
1974-09-01 00:00:00+00    108.9866
1974-10-01 00:00:00+00    109.5821
1974-11-01 00:00:00+00    110.0346
1974-12-01 00:00:00+00    111.4398
1975-01-01 00:00:00+00    111.4160
1975-02-01 00:00:00+00    112.0590
1975-03-01 00:00:00+00    112.2496
1975-04-01 00:00:00+00    112.6068
1975-05-01 00:00:00+00    112.5354
1975-06-01 00:00:00+00    112.7974
1975-07-01 00:00:00+00    112.4877
1975-08-01 00:00:00+00    111.9876
1975-09-01 00:00:00+00    111.8923
1975-10-01 00:00:00+00    112.1781
1975-11-01 00:00:00+00    111.7494
1975-12-01 00:00:00+00    112.1305
1976-01-01 00:00:00+00    112.4401
1976-02-01 00:00:00+00    112.6306
1976-03-01 00:00:00+00    112.6545
1976-04-01 00:00:00+00    112.1305
1976-05-01 00:00:00+00    112.2734
1976-06-01 00:00:00+00    112.1543
1976-07-01 00:00:00+00    112.2257
1976-08-01 00:00:00+00    112.3210
1976-09-01 00:00:00+00    112.3925
1976-10-01 00:00:00+00    112.4401
1976-11-01 00:00:00+00    112.5354
1976-12-01 00:00:00+00    112.5354
1977-01-01 00:00:00+00    112.4877
1977-02-01 00:00:00+00    112.5830
1977-03-01 00:00:00+00    112.5116
1977-04-01 00:00:00+00    112.6783
1977-05-01 00:00:00+00    112.3448
1977-06-01 00:00:00+00    111.5589
1977-07-01 00:00:00+00    110.7491
1977-08-01 00:00:00+00    110.9873
1977-09-01 00:00:00+00    111.1540
1977-10-01 00:00:00+00    111.8923
1977-11-01 00:00:00+00    112.4401
1977-12-01 00:00:00+00    112.5354
1978-01-01 00:00:00+00    111.7018
1978-02-01 00:00:00+00    111.3683
1978-03-01 00:00:00+00    111.2969
1978-04-01 00:00:00+00    109.6773
1978-05-01 00:00:00+00    108.2721
1978-06-01 00:00:00+00    109.0343
1978-07-01 00:00:00+00    109.4630
1978-08-01 00:00:00+00    111.1302
1978-09-01 00:00:00+00    111.1540
1978-10-01 00:00:00+00    109.9631
1978-11-01 00:00:00+00    111.0349
1978-12-01 00:00:00+00    110.5109
1979-01-01 00:00:00+00    109.8202
1979-02-01 00:00:00+00    109.4630
1979-03-01 00:00:00+00    108.7246
1979-04-01 00:00:00+00    107.0098
1979-05-01 00:00:00+00    107.5576
1979-06-01 00:00:00+00    105.9142
1979-07-01 00:00:00+00    106.2239
1979-08-01 00:00:00+00    104.8425
1979-09-01 00:00:00+00    105.7952
1979-10-01 00:00:00+00    107.0813
1979-11-01 00:00:00+00    107.3671
1979-12-01 00:00:00+00    108.7961
1980-01-01 00:00:00+00    108.5341
1980-02-01 00:00:00+00    108.1292
1980-03-01 00:00:00+00    109.0343
1980-04-01 00:00:00+00    107.6529
1980-05-01 00:00:00+00    107.4862
1980-06-01 00:00:00+00    105.7475
1980-07-01 00:00:00+00    106.0571
1980-08-01 00:00:00+00    106.5335
1980-09-01 00:00:00+00    106.3191
1980-10-01 00:00:00+00    105.1045
1980-11-01 00:00:00+00    103.8422
1980-12-01 00:00:00+00    104.6281
1981-01-01 00:00:00+00    106.9622
1981-02-01 00:00:00+00    105.3903
1981-03-01 00:00:00+00    104.7710
1981-04-01 00:00:00+00    103.9374
1981-05-01 00:00:00+00    102.7704
1981-06-01 00:00:00+00    104.6281
1981-07-01 00:00:00+00    105.2474
1981-08-01 00:00:00+00    105.4379
1981-09-01 00:00:00+00    106.0333
1981-10-01 00:00:00+00    103.3896
1981-11-01 00:00:00+00    104.2947
1981-12-01 00:00:00+00    106.2239
1982-01-01 00:00:00+00    107.2004
1982-02-01 00:00:00+00    104.9139
1982-03-01 00:00:00+00    106.8907
1982-04-01 00:00:00+00    107.0575
1982-05-01 00:00:00+00    107.2718
1982-06-01 00:00:00+00    103.3182
1982-07-01 00:00:00+00    100.2696
1982-08-01 00:00:00+00    100.6507
1982-09-01 00:00:00+00     98.9835
1982-10-01 00:00:00+00    101.4366
1982-11-01 00:00:00+00    102.6275
1982-12-01 00:00:00+00    101.4366
1983-01-01 00:00:00+00    104.1041
1983-02-01 00:00:00+00    105.6284
1983-03-01 00:00:00+00    106.8431
1983-04-01 00:00:00+00    106.5811
1983-05-01 00:00:00+00    104.1518
1983-06-01 00:00:00+00    105.5332
1983-07-01 00:00:00+00    106.8193
1983-08-01 00:00:00+00    106.4382
1983-09-01 00:00:00+00    106.9146
1983-10-01 00:00:00+00    107.2242
1983-11-01 00:00:00+00    107.8196
1983-12-01 00:00:00+00    107.9149
1984-01-01 00:00:00+00    108.4388
1984-02-01 00:00:00+00    108.2245
1984-03-01 00:00:00+00    107.2956
1984-04-01 00:00:00+00    106.4858
1984-05-01 00:00:00+00    104.2947
1984-06-01 00:00:00+00    105.4141
1984-07-01 00:00:00+00    106.0810
1984-08-01 00:00:00+00    107.0098
1984-09-01 00:00:00+00    107.3194
1984-10-01 00:00:00+00    107.5100
1984-11-01 00:00:00+00    107.2004
1984-12-01 00:00:00+00    107.8196
1985-01-01 00:00:00+00    108.2959
1985-02-01 00:00:00+00    109.2010
1985-03-01 00:00:00+00    109.7488
1985-04-01 00:00:00+00    110.3204
1985-05-01 00:00:00+00    110.2966
1985-06-01 00:00:00+00    111.0825
1985-07-01 00:00:00+00    110.6538
1985-08-01 00:00:00+00    110.8444
1985-09-01 00:00:00+00    111.4874
1985-10-01 00:00:00+00    111.6780
1985-11-01 00:00:00+00    112.1305
1985-12-01 00:00:00+00    111.7970
1986-01-01 00:00:00+00    112.0114
1986-02-01 00:00:00+00    110.8920
1986-03-01 00:00:00+00    111.9876
1986-04-01 00:00:00+00    113.2737
1986-05-01 00:00:00+00    113.2975
1986-06-01 00:00:00+00    113.2737
1986-07-01 00:00:00+00    113.0593
1986-08-01 00:00:00+00    113.1784
1986-09-01 00:00:00+00    113.3690
1986-10-01 00:00:00+00    113.9882
1986-11-01 00:00:00+00    112.9403
1986-12-01 00:00:00+00    113.8691
1987-01-01 00:00:00+00    114.9647
1987-02-01 00:00:00+00    115.5839
1987-03-01 00:00:00+00    115.7507
1987-04-01 00:00:00+00    115.0600
1987-05-01 00:00:00+00    114.6789
1987-06-01 00:00:00+00    113.1070
1987-07-01 00:00:00+00    113.2261
1987-08-01 00:00:00+00    112.7497
1987-09-01 00:00:00+00    111.2969
1987-10-01 00:00:00+00    111.6303
1987-11-01 00:00:00+00    111.0349
1987-12-01 00:00:00+00    111.0349
1988-01-01 00:00:00+00    109.5344
1988-02-01 00:00:00+00    110.2251
1988-03-01 00:00:00+00    110.5586
1988-04-01 00:00:00+00    110.0822
1988-05-01 00:00:00+00    109.8679
1988-06-01 00:00:00+00    109.4153
1988-07-01 00:00:00+00    108.0101
1988-08-01 00:00:00+00    107.7243
1988-09-01 00:00:00+00    108.2721
1988-10-01 00:00:00+00    107.6529
1988-11-01 00:00:00+00    107.7958
1988-12-01 00:00:00+00    106.7240
1989-01-01 00:00:00+00    105.5808
1989-02-01 00:00:00+00    105.4141
1989-03-01 00:00:00+00    101.8653
1989-04-01 00:00:00+00    102.5799
1989-05-01 00:00:00+00    101.0794
1989-06-01 00:00:00+00    101.6748
1989-07-01 00:00:00+00    103.7469
1989-08-01 00:00:00+00    102.5084
1989-09-01 00:00:00+00    101.3176
1989-10-01 00:00:00+00     99.2217
1989-11-01 00:00:00+00     99.0311
1989-12-01 00:00:00+00    100.2458
1990-01-01 00:00:00+00    101.8415
1990-02-01 00:00:00+00    102.1988
1990-03-01 00:00:00+00    101.0794
1990-04-01 00:00:00+00     99.5075
1990-05-01 00:00:00+00     99.0549
1990-06-01 00:00:00+00     99.5313
1990-07-01 00:00:00+00    101.7463
1990-08-01 00:00:00+00    101.2223
1990-09-01 00:00:00+00    102.4370
1990-10-01 00:00:00+00    103.9136
1990-11-01 00:00:00+00    105.1521
1990-12-01 00:00:00+00    105.3664
1991-01-01 00:00:00+00    106.9146
1991-02-01 00:00:00+00    106.8907
1991-03-01 00:00:00+00    101.1508
1991-04-01 00:00:00+00    102.0797
1991-05-01 00:00:00+00    102.1988
1991-06-01 00:00:00+00     93.1007
1991-07-01 00:00:00+00     94.1963
1991-08-01 00:00:00+00     98.7930
1991-09-01 00:00:00+00    101.9368
1991-10-01 00:00:00+00    102.6037
1991-11-01 00:00:00+00    102.6751
1991-12-01 00:00:00+00    103.7707
1992-01-01 00:00:00+00    103.6993
1992-02-01 00:00:00+00    103.4849
1992-03-01 00:00:00+00    105.0330
1992-04-01 00:00:00+00    106.7717
1992-05-01 00:00:00+00    105.8666
1992-06-01 00:00:00+00    107.2480
1992-07-01 00:00:00+00    108.2245
1992-08-01 00:00:00+00    107.8672
1992-09-01 00:00:00+00    107.3194
1992-10-01 00:00:00+00    108.5341
1992-11-01 00:00:00+00    108.2245
1992-12-01 00:00:00+00    109.3677
1993-01-01 00:00:00+00    108.9628
1993-02-01 00:00:00+00    109.2010
1993-03-01 00:00:00+00    108.5103
1993-04-01 00:00:00+00    109.3915
1993-05-01 00:00:00+00    109.3915
1993-06-01 00:00:00+00    109.5106
1993-07-01 00:00:00+00    109.4868
1993-08-01 00:00:00+00    109.4630
1993-09-01 00:00:00+00    109.9631
1993-10-01 00:00:00+00    109.9869
1993-11-01 00:00:00+00    110.4395
1993-12-01 00:00:00+00    110.2489
1994-01-01 00:00:00+00    110.2489
1994-02-01 00:00:00+00    109.7488
1994-03-01 00:00:00+00    109.2963
1994-04-01 00:00:00+00    109.5106
1994-05-01 00:00:00+00    109.6059
1994-06-01 00:00:00+00    109.4868
1994-07-01 00:00:00+00    109.9631
1994-08-01 00:00:00+00    110.0584
1994-09-01 00:00:00+00    110.4871
1994-10-01 00:00:00+00    110.6776
1994-11-01 00:00:00+00    110.9158
1994-12-01 00:00:00+00    110.9158
1995-01-01 00:00:00+00    111.3207
1995-02-01 00:00:00+00    111.3922
1995-03-01 00:00:00+00    111.2254
1995-04-01 00:00:00+00    111.4398
1995-05-01 00:00:00+00    111.5112
1995-06-01 00:00:00+00    111.2016
1995-07-01 00:00:00+00    110.9634
1995-08-01 00:00:00+00    111.1778
1995-09-01 00:00:00+00    111.4160
1995-10-01 00:00:00+00    111.6065
1995-11-01 00:00:00+00    111.8685
1995-12-01 00:00:00+00    112.0352
1996-01-01 00:00:00+00    112.2734
1996-02-01 00:00:00+00    112.8926
1996-03-01 00:00:00+00    112.6783
1996-04-01 00:00:00+00    112.4639
1996-05-01 00:00:00+00    111.9161
1996-06-01 00:00:00+00    111.7256
1996-07-01 00:00:00+00    111.6780
1996-08-01 00:00:00+00    111.5589
1996-09-01 00:00:00+00    111.7970
1996-10-01 00:00:00+00    111.5589
1996-11-01 00:00:00+00    111.4874
1996-12-01 00:00:00+00    111.9876
1997-01-01 00:00:00+00    112.3210
1997-02-01 00:00:00+00    112.6306
1997-03-01 00:00:00+00    112.6783
1997-04-01 00:00:00+00    112.4401
1997-05-01 00:00:00+00    112.3686
1997-06-01 00:00:00+00    112.1543
1997-07-01 00:00:00+00    112.1781
1997-08-01 00:00:00+00    112.5354
1997-09-01 00:00:00+00    112.4401
1997-10-01 00:00:00+00    111.9161
1997-11-01 00:00:00+00    111.5827
1997-12-01 00:00:00+00    111.9161
1998-01-01 00:00:00+00    112.1305
1998-02-01 00:00:00+00    112.3448
1998-03-01 00:00:00+00    112.9164
1998-04-01 00:00:00+00    110.7253
1998-05-01 00:00:00+00    109.9155
1998-06-01 00:00:00+00    110.0108
1998-07-01 00:00:00+00    110.5824
1998-08-01 00:00:00+00    109.8202
1998-09-01 00:00:00+00    110.6300
1998-10-01 00:00:00+00    111.1540
1998-11-01 00:00:00+00    111.1540
1998-12-01 00:00:00+00    110.2966
1999-01-01 00:00:00+00    109.2963
1999-02-01 00:00:00+00    109.6059
1999-03-01 00:00:00+00    110.0108
1999-04-01 00:00:00+00    110.0346
1999-05-01 00:00:00+00    109.5106
1999-06-01 00:00:00+00    110.6062
1999-07-01 00:00:00+00    111.0111
1999-08-01 00:00:00+00    109.0819
1999-09-01 00:00:00+00    108.1054
1999-10-01 00:00:00+00    107.8672
1999-11-01 00:00:00+00    107.6767
1999-12-01 00:00:00+00    106.9146
2000-01-01 00:00:00+00    107.4862
2000-02-01 00:00:00+00    106.9622
2000-03-01 00:00:00+00    105.5570
2000-04-01 00:00:00+00    106.2477
2000-05-01 00:00:00+00    104.4138
2000-06-01 00:00:00+00    103.5087
2000-07-01 00:00:00+00    102.1988
2000-08-01 00:00:00+00    104.3185
2000-09-01 00:00:00+00    105.1521
2000-10-01 00:00:00+00    106.7240
2000-11-01 00:00:00+00    105.5332
2000-12-01 00:00:00+00    104.8187
2001-01-01 00:00:00+00    106.0571
2001-02-01 00:00:00+00    108.1054
2001-03-01 00:00:00+00    109.2963
2001-04-01 00:00:00+00    105.0806
2001-05-01 00:00:00+00    106.5335
2001-06-01 00:00:00+00    107.0575
2001-07-01 00:00:00+00    107.3194
2001-08-01 00:00:00+00    105.6999
2001-09-01 00:00:00+00    106.2477
2001-10-01 00:00:00+00    105.7713
2001-11-01 00:00:00+00    107.1289
2001-12-01 00:00:00+00    106.5335
2002-01-01 00:00:00+00    104.7472
2002-02-01 00:00:00+00    106.7002
2002-03-01 00:00:00+00    105.9142
2002-04-01 00:00:00+00    105.8428
2002-05-01 00:00:00+00    105.5094
2002-06-01 00:00:00+00    105.8666
2002-07-01 00:00:00+00    104.5329
2002-08-01 00:00:00+00    103.1038
2002-09-01 00:00:00+00    104.2947
2002-10-01 00:00:00+00    104.9139
2002-11-01 00:00:00+00    103.3420
2002-12-01 00:00:00+00    103.9851
2003-01-01 00:00:00+00    104.8187
2003-02-01 00:00:00+00    107.2004
2003-03-01 00:00:00+00    107.4862
2003-04-01 00:00:00+00    106.7717
2003-05-01 00:00:00+00    106.3429
2003-06-01 00:00:00+00    104.3423
2003-07-01 00:00:00+00    105.9857
2003-08-01 00:00:00+00    106.7955
2003-09-01 00:00:00+00    107.3909
2003-10-01 00:00:00+00    105.7237
2003-11-01 00:00:00+00    102.0797
2003-12-01 00:00:00+00    106.8669
2004-01-01 00:00:00+00    105.6999
2004-02-01 00:00:00+00    108.1530
2004-03-01 00:00:00+00    109.3915
2004-04-01 00:00:00+00    109.5344
2004-05-01 00:00:00+00    110.3442
2004-06-01 00:00:00+00    109.1295
2004-07-01 00:00:00+00    109.1295
2004-08-01 00:00:00+00    109.6297
2004-09-01 00:00:00+00    110.2013
2004-10-01 00:00:00+00    111.5112
2004-11-01 00:00:00+00    110.0108
2004-12-01 00:00:00+00    110.2489
2005-01-01 00:00:00+00    107.5338
2005-02-01 00:00:00+00    110.2966
2005-03-01 00:00:00+00    110.3204
2005-04-01 00:00:00+00    110.7967
2005-05-01 00:00:00+00    109.3439
2005-06-01 00:00:00+00    110.3680
2005-07-01 00:00:00+00    109.7250
2005-08-01 00:00:00+00    109.2963
2005-09-01 00:00:00+00    107.3909
2005-10-01 00:00:00+00    110.2728
2005-11-01 00:00:00+00    111.3207
2005-12-01 00:00:00+00    111.2254
2006-01-01 00:00:00+00    111.9638
2006-02-01 00:00:00+00    113.0355
2006-03-01 00:00:00+00    113.3928
2006-04-01 00:00:00+00    113.4880
2006-05-01 00:00:00+00    113.3690
2006-06-01 00:00:00+00    113.3928
2006-07-01 00:00:00+00    112.7735
2006-08-01 00:00:00+00    112.9403
2006-09-01 00:00:00+00    112.7497
2006-10-01 00:00:00+00    113.4404
2006-11-01 00:00:00+00    113.5595
2006-12-01 00:00:00+00    112.4877
2007-01-01 00:00:00+00    113.8215
2007-02-01 00:00:00+00    113.7024
2007-03-01 00:00:00+00    114.3455
2007-04-01 00:00:00+00    114.7027
2007-05-01 00:00:00+00    114.5598
2007-06-01 00:00:00+00    114.3455
2007-07-01 00:00:00+00    114.3931
2007-08-01 00:00:00+00    114.2740
2007-09-01 00:00:00+00    114.6313
2007-10-01 00:00:00+00    114.6789
2007-11-01 00:00:00+00    114.4169
2007-12-01 00:00:00+00    114.7742
2008-01-01 00:00:00+00    114.2264
2008-02-01 00:00:00+00    114.6074
2008-03-01 00:00:00+00    114.3931
2008-04-01 00:00:00+00    114.6313
2008-05-01 00:00:00+00    114.1311
2008-06-01 00:00:00+00    114.1311
2008-07-01 00:00:00+00    114.4407
2008-08-01 00:00:00+00    114.8218
2008-09-01 00:00:00+00    115.1314
2008-10-01 00:00:00+00    115.2743
2008-11-01 00:00:00+00    115.3220
2008-12-01 00:00:00+00    115.4649
2009-01-01 00:00:00+00    115.5363
2009-02-01 00:00:00+00    116.3223
2009-03-01 00:00:00+00    116.5366
2009-04-01 00:00:00+00    116.6319
2009-05-01 00:00:00+00    116.4652
2009-06-01 00:00:00+00    116.2508
2009-07-01 00:00:00+00    116.2032
2009-08-01 00:00:00+00    116.1556
2009-09-01 00:00:00+00    116.2746
2009-10-01 00:00:00+00    116.6081
2009-11-01 00:00:00+00    116.2508
2009-12-01 00:00:00+00    116.3461
2010-01-01 00:00:00+00    116.2270
2010-02-01 00:00:00+00    115.3220
2010-03-01 00:00:00+00    115.0123
2010-04-01 00:00:00+00    114.4645
2010-05-01 00:00:00+00    114.5836
2010-06-01 00:00:00+00    114.4645
2010-07-01 00:00:00+00    114.5836
2010-08-01 00:00:00+00    114.1549
2010-09-01 00:00:00+00    114.3455
2010-10-01 00:00:00+00    114.6074
2010-11-01 00:00:00+00    113.7500
2010-12-01 00:00:00+00    113.7262
2011-01-01 00:00:00+00    114.4645
2011-02-01 00:00:00+00    115.0600
2011-03-01 00:00:00+00    113.8215
2011-04-01 00:00:00+00    112.5830
2011-05-01 00:00:00+00    113.4642
2011-06-01 00:00:00+00    111.3683
2011-07-01 00:00:00+00    112.2734
2011-08-01 00:00:00+00    112.4877
2011-09-01 00:00:00+00    112.5354
2011-10-01 00:00:00+00    112.1543
2011-11-01 00:00:00+00    112.8926
2011-12-01 00:00:00+00    113.6786
2012-01-01 00:00:00+00    113.4166
2012-02-01 00:00:00+00    112.5116
2012-03-01 00:00:00+00    111.0825
2012-04-01 00:00:00+00    113.1070
2012-05-01 00:00:00+00    112.8926
2012-06-01 00:00:00+00    112.0352
2012-07-01 00:00:00+00    109.9155
2012-08-01 00:00:00+00    110.7491
2012-09-01 00:00:00+00    111.7256
2012-10-01 00:00:00+00    111.8209
2012-11-01 00:00:00+00    111.8209
2012-12-01 00:00:00+00    112.2019
2013-01-01 00:00:00+00    112.7974
2013-02-01 00:00:00+00    113.0117
2013-03-01 00:00:00+00    111.7970
2013-04-01 00:00:00+00    111.9876
2013-05-01 00:00:00+00    110.2728
2013-06-01 00:00:00+00    110.4157
2013-07-01 00:00:00+00    110.8205
2013-08-01 00:00:00+00    111.2492
2013-09-01 00:00:00+00    111.8685
2013-10-01 00:00:00+00    112.4639
2013-11-01 00:00:00+00    112.1067
2013-12-01 00:00:00+00    111.6303
2014-01-01 00:00:00+00    111.0587
2014-02-01 00:00:00+00    109.9869
2014-03-01 00:00:00+00    111.0825
2014-04-01 00:00:00+00    111.3445
2014-05-01 00:00:00+00    111.8447
2014-06-01 00:00:00+00    110.4395
2014-07-01 00:00:00+00    110.9634
2014-08-01 00:00:00+00    111.4160
2014-09-01 00:00:00+00    110.4395
2014-10-01 00:00:00+00    110.2251
2014-11-01 00:00:00+00    109.3439
2014-12-01 00:00:00+00    108.2483
2015-01-01 00:00:00+00    109.7964
2015-02-01 00:00:00+00    109.8917
2015-03-01 00:00:00+00    108.9866
2015-04-01 00:00:00+00    109.8202
2015-05-01 00:00:00+00    110.4633
2015-06-01 00:00:00+00    109.8202
2015-07-01 00:00:00+00    110.7729
2015-08-01 00:00:00+00    110.7729
2015-09-01 00:00:00+00    110.6538
2015-10-01 00:00:00+00    110.2966
2015-11-01 00:00:00+00    111.8447
2015-12-01 00:00:00+00    111.0825
2016-01-01 00:00:00+00    112.2734
2016-02-01 00:00:00+00    112.9879
2016-03-01 00:00:00+00    112.9641
2016-04-01 00:00:00+00    112.7497
2016-05-01 00:00:00+00    112.8926
2016-06-01 00:00:00+00    112.4163
2016-07-01 00:00:00+00    112.0114
2016-08-01 00:00:00+00    112.5830
2016-09-01 00:00:00+00    112.4639
2016-10-01 00:00:00+00    112.5830
2016-11-01 00:00:00+00    113.1070
2016-12-01 00:00:00+00    113.7024
2017-01-01 00:00:00+00    114.2978
2017-02-01 00:00:00+00    114.5836
2017-03-01 00:00:00+00    114.6313
2017-04-01 00:00:00+00      0.0000
2017-05-01 00:00:00+00      0.0000
2017-06-01 00:00:00+00      0.0000
2017-07-01 00:00:00+00      0.0000
2017-08-01 00:00:00+00      0.0000
2017-09-01 00:00:00+00      0.0000
2017-10-01 00:00:00+00      0.0000
2017-11-01 00:00:00+00      0.0000
2017-12-01 00:00:00+00      0.0000
