1950-01-01 00:00:00+00      0.0000
1950-02-01 00:00:00+00      0.0000
1950-03-01 00:00:00+00      0.0000
1950-04-01 00:00:00+00      0.0000
1950-05-01 00:00:00+00      0.0000
1950-06-01 00:00:00+00      0.0000
1950-07-01 00:00:00+00      0.0000
1950-08-01 00:00:00+00      0.0000
1950-09-01 00:00:00+00      0.0000
1950-10-01 00:00:00+00      0.0000
1950-11-01 00:00:00+00      0.0000
1950-12-01 00:00:00+00      0.0000
1951-01-01 00:00:00+00      0.0000
1951-02-01 00:00:00+00      0.0000
1951-03-01 00:00:00+00      0.0000
1951-04-01 00:00:00+00      0.0000
1951-05-01 00:00:00+00      0.0000
1951-06-01 00:00:00+00      0.0000
1951-07-01 00:00:00+00      0.0000
1951-08-01 00:00:00+00      0.0000
1951-09-01 00:00:00+00      0.0000
1951-10-01 00:00:00+00      0.0000
1951-11-01 00:00:00+00      0.0000
1951-12-01 00:00:00+00      0.0000
1952-01-01 00:00:00+00      0.0000
1952-02-01 00:00:00+00      0.0000
1952-03-01 00:00:00+00      0.0000
1952-04-01 00:00:00+00      0.0000
1952-05-01 00:00:00+00      0.0000
1952-06-01 00:00:00+00      0.0000
1952-07-01 00:00:00+00      0.0000
1952-08-01 00:00:00+00      0.0000
1952-09-01 00:00:00+00      0.0000
1952-10-01 00:00:00+00      0.0000
1952-11-01 00:00:00+00      0.0000
1952-12-01 00:00:00+00      0.0000
1953-01-01 00:00:00+00      0.0000
1953-02-01 00:00:00+00      0.0000
1953-03-01 00:00:00+00      0.0000
1953-04-01 00:00:00+00      0.0000
1953-05-01 00:00:00+00      0.0000
1953-06-01 00:00:00+00      0.0000
1953-07-01 00:00:00+00      0.0000
1953-08-01 00:00:00+00      0.0000
1953-09-01 00:00:00+00      0.0000
1953-10-01 00:00:00+00      0.0000
1953-11-01 00:00:00+00      0.0000
1953-12-01 00:00:00+00      0.0000
1954-01-01 00:00:00+00      0.0000
1954-02-01 00:00:00+00      0.0000
1954-03-01 00:00:00+00      0.0000
1954-04-01 00:00:00+00      0.0000
1954-05-01 00:00:00+00      0.0000
1954-06-01 00:00:00+00      0.0000
1954-07-01 00:00:00+00      0.0000
1954-08-01 00:00:00+00      0.0000
1954-09-01 00:00:00+00      0.0000
1954-10-01 00:00:00+00      0.0000
1954-11-01 00:00:00+00      0.0000
1954-12-01 00:00:00+00      0.0000
1955-01-01 00:00:00+00      0.0000
1955-02-01 00:00:00+00      0.0000
1955-03-01 00:00:00+00      0.0000
1955-04-01 00:00:00+00      0.0000
1955-05-01 00:00:00+00      0.0000
1955-06-01 00:00:00+00      0.0000
1955-07-01 00:00:00+00      0.0000
1955-08-01 00:00:00+00      0.0000
1955-09-01 00:00:00+00      0.0000
1955-10-01 00:00:00+00      0.0000
1955-11-01 00:00:00+00      0.0000
1955-12-01 00:00:00+00      0.0000
1956-01-01 00:00:00+00      0.0000
1956-02-01 00:00:00+00      0.0000
1956-03-01 00:00:00+00      0.0000
1956-04-01 00:00:00+00      0.0000
1956-05-01 00:00:00+00      0.0000
1956-06-01 00:00:00+00      0.0000
1956-07-01 00:00:00+00      0.0000
1956-08-01 00:00:00+00      0.0000
1956-09-01 00:00:00+00      0.0000
1956-10-01 00:00:00+00      0.0000
1956-11-01 00:00:00+00      0.0000
1956-12-01 00:00:00+00      0.0000
1957-01-01 00:00:00+00      0.0000
1957-02-01 00:00:00+00      0.0000
1957-03-01 00:00:00+00      0.0000
1957-04-01 00:00:00+00      0.0000
1957-05-01 00:00:00+00      0.0000
1957-06-01 00:00:00+00      0.0000
1957-07-01 00:00:00+00      0.0000
1957-08-01 00:00:00+00      0.0000
1957-09-01 00:00:00+00      0.0000
1957-10-01 00:00:00+00      0.0000
1957-11-01 00:00:00+00      0.0000
1957-12-01 00:00:00+00      0.0000
1958-01-01 00:00:00+00    198.4722
1958-02-01 00:00:00+00    202.4167
1958-03-01 00:00:00+00    198.5000
1958-04-01 00:00:00+00    198.8056
1958-05-01 00:00:00+00    206.1944
1958-06-01 00:00:00+00    209.0278
1958-07-01 00:00:00+00    203.4167
1958-08-01 00:00:00+00    207.1667
1958-09-01 00:00:00+00    206.6667
1958-10-01 00:00:00+00    207.3333
1958-11-01 00:00:00+00    207.6944
1958-12-01 00:00:00+00    205.5556
1959-01-01 00:00:00+00    206.7778
1959-02-01 00:00:00+00    203.3611
1959-03-01 00:00:00+00    209.1667
1959-04-01 00:00:00+00    213.2222
1959-05-01 00:00:00+00    208.3333
1959-06-01 00:00:00+00    213.1111
1959-07-01 00:00:00+00    198.0833
1959-08-01 00:00:00+00    200.4444
1959-09-01 00:00:00+00    203.4444
1959-10-01 00:00:00+00    209.2222
1959-11-01 00:00:00+00    209.9722
1959-12-01 00:00:00+00    208.3889
1960-01-01 00:00:00+00    204.7222
1960-02-01 00:00:00+00    208.3889
1960-03-01 00:00:00+00    212.7500
1960-04-01 00:00:00+00    205.9722
1960-05-01 00:00:00+00    205.8611
1960-06-01 00:00:00+00    210.0833
1960-07-01 00:00:00+00    211.4722
1960-08-01 00:00:00+00    215.3611
1960-09-01 00:00:00+00    215.2500
1960-10-01 00:00:00+00    213.8056
1960-11-01 00:00:00+00    213.6944
1960-12-01 00:00:00+00    213.6111
1961-01-01 00:00:00+00    216.3889
1961-02-01 00:00:00+00    210.1111
1961-03-01 00:00:00+00    219.8333
1961-04-01 00:00:00+00    220.2500
1961-05-01 00:00:00+00    223.9444
1961-06-01 00:00:00+00    225.2500
1961-07-01 00:00:00+00    216.0278
1961-08-01 00:00:00+00    221.8889
1961-09-01 00:00:00+00    222.0278
1961-10-01 00:00:00+00    222.7778
1961-11-01 00:00:00+00    227.9722
1961-12-01 00:00:00+00    227.3889
1962-01-01 00:00:00+00    228.6667
1962-02-01 00:00:00+00    226.3333
1962-03-01 00:00:00+00    226.6667
1962-04-01 00:00:00+00    224.1944
1962-05-01 00:00:00+00    227.4722
1962-06-01 00:00:00+00    227.6944
1962-07-01 00:00:00+00    228.3056
1962-08-01 00:00:00+00    228.2778
1962-09-01 00:00:00+00    225.3889
1962-10-01 00:00:00+00    225.0000
1962-11-01 00:00:00+00    227.9722
1962-12-01 00:00:00+00    227.8333
1963-01-01 00:00:00+00    232.7778
1963-02-01 00:00:00+00    235.4722
1963-03-01 00:00:00+00    235.4722
1963-04-01 00:00:00+00    236.1667
1963-05-01 00:00:00+00    232.3889
1963-06-01 00:00:00+00    234.2778
1963-07-01 00:00:00+00    234.8056
1963-08-01 00:00:00+00    234.5556
1963-09-01 00:00:00+00    230.9722
1963-10-01 00:00:00+00    233.8056
1963-11-01 00:00:00+00    235.9444
1963-12-01 00:00:00+00    237.4167
1964-01-01 00:00:00+00    239.4722
1964-02-01 00:00:00+00    239.0833
1964-03-01 00:00:00+00    240.3889
1964-04-01 00:00:00+00    242.1944
1964-05-01 00:00:00+00    242.4444
1964-06-01 00:00:00+00    244.2500
1964-07-01 00:00:00+00    244.0278
1964-08-01 00:00:00+00    244.8889
1964-09-01 00:00:00+00    245.2500
1964-10-01 00:00:00+00    245.2778
1964-11-01 00:00:00+00    245.5833
1964-12-01 00:00:00+00    248.8611
1965-01-01 00:00:00+00    248.6111
1965-02-01 00:00:00+00    248.0833
1965-03-01 00:00:00+00    250.6389
1965-04-01 00:00:00+00    252.0278
1965-05-01 00:00:00+00    252.6667
1965-06-01 00:00:00+00    248.7500
1965-07-01 00:00:00+00    247.5556
1965-08-01 00:00:00+00    246.9167
1965-09-01 00:00:00+00    247.1944
1965-10-01 00:00:00+00    248.0833
1965-11-01 00:00:00+00    250.3889
1965-12-01 00:00:00+00    250.8056
1966-01-01 00:00:00+00    248.4444
1966-02-01 00:00:00+00    248.5000
1966-03-01 00:00:00+00    245.8056
1966-04-01 00:00:00+00    243.9444
1966-05-01 00:00:00+00    246.6944
1966-06-01 00:00:00+00    242.4444
1966-07-01 00:00:00+00    240.5556
1966-08-01 00:00:00+00    240.4444
1966-09-01 00:00:00+00    229.8056
1966-10-01 00:00:00+00    235.1944
1966-11-01 00:00:00+00    237.7778
1966-12-01 00:00:00+00    234.7778
1967-01-01 00:00:00+00    231.5556
1967-02-01 00:00:00+00    229.0556
1967-03-01 00:00:00+00    233.0000
1967-04-01 00:00:00+00    234.7222
1967-05-01 00:00:00+00    229.8611
1967-06-01 00:00:00+00    229.2500
1967-07-01 00:00:00+00    232.2500
1967-08-01 00:00:00+00    229.9722
1967-09-01 00:00:00+00    229.5000
1967-10-01 00:00:00+00    230.1111
1967-11-01 00:00:00+00    226.9722
1967-12-01 00:00:00+00    226.9444
1968-01-01 00:00:00+00    228.6389
1968-02-01 00:00:00+00    227.6667
1968-03-01 00:00:00+00    225.9722
1968-04-01 00:00:00+00    227.0833
1968-05-01 00:00:00+00    225.8611
1968-06-01 00:00:00+00    221.4167
1968-07-01 00:00:00+00    222.1111
1968-08-01 00:00:00+00    223.1667
1968-09-01 00:00:00+00    219.8333
1968-10-01 00:00:00+00    216.1389
1968-11-01 00:00:00+00    209.2500
1968-12-01 00:00:00+00    211.1944
1969-01-01 00:00:00+00    218.2778
1969-02-01 00:00:00+00    220.0556
1969-03-01 00:00:00+00    218.8056
1969-04-01 00:00:00+00    217.9167
1969-05-01 00:00:00+00    210.0556
1969-06-01 00:00:00+00    207.9167
1969-07-01 00:00:00+00    210.9167
1969-08-01 00:00:00+00    215.0833
1969-09-01 00:00:00+00    217.1111
1969-10-01 00:00:00+00    217.8889
1969-11-01 00:00:00+00    217.2222
1969-12-01 00:00:00+00    218.0833
1970-01-01 00:00:00+00    217.8056
1970-02-01 00:00:00+00    220.3611
1970-03-01 00:00:00+00    219.6944
1970-04-01 00:00:00+00    216.1944
1970-05-01 00:00:00+00    217.2778
1970-06-01 00:00:00+00    211.6944
1970-07-01 00:00:00+00    211.9167
1970-08-01 00:00:00+00    215.9167
1970-09-01 00:00:00+00    220.0833
1970-10-01 00:00:00+00    218.4722
1970-11-01 00:00:00+00    216.8333
1970-12-01 00:00:00+00    223.2222
1971-01-01 00:00:00+00    223.4722
1971-02-01 00:00:00+00    227.9167
1971-03-01 00:00:00+00    228.6389
1971-04-01 00:00:00+00    230.0278
1971-05-01 00:00:00+00    233.2500
1971-06-01 00:00:00+00    239.1667
1971-07-01 00:00:00+00    240.5000
1971-08-01 00:00:00+00    242.3056
1971-09-01 00:00:00+00    241.8333
1971-10-01 00:00:00+00      0.0000
1971-11-01 00:00:00+00      0.0000
1971-12-01 00:00:00+00      0.0000
1972-01-01 00:00:00+00    240.4444
1972-02-01 00:00:00+00    241.1389
1972-03-01 00:00:00+00    244.3611
1972-04-01 00:00:00+00    247.7222
1972-05-01 00:00:00+00    246.6667
1972-06-01 00:00:00+00    241.1944
1972-07-01 00:00:00+00    246.3889
1972-08-01 00:00:00+00    233.5000
1972-09-01 00:00:00+00    244.0556
1972-10-01 00:00:00+00    245.8611
1972-11-01 00:00:00+00    243.5278
1972-12-01 00:00:00+00    244.5000
1973-01-01 00:00:00+00    243.9722
1973-02-01 00:00:00+00    244.4444
1973-03-01 00:00:00+00    242.0833
1973-04-01 00:00:00+00    236.1389
1973-05-01 00:00:00+00    230.8056
1973-06-01 00:00:00+00    241.1389
1973-07-01 00:00:00+00    244.2500
1973-08-01 00:00:00+00    246.0000
1973-09-01 00:00:00+00    248.4722
1973-10-01 00:00:00+00    248.6667
1973-11-01 00:00:00+00    248.4444
1973-12-01 00:00:00+00    249.3056
1974-01-01 00:00:00+00    249.9167
1974-02-01 00:00:00+00    250.9167
1974-03-01 00:00:00+00    248.1111
1974-04-01 00:00:00+00    246.3611
1974-05-01 00:00:00+00    241.2500
1974-06-01 00:00:00+00    238.7500
1974-07-01 00:00:00+00    234.4167
1974-08-01 00:00:00+00    238.3333
1974-09-01 00:00:00+00    235.8611
1974-10-01 00:00:00+00    236.7222
1974-11-01 00:00:00+00    237.6389
1974-12-01 00:00:00+00    242.3333
1975-01-01 00:00:00+00    242.2500
1975-02-01 00:00:00+00    245.2778
1975-03-01 00:00:00+00    246.9722
1975-04-01 00:00:00+00    249.1944
1975-05-01 00:00:00+00    249.8611
1975-06-01 00:00:00+00    251.8889
1975-07-01 00:00:00+00    251.2500
1975-08-01 00:00:00+00    249.6389
1975-09-01 00:00:00+00    250.1111
1975-10-01 00:00:00+00    248.5556
1975-11-01 00:00:00+00    245.1111
1975-12-01 00:00:00+00    246.6667
1976-01-01 00:00:00+00    246.3889
1976-02-01 00:00:00+00    248.4444
1976-03-01 00:00:00+00    249.0000
1976-04-01 00:00:00+00    247.4722
1976-05-01 00:00:00+00    250.0000
1976-06-01 00:00:00+00    251.1944
1976-07-01 00:00:00+00    252.6944
1976-08-01 00:00:00+00    253.5556
1976-09-01 00:00:00+00    253.2500
1976-10-01 00:00:00+00    252.9722
1976-11-01 00:00:00+00    252.8611
1976-12-01 00:00:00+00    252.2222
1977-01-01 00:00:00+00    250.8333
1977-02-01 00:00:00+00    251.6667
1977-03-01 00:00:00+00    251.1667
1977-04-01 00:00:00+00    252.2222
1977-05-01 00:00:00+00    252.1944
1977-06-01 00:00:00+00    251.6389
1977-07-01 00:00:00+00    247.5000
1977-08-01 00:00:00+00    248.4167
1977-09-01 00:00:00+00      0.0000
1977-10-01 00:00:00+00    251.4444
1977-11-01 00:00:00+00      0.0000
1977-12-01 00:00:00+00      0.0000
1978-01-01 00:00:00+00      0.0000
1978-02-01 00:00:00+00      0.0000
1978-03-01 00:00:00+00      0.0000
1978-04-01 00:00:00+00      0.0000
1978-05-01 00:00:00+00      0.0000
1978-06-01 00:00:00+00      0.0000
1978-07-01 00:00:00+00      0.0000
1978-08-01 00:00:00+00      0.0000
1978-09-01 00:00:00+00      0.0000
1978-10-01 00:00:00+00      0.0000
1978-11-01 00:00:00+00      0.0000
1978-12-01 00:00:00+00      0.0000
1979-01-01 00:00:00+00      0.0000
1979-02-01 00:00:00+00      0.0000
1979-03-01 00:00:00+00      0.0000
1979-04-01 00:00:00+00      0.0000
1979-05-01 00:00:00+00      0.0000
1979-06-01 00:00:00+00      0.0000
1979-07-01 00:00:00+00      0.0000
1979-08-01 00:00:00+00      0.0000
1979-09-01 00:00:00+00      0.0000
1979-10-01 00:00:00+00      0.0000
1979-11-01 00:00:00+00      0.0000
1979-12-01 00:00:00+00      0.0000
1980-01-01 00:00:00+00      0.0000
1980-02-01 00:00:00+00      0.0000
1980-03-01 00:00:00+00      0.0000
1980-04-01 00:00:00+00      0.0000
1980-05-01 00:00:00+00      0.0000
1980-06-01 00:00:00+00      0.0000
1980-07-01 00:00:00+00      0.0000
1980-08-01 00:00:00+00      0.0000
1980-09-01 00:00:00+00      0.0000
1980-10-01 00:00:00+00      0.0000
1980-11-01 00:00:00+00      0.0000
1980-12-01 00:00:00+00      0.0000
1981-01-01 00:00:00+00      0.0000
1981-02-01 00:00:00+00      0.0000
1981-03-01 00:00:00+00      0.0000
1981-04-01 00:00:00+00      0.0000
1981-05-01 00:00:00+00      0.0000
1981-06-01 00:00:00+00      0.0000
1981-07-01 00:00:00+00      0.0000
1981-08-01 00:00:00+00      0.0000
1981-09-01 00:00:00+00      0.0000
1981-10-01 00:00:00+00      0.0000
1981-11-01 00:00:00+00      0.0000
1981-12-01 00:00:00+00      0.0000
1982-01-01 00:00:00+00      0.0000
1982-02-01 00:00:00+00      0.0000
1982-03-01 00:00:00+00      0.0000
1982-04-01 00:00:00+00      0.0000
1982-05-01 00:00:00+00      0.0000
1982-06-01 00:00:00+00      0.0000
1982-07-01 00:00:00+00      0.0000
1982-08-01 00:00:00+00      0.0000
1982-09-01 00:00:00+00      0.0000
1982-10-01 00:00:00+00      0.0000
1982-11-01 00:00:00+00      0.0000
1982-12-01 00:00:00+00      0.0000
1983-01-01 00:00:00+00      0.0000
1983-02-01 00:00:00+00      0.0000
1983-03-01 00:00:00+00      0.0000
1983-04-01 00:00:00+00      0.0000
1983-05-01 00:00:00+00      0.0000
1983-06-01 00:00:00+00      0.0000
1983-07-01 00:00:00+00      0.0000
1983-08-01 00:00:00+00      0.0000
1983-09-01 00:00:00+00      0.0000
1983-10-01 00:00:00+00      0.0000
1983-11-01 00:00:00+00      0.0000
1983-12-01 00:00:00+00      0.0000
1984-01-01 00:00:00+00      0.0000
1984-02-01 00:00:00+00      0.0000
1984-03-01 00:00:00+00      0.0000
1984-04-01 00:00:00+00      0.0000
1984-05-01 00:00:00+00      0.0000
1984-06-01 00:00:00+00      0.0000
1984-07-01 00:00:00+00      0.0000
1984-08-01 00:00:00+00      0.0000
1984-09-01 00:00:00+00      0.0000
1984-10-01 00:00:00+00      0.0000
1984-11-01 00:00:00+00      0.0000
1984-12-01 00:00:00+00      0.0000
1985-01-01 00:00:00+00      0.0000
1985-02-01 00:00:00+00      0.0000
1985-03-01 00:00:00+00      0.0000
1985-04-01 00:00:00+00      0.0000
1985-05-01 00:00:00+00      0.0000
1985-06-01 00:00:00+00      0.0000
1985-07-01 00:00:00+00      0.0000
1985-08-01 00:00:00+00      0.0000
1985-09-01 00:00:00+00      0.0000
1985-10-01 00:00:00+00      0.0000
1985-11-01 00:00:00+00      0.0000
1985-12-01 00:00:00+00      0.0000
1986-01-01 00:00:00+00      0.0000
1986-02-01 00:00:00+00      0.0000
1986-03-01 00:00:00+00      0.0000
1986-04-01 00:00:00+00      0.0000
1986-05-01 00:00:00+00      0.0000
1986-06-01 00:00:00+00      0.0000
1986-07-01 00:00:00+00      0.0000
1986-08-01 00:00:00+00      0.0000
1986-09-01 00:00:00+00      0.0000
1986-10-01 00:00:00+00      0.0000
1986-11-01 00:00:00+00      0.0000
1986-12-01 00:00:00+00      0.0000
1987-01-01 00:00:00+00      0.0000
1987-02-01 00:00:00+00      0.0000
1987-03-01 00:00:00+00      0.0000
1987-04-01 00:00:00+00      0.0000
1987-05-01 00:00:00+00      0.0000
1987-06-01 00:00:00+00      0.0000
1987-07-01 00:00:00+00      0.0000
1987-08-01 00:00:00+00      0.0000
1987-09-01 00:00:00+00      0.0000
1987-10-01 00:00:00+00      0.0000
1987-11-01 00:00:00+00      0.0000
1987-12-01 00:00:00+00      0.0000
1988-01-01 00:00:00+00      0.0000
1988-02-01 00:00:00+00      0.0000
1988-03-01 00:00:00+00      0.0000
1988-04-01 00:00:00+00      0.0000
1988-05-01 00:00:00+00      0.0000
1988-06-01 00:00:00+00      0.0000
1988-07-01 00:00:00+00      0.0000
1988-08-01 00:00:00+00      0.0000
1988-09-01 00:00:00+00      0.0000
1988-10-01 00:00:00+00      0.0000
1988-11-01 00:00:00+00      0.0000
1988-12-01 00:00:00+00      0.0000
1989-01-01 00:00:00+00      0.0000
1989-02-01 00:00:00+00      0.0000
1989-03-01 00:00:00+00      0.0000
1989-04-01 00:00:00+00      0.0000
1989-05-01 00:00:00+00      0.0000
1989-06-01 00:00:00+00      0.0000
1989-07-01 00:00:00+00      0.0000
1989-08-01 00:00:00+00      0.0000
1989-09-01 00:00:00+00      0.0000
1989-10-01 00:00:00+00      0.0000
1989-11-01 00:00:00+00      0.0000
1989-12-01 00:00:00+00      0.0000
1990-01-01 00:00:00+00      0.0000
1990-02-01 00:00:00+00      0.0000
1990-03-01 00:00:00+00      0.0000
1990-04-01 00:00:00+00      0.0000
1990-05-01 00:00:00+00      0.0000
1990-06-01 00:00:00+00      0.0000
1990-07-01 00:00:00+00      0.0000
1990-08-01 00:00:00+00      0.0000
1990-09-01 00:00:00+00      0.0000
1990-10-01 00:00:00+00      0.0000
1990-11-01 00:00:00+00      0.0000
1990-12-01 00:00:00+00      0.0000
1991-01-01 00:00:00+00      0.0000
1991-02-01 00:00:00+00      0.0000
1991-03-01 00:00:00+00      0.0000
1991-04-01 00:00:00+00      0.0000
1991-05-01 00:00:00+00      0.0000
1991-06-01 00:00:00+00      0.0000
1991-07-01 00:00:00+00      0.0000
1991-08-01 00:00:00+00      0.0000
1991-09-01 00:00:00+00      0.0000
1991-10-01 00:00:00+00      0.0000
1991-11-01 00:00:00+00      0.0000
1991-12-01 00:00:00+00      0.0000
1992-01-01 00:00:00+00      0.0000
1992-02-01 00:00:00+00      0.0000
1992-03-01 00:00:00+00      0.0000
1992-04-01 00:00:00+00      0.0000
1992-05-01 00:00:00+00      0.0000
1992-06-01 00:00:00+00      0.0000
1992-07-01 00:00:00+00      0.0000
1992-08-01 00:00:00+00      0.0000
1992-09-01 00:00:00+00      0.0000
1992-10-01 00:00:00+00      0.0000
1992-11-01 00:00:00+00      0.0000
1992-12-01 00:00:00+00      0.0000
1993-01-01 00:00:00+00      0.0000
1993-02-01 00:00:00+00      0.0000
1993-03-01 00:00:00+00      0.0000
1993-04-01 00:00:00+00      0.0000
1993-05-01 00:00:00+00      0.0000
1993-06-01 00:00:00+00      0.0000
1993-07-01 00:00:00+00      0.0000
1993-08-01 00:00:00+00      0.0000
1993-09-01 00:00:00+00      0.0000
1993-10-01 00:00:00+00      0.0000
1993-11-01 00:00:00+00      0.0000
1993-12-01 00:00:00+00      0.0000
1994-01-01 00:00:00+00      0.0000
1994-02-01 00:00:00+00      0.0000
1994-03-01 00:00:00+00      0.0000
1994-04-01 00:00:00+00      0.0000
1994-05-01 00:00:00+00      0.0000
1994-06-01 00:00:00+00      0.0000
1994-07-01 00:00:00+00      0.0000
1994-08-01 00:00:00+00      0.0000
1994-09-01 00:00:00+00      0.0000
1994-10-01 00:00:00+00      0.0000
1994-11-01 00:00:00+00      0.0000
1994-12-01 00:00:00+00      0.0000
1995-01-01 00:00:00+00      0.0000
1995-02-01 00:00:00+00      0.0000
1995-03-01 00:00:00+00      0.0000
1995-04-01 00:00:00+00      0.0000
1995-05-01 00:00:00+00      0.0000
1995-06-01 00:00:00+00      0.0000
1995-07-01 00:00:00+00      0.0000
1995-08-01 00:00:00+00      0.0000
1995-09-01 00:00:00+00      0.0000
1995-10-01 00:00:00+00      0.0000
1995-11-01 00:00:00+00      0.0000
1995-12-01 00:00:00+00      0.0000
1996-01-01 00:00:00+00      0.0000
1996-02-01 00:00:00+00      0.0000
1996-03-01 00:00:00+00      0.0000
1996-04-01 00:00:00+00      0.0000
1996-05-01 00:00:00+00      0.0000
1996-06-01 00:00:00+00      0.0000
1996-07-01 00:00:00+00      0.0000
1996-08-01 00:00:00+00      0.0000
1996-09-01 00:00:00+00      0.0000
1996-10-01 00:00:00+00      0.0000
1996-11-01 00:00:00+00      0.0000
1996-12-01 00:00:00+00      0.0000
1997-01-01 00:00:00+00      0.0000
1997-02-01 00:00:00+00      0.0000
1997-03-01 00:00:00+00      0.0000
1997-04-01 00:00:00+00      0.0000
1997-05-01 00:00:00+00      0.0000
1997-06-01 00:00:00+00      0.0000
1997-07-01 00:00:00+00      0.0000
1997-08-01 00:00:00+00      0.0000
1997-09-01 00:00:00+00      0.0000
1997-10-01 00:00:00+00      0.0000
1997-11-01 00:00:00+00      0.0000
1997-12-01 00:00:00+00      0.0000
1998-01-01 00:00:00+00      0.0000
1998-02-01 00:00:00+00      0.0000
1998-03-01 00:00:00+00      0.0000
1998-04-01 00:00:00+00      0.0000
1998-05-01 00:00:00+00      0.0000
1998-06-01 00:00:00+00      0.0000
1998-07-01 00:00:00+00      0.0000
1998-08-01 00:00:00+00      0.0000
1998-09-01 00:00:00+00      0.0000
1998-10-01 00:00:00+00      0.0000
1998-11-01 00:00:00+00      0.0000
1998-12-01 00:00:00+00      0.0000
1999-01-01 00:00:00+00      0.0000
1999-02-01 00:00:00+00      0.0000
1999-03-01 00:00:00+00      0.0000
1999-04-01 00:00:00+00      0.0000
1999-05-01 00:00:00+00      0.0000
1999-06-01 00:00:00+00      0.0000
1999-07-01 00:00:00+00      0.0000
1999-08-01 00:00:00+00      0.0000
1999-09-01 00:00:00+00      0.0000
1999-10-01 00:00:00+00      0.0000
1999-11-01 00:00:00+00      0.0000
1999-12-01 00:00:00+00      0.0000
2000-01-01 00:00:00+00      0.0000
2000-02-01 00:00:00+00      0.0000
2000-03-01 00:00:00+00      0.0000
2000-04-01 00:00:00+00      0.0000
2000-05-01 00:00:00+00      0.0000
2000-06-01 00:00:00+00      0.0000
2000-07-01 00:00:00+00      0.0000
2000-08-01 00:00:00+00      0.0000
2000-09-01 00:00:00+00      0.0000
2000-10-01 00:00:00+00      0.0000
2000-11-01 00:00:00+00      0.0000
2000-12-01 00:00:00+00      0.0000
2001-01-01 00:00:00+00      0.0000
2001-02-01 00:00:00+00      0.0000
2001-03-01 00:00:00+00      0.0000
2001-04-01 00:00:00+00      0.0000
2001-05-01 00:00:00+00      0.0000
2001-06-01 00:00:00+00      0.0000
2001-07-01 00:00:00+00      0.0000
2001-08-01 00:00:00+00      0.0000
2001-09-01 00:00:00+00      0.0000
2001-10-01 00:00:00+00      0.0000
2001-11-01 00:00:00+00      0.0000
2001-12-01 00:00:00+00      0.0000
2002-01-01 00:00:00+00      0.0000
2002-02-01 00:00:00+00      0.0000
2002-03-01 00:00:00+00      0.0000
2002-04-01 00:00:00+00      0.0000
2002-05-01 00:00:00+00      0.0000
2002-06-01 00:00:00+00      0.0000
2002-07-01 00:00:00+00      0.0000
2002-08-01 00:00:00+00      0.0000
2002-09-01 00:00:00+00      0.0000
2002-10-01 00:00:00+00      0.0000
2002-11-01 00:00:00+00      0.0000
2002-12-01 00:00:00+00      0.0000
2003-01-01 00:00:00+00      0.0000
2003-02-01 00:00:00+00      0.0000
2003-03-01 00:00:00+00      0.0000
2003-04-01 00:00:00+00      0.0000
2003-05-01 00:00:00+00      0.0000
2003-06-01 00:00:00+00      0.0000
2003-07-01 00:00:00+00      0.0000
2003-08-01 00:00:00+00      0.0000
2003-09-01 00:00:00+00      0.0000
2003-10-01 00:00:00+00      0.0000
2003-11-01 00:00:00+00      0.0000
2003-12-01 00:00:00+00      0.0000
2004-01-01 00:00:00+00      0.0000
2004-02-01 00:00:00+00      0.0000
2004-03-01 00:00:00+00      0.0000
2004-04-01 00:00:00+00      0.0000
2004-05-01 00:00:00+00      0.0000
2004-06-01 00:00:00+00      0.0000
2004-07-01 00:00:00+00      0.0000
2004-08-01 00:00:00+00      0.0000
2004-09-01 00:00:00+00      0.0000
2004-10-01 00:00:00+00      0.0000
2004-11-01 00:00:00+00      0.0000
2004-12-01 00:00:00+00      0.0000
2005-01-01 00:00:00+00      0.0000
2005-02-01 00:00:00+00      0.0000
2005-03-01 00:00:00+00      0.0000
2005-04-01 00:00:00+00      0.0000
2005-05-01 00:00:00+00      0.0000
2005-06-01 00:00:00+00      0.0000
2005-07-01 00:00:00+00      0.0000
2005-08-01 00:00:00+00      0.0000
2005-09-01 00:00:00+00      0.0000
2005-10-01 00:00:00+00      0.0000
2005-11-01 00:00:00+00      0.0000
2005-12-01 00:00:00+00      0.0000
2006-01-01 00:00:00+00      0.0000
2006-02-01 00:00:00+00      0.0000
2006-03-01 00:00:00+00      0.0000
2006-04-01 00:00:00+00      0.0000
2006-05-01 00:00:00+00      0.0000
2006-06-01 00:00:00+00      0.0000
2006-07-01 00:00:00+00      0.0000
2006-08-01 00:00:00+00      0.0000
2006-09-01 00:00:00+00      0.0000
2006-10-01 00:00:00+00      0.0000
2006-11-01 00:00:00+00      0.0000
2006-12-01 00:00:00+00      0.0000
2007-01-01 00:00:00+00      0.0000
2007-02-01 00:00:00+00      0.0000
2007-03-01 00:00:00+00      0.0000
2007-04-01 00:00:00+00      0.0000
2007-05-01 00:00:00+00      0.0000
2007-06-01 00:00:00+00      0.0000
2007-07-01 00:00:00+00      0.0000
2007-08-01 00:00:00+00      0.0000
2007-09-01 00:00:00+00      0.0000
2007-10-01 00:00:00+00      0.0000
2007-11-01 00:00:00+00      0.0000
2007-12-01 00:00:00+00      0.0000
2008-01-01 00:00:00+00      0.0000
2008-02-01 00:00:00+00      0.0000
2008-03-01 00:00:00+00      0.0000
2008-04-01 00:00:00+00      0.0000
2008-05-01 00:00:00+00      0.0000
2008-06-01 00:00:00+00      0.0000
2008-07-01 00:00:00+00      0.0000
2008-08-01 00:00:00+00      0.0000
2008-09-01 00:00:00+00      0.0000
2008-10-01 00:00:00+00      0.0000
2008-11-01 00:00:00+00      0.0000
2008-12-01 00:00:00+00      0.0000
2009-01-01 00:00:00+00    260.8889
2009-02-01 00:00:00+00      0.0000
2009-03-01 00:00:00+00      0.0000
2009-04-01 00:00:00+00      0.0000
2009-05-01 00:00:00+00      0.0000
2009-06-01 00:00:00+00      0.0000
2009-07-01 00:00:00+00      0.0000
2009-08-01 00:00:00+00      0.0000
2009-09-01 00:00:00+00      0.0000
2009-10-01 00:00:00+00      0.0000
2009-11-01 00:00:00+00      0.0000
2009-12-01 00:00:00+00      0.0000
2010-01-01 00:00:00+00      0.0000
2010-02-01 00:00:00+00      0.0000
2010-03-01 00:00:00+00      0.0000
2010-04-01 00:00:00+00      0.0000
2010-05-01 00:00:00+00      0.0000
2010-06-01 00:00:00+00      0.0000
2010-07-01 00:00:00+00      0.0000
2010-08-01 00:00:00+00      0.0000
2010-09-01 00:00:00+00      0.0000
2010-10-01 00:00:00+00      0.0000
2010-11-01 00:00:00+00      0.0000
2010-12-01 00:00:00+00      0.0000
2011-01-01 00:00:00+00      0.0000
2011-02-01 00:00:00+00      0.0000
2011-03-01 00:00:00+00      0.0000
2011-04-01 00:00:00+00      0.0000
2011-05-01 00:00:00+00      0.0000
2011-06-01 00:00:00+00      0.0000
2011-07-01 00:00:00+00      0.0000
2011-08-01 00:00:00+00      0.0000
2011-09-01 00:00:00+00      0.0000
2011-10-01 00:00:00+00      0.0000
2011-11-01 00:00:00+00      0.0000
2011-12-01 00:00:00+00      0.0000
2012-01-01 00:00:00+00      0.0000
2012-02-01 00:00:00+00      0.0000
2012-03-01 00:00:00+00      0.0000
2012-04-01 00:00:00+00      0.0000
2012-05-01 00:00:00+00      0.0000
2012-06-01 00:00:00+00      0.0000
2012-07-01 00:00:00+00      0.0000
2012-08-01 00:00:00+00      0.0000
2012-09-01 00:00:00+00      0.0000
2012-10-01 00:00:00+00      0.0000
2012-11-01 00:00:00+00      0.0000
2012-12-01 00:00:00+00      0.0000
2013-01-01 00:00:00+00      0.0000
2013-02-01 00:00:00+00      0.0000
2013-03-01 00:00:00+00      0.0000
2013-04-01 00:00:00+00      0.0000
2013-05-01 00:00:00+00      0.0000
2013-06-01 00:00:00+00      0.0000
2013-07-01 00:00:00+00      0.0000
2013-08-01 00:00:00+00      0.0000
2013-09-01 00:00:00+00      0.0000
2013-10-01 00:00:00+00      0.0000
2013-11-01 00:00:00+00      0.0000
2013-12-01 00:00:00+00      0.0000
2014-01-01 00:00:00+00      0.0000
2014-02-01 00:00:00+00      0.0000
2014-03-01 00:00:00+00      0.0000
2014-04-01 00:00:00+00      0.0000
2014-05-01 00:00:00+00      0.0000
2014-06-01 00:00:00+00      0.0000
2014-07-01 00:00:00+00      0.0000
2014-08-01 00:00:00+00      0.0000
2014-09-01 00:00:00+00      0.0000
2014-10-01 00:00:00+00      0.0000
2014-11-01 00:00:00+00      0.0000
2014-12-01 00:00:00+00      0.0000
2015-01-01 00:00:00+00      0.0000
2015-02-01 00:00:00+00      0.0000
2015-03-01 00:00:00+00      0.0000
2015-04-01 00:00:00+00      0.0000
2015-05-01 00:00:00+00      0.0000
2015-06-01 00:00:00+00      0.0000
2015-07-01 00:00:00+00      0.0000
2015-08-01 00:00:00+00      0.0000
2015-09-01 00:00:00+00      0.0000
2015-10-01 00:00:00+00      0.0000
2015-11-01 00:00:00+00      0.0000
2015-12-01 00:00:00+00      0.0000
2016-01-01 00:00:00+00      0.0000
2016-02-01 00:00:00+00      0.0000
2016-03-01 00:00:00+00      0.0000
2016-04-01 00:00:00+00      0.0000
2016-05-01 00:00:00+00      0.0000
2016-06-01 00:00:00+00      0.0000
2016-07-01 00:00:00+00      0.0000
2016-08-01 00:00:00+00      0.0000
2016-09-01 00:00:00+00      0.0000
2016-10-01 00:00:00+00      0.0000
2016-11-01 00:00:00+00      0.0000
2016-12-01 00:00:00+00      0.0000
2017-01-01 00:00:00+00      0.0000
2017-02-01 00:00:00+00      0.0000
2017-03-01 00:00:00+00      0.0000
2017-04-01 00:00:00+00      0.0000
2017-05-01 00:00:00+00      0.0000
2017-06-01 00:00:00+00      0.0000
2017-07-01 00:00:00+00      0.0000
2017-08-01 00:00:00+00      0.0000
2017-09-01 00:00:00+00      0.0000
2017-10-01 00:00:00+00      0.0000
2017-11-01 00:00:00+00      0.0000
2017-12-01 00:00:00+00      0.0000
